{

    "year": "ul2016post",
    "datadir": "/afs/desy.de/user/y/yian/cms/topgamma/data/2016post",
    "store": "/data/dust/group/cms/topcmsdesy/nanoaod_topv",
    "rng_seed_file": "$CONFDIR/seed.txt",
    "compute_systematics": true,
    "only_nonprompt_syst": true,
    "top_pt_reweighting": {
        "method": "datanlo",
        "scale": 0.997175,
        "a": 0.0615,
        "b": -0.0005
    },
    "lumimask": "$CONFDIR/Cert_271036-284044_13TeV_Legacy2016_Collisions16_JSON.txt",
    "ML_model": "$DATADIR/ML/",
    "luminosity": 16.81,
    "split_pdf_uncs":true,
    "crosssections": "$CONFDIR/crosssections.json",
    "data_pu_hist": "$DATADIR/PU/my2016PUHist_nominal.root",
    "data_pu_hist_up": "$DATADIR/PU/my2016UHist_up.root",
    "data_pu_hist_down": "$DATADIR/PU/my2016PUHist_down.root",
    "pileup_reweighting": "$DATADIR/PU/pileup.root",
    "pdf_types": {
    "91400": "Hessian",
    "325300": "Hessian",
    "325500": "Hessian",
    "306000": "Hessian"
    },
    "muon_rochester": "$DATADIR/roccor/RoccoR2016bUL.txt",
    "electron_sf": [
        [
          "$DATADIR/electron_sf/egammaEffi.txt_Ele_Medium_EGM2D_UL2016postVFP.root",
          "EGamma_SF2D",
          ["eta", "pt"]
        ],
        [
          "$DATADIR/electron_sf/egammaEffi_ptAbove20.txt_EGM2D_UL2016postVFP.root",
          "EGamma_SF2D",
          ["eta", "pt"]
        ],
        [
          "$DATADIR/trigger_sf/egammaEffi.txt_EGM2D.root",
          "EGamma_SF2D",
          ["eta", "pt"]
        ]
    ],
    "muon_sf": [
        [
          "$DATADIR/muon_sf/Efficiencies_muon_generalTracks_Z_Run2016_UL_ID.root",
          "NUM_TightID_DEN_TrackerMuons_abseta_pt",
          ["abseta","pt"]
        ],
        [
          "$DATADIR/muon_sf/Efficiencies_muon_generalTracks_Z_Run2016_UL_ISO.root", 
          "NUM_TightRelIso_DEN_TightIDandIPCut_abseta_pt",
          ["abseta","pt"]
        ],
        [
          "$DATADIR/muon_sf/Efficiency_muon_generalTracks_Run2016postVFP_UL_trackerMuon.root", 
          "NUM_TrackerMuons_DEN_genTracks",
          ["abseta","pt"]
        ],
        [
          "$DATADIR/trigger_sf/NUM_IsoMu24_or_IsoTkMu24_DEN_CutBasedIdTight_and_PFIsoTight16post.root",
          "NUM_IsoMu24_or_IsoTkMu24_DEN_CutBasedIdTight_and_PFIsoTight_abseta_pt",
          ["abseta","pt"]
        ]
    ],
    "photon_sf": [
        [
        "$DATADIR/photon_sf/egammaEffi.txt_EGM2D_Pho_Med_UL16postVFP.root",
        "EGamma_SF2D",
        ["eta", "pt"]
        ]
    ],
    "psv_sf": [
        [
        "$DATADIR/photon_sf/HasPix_SummaryPlot_UL16_postVFP.root",
        "MediumID/SF_HasPix_MediumID"
        ]
    ],
    "jet_puid_sf":[
        [
          "$DATADIR/jet_puid/PUID_106XTraining_ULRun2_EffSFandUncties_v1.root",
          "h2_eff_mcUL2016_L",
          ["pt","eta"]
        ],
        [
          "$DATADIR/jet_puid/PUID_106XTraining_ULRun2_EffSFandUncties_v1.root",
          "h2_eff_sfUL2016_L",
          ["pt","eta"]
        ]
    ],
    "jet_puid_sf_unc":[
        [
          "$DATADIR/jet_puid/PUID_106XTraining_ULRun2_EffSFandUncties_v1.root",
          "h2_eff_sfUL2016_L_Systuncty",
          ["pt","eta"]
        ]
    ],
    "nonprompt_leptonsf_all": [
        "$DATADIR/nonprompt_lepton/nonprompt_leptonsf_abseta_pt_16post.root",
        ["ele_rate","muon_rate"]
    ],
    "nonprompt_photon_sf": [
        "$DATADIR/nonprompt_photon/nonprompt_photon_rate_16post.root",
        ["ele_rate","muon_rate"]
    ],
    "nonprompt_photonsf_all": [
        "$DATADIR/nonprompt_photon/nonprompt_photonsf_abseta_pt_16post.root",
        ["ele_rate","muon_rate"]
    ],
    "nonprompt_photon_sf_ttbar": [
        "$DATADIR/nonprompt_photon/nonprompt_photon_ttbar_rate_16post.root",
        ["ele_rate","muon_rate"]
    ],
    "nonprompt_photonsf_ttbar_all": [
        "$DATADIR/nonprompt_photon/nonprompt_ttbar_photonsf_abseta_pt_16post.root",
        ["ele_rate","muon_rate"]
    ],
    "nonprompt_MCcorrection": [
        "$DATADIR/nonprompt_photon/nonprompt_Mccorrection_16post.root",
        ["ele_corr_factor","muon_corr_factor"]
    ],
    "btag_sf" : [
        [
        "$DATADIR/btag/btagging16post.json",
        "$DATADIR/btag/deepjet_medium_eff_ul16post.root"
        ]
    ],
    "btag": "deepjet:medium",
    "btag_method": "fixedwp",
    "btag_measure_type": "comb",
    "btag_ignoremissing": false,
    "split_muon_uncertainty": false,
    "split_btag_year_corr": true,
    "reapply_jec": false,
    "jet_correction_mc": [
        "$DATADIR/JEC/Summer19UL16_V7_MC/Summer19UL16_V7_MC_L1FastJet_AK4PFchs.txt",
        "$DATADIR/JEC/Summer19UL16_V7_MC/Summer19UL16_V7_MC_L2Relative_AK4PFchs.txt",
        "$DATADIR/JEC/Summer19UL16_V7_MC/Summer19UL16_V7_MC_L3Absolute_AK4PFchs.txt"
    ],
    "jet_uncertainty": "$DATADIR/RegroupedV2_Summer19UL16_V7_MC_UncertaintySources_AK4PFchs.txt",
    "jet_resolution": "$DATADIR/JER/Summer20UL16_JRV3_MC/Summer20UL16_JRV3_MC_PtResolution_AK4PFchs.txt",
    "jet_ressf": "$DATADIR/JER/Summer20UL16_JRV3_MC/Summer20UL16_JRV3_MC_SF_AK4PFchs.txt",
    "smear_met": true,
    "data_eras": {
        "2016F-noHIPM": [278769, 278808],
        "2016G": [278820, 280385],
        "2016H": [281613, 284044]
    },
    "exp_datasets": {
        "SingleMuon": [
            "/SingleMuon/Run2016F-UL2016_MiniAODv2_NanoAODv9-v1/NANOAOD",
            "/SingleMuon/Run2016G-UL2016_MiniAODv2_NanoAODv9-v1/NANOAOD",
            "/SingleMuon/Run2016H-UL2016_MiniAODv2_NanoAODv9-v1/NANOAOD"
        ],
        "SingleElectron": [
            "/SingleElectron/Run2016F-UL2016_MiniAODv2_NanoAODv9-v1/NANOAOD",
            "/SingleElectron/Run2016G-UL2016_MiniAODv2_NanoAODv9-v1/NANOAOD",
            "/SingleElectron/Run2016H-UL2016_MiniAODv2_NanoAODv9-v1/NANOAOD"
        ]
    },
    "mc_datasets": {
        "TGJets_leptonDecays_TuneCP5_13TeV-amcatnlo-pythia8":[
            "/TGJets_leptonDecays_TuneCP5_13TeV-amcatnlo-pythia8/RunIISummer20UL16NanoAODv9-106X_mcRun2_asymptotic_v17-v1/NANOAODSIM"
        ],
        "TGJets_TuneCP5_13TeV-amcatnlo-madspin-pythia8":[
            "/TGJets_TuneCP5_13TeV-amcatnlo-madspin-pythia8/RunIISummer20UL16NanoAODv9-106X_mcRun2_asymptotic_v17-v2/NANOAODSIM",
            "/TGJets_TuneCP5_13TeV-amcatnlo-madspin-pythia8/RunIISummer20UL16NanoAODv9-106X_mcRun2_asymptotic_v17_ext1-v1/NANOAODSIM"
        ],
        "ST_t-channel_top_4f_InclusiveDecays_TuneCP5_13TeV-powheg-madspin-pythia8":[
            "/ST_t-channel_top_4f_InclusiveDecays_TuneCP5_13TeV-powheg-madspin-pythia8/RunIISummer20UL16NanoAODv9-106X_mcRun2_asymptotic_v17-v1/NANOAODSIM"
        ],
        "ST_t-channel_antitop_4f_InclusiveDecays_TuneCP5_13TeV-powheg-madspin-pythia8":[
            "/ST_t-channel_antitop_4f_InclusiveDecays_TuneCP5_13TeV-powheg-madspin-pythia8/RunIISummer20UL16NanoAODv9-106X_mcRun2_asymptotic_v17-v1/NANOAODSIM"
        ],
        "TTGamma_SingleLept_TuneCP5_13TeV-madgraph-pythia8":[
            "/TTGamma_SingleLept_TuneCP5_13TeV-madgraph-pythia8/RunIISummer20UL16NanoAODv9-106X_mcRun2_asymptotic_v17-v1/NANOAODSIM"
        ],
        "TTGJets_TuneCP5_13TeV-amcatnloFXFX-madspin-pythia8":[
            "/TTGJets_TuneCP5_13TeV-amcatnloFXFX-madspin-pythia8/RunIISummer20UL16NanoAODv9-106X_mcRun2_asymptotic_v17-v1/NANOAODSIM"
        ],
        "TTToSemiLeptonic_TuneCP5_13TeV-powheg-pythia8": [
            "/TTToSemiLeptonic_TuneCP5_13TeV-powheg-pythia8/RunIISummer20UL16NanoAODv9-106X_mcRun2_asymptotic_v17-v1/NANOAODSIM"
        ],
        "TTGamma_Dilept_TuneCP5_13TeV-madgraph-pythia8": [
           "/TTGamma_Dilept_TuneCP5_13TeV-madgraph-pythia8/RunIISummer20UL16NanoAODv9-106X_mcRun2_asymptotic_v17-v1/NANOAODSIM"
        ],
        "TTTo2L2Nu_TuneCP5_13TeV-powheg-pythia8": [
            "/TTTo2L2Nu_TuneCP5_13TeV-powheg-pythia8/RunIISummer20UL16NanoAODv9-106X_mcRun2_asymptotic_v17-v1/NANOAODSIM"
        ],
        "ST_s-channel_4f_leptonDecays_TuneCP5_13TeV-amcatnlo-pythia8": [
            "/ST_s-channel_4f_leptonDecays_TuneCP5_13TeV-amcatnlo-pythia8/RunIISummer20UL16NanoAODv9-106X_mcRun2_asymptotic_v17-v1/NANOAODSIM"
        ],
        "ST_tW_top_5f_inclusiveDecays_TuneCP5_13TeV-powheg-pythia8" : [
            "/ST_tW_top_5f_inclusiveDecays_TuneCP5_13TeV-powheg-pythia8/RunIISummer20UL16NanoAODv9-106X_mcRun2_asymptotic_v17-v2/NANOAODSIM"
        ],
        "ST_tW_antitop_5f_inclusiveDecays_TuneCP5_13TeV-powheg-pythia8" : [
            "/ST_tW_antitop_5f_inclusiveDecays_TuneCP5_13TeV-powheg-pythia8/RunIISummer20UL16NanoAODv9-106X_mcRun2_asymptotic_v17-v2/NANOAODSIM"
        ],
        "TTWJetsToLNu_TuneCP5_13TeV-amcatnloFXFX-madspin-pythia8": [
            "/TTWJetsToLNu_TuneCP5_13TeV-amcatnloFXFX-madspin-pythia8/RunIISummer20UL16NanoAODv9-106X_mcRun2_asymptotic_v17-v1/NANOAODSIM"
        ],
        "TTWJetsToQQ_TuneCP5_13TeV-amcatnloFXFX-madspin-pythia8": [
            "/TTWJetsToQQ_TuneCP5_13TeV-amcatnloFXFX-madspin-pythia8/RunIISummer20UL16NanoAODv9-106X_mcRun2_asymptotic_v17-v1/NANOAODSIM"
        ],
        "TTZToQQ_TuneCP5_13TeV-amcatnlo-pythia8": [
            "/TTZToQQ_TuneCP5_13TeV-amcatnlo-pythia8/RunIISummer20UL16NanoAODv9-106X_mcRun2_asymptotic_v17-v1/NANOAODSIM"
        ],
        "TTZToNuNu_TuneCP5_13TeV_amcatnlo-pythia8": [
            "/TTZToNuNu_TuneCP5_13TeV_amcatnlo-pythia8/RunIISummer20UL16NanoAODv9-106X_mcRun2_asymptotic_v17-v2/NANOAODSIM"
        ],
        "WJetsToLNu_TuneCP5_13TeV-amcatnloFXFX-pythia8": [
            "/WJetsToLNu_TuneCP5_13TeV-amcatnloFXFX-pythia8/RunIISummer20UL16NanoAODv9-106X_mcRun2_asymptotic_v17-v2/NANOAODSIM"
        ],
        "WGToLNuG_01J_5f_TuneCP5_13TeV-amcatnloFXFX-pythia8": [
            "/WGToLNuG_01J_5f_TuneCP5_13TeV-amcatnloFXFX-pythia8/RunIISummer20UL16NanoAODv9-106X_mcRun2_asymptotic_v17-v1/NANOAODSIM"
        ],
        "DYJetsToLL_M-10to50_TuneCP5_13TeV-amcatnloFXFX-pythia8": [
            "/DYJetsToLL_M-10to50_TuneCP5_13TeV-amcatnloFXFX-pythia8/RunIISummer20UL16NanoAODv9-106X_mcRun2_asymptotic_v17-v1/NANOAODSIM"
        ],
        "DYJetsToLL_M-50_TuneCP5_13TeV-amcatnloFXFX-pythia8": [
            "/DYJetsToLL_M-50_TuneCP5_13TeV-amcatnloFXFX-pythia8/RunIISummer20UL16NanoAODv9-106X_mcRun2_asymptotic_v17-v1/NANOAODSIM"
        ],
        "ZGToLLG_01J_5f_lowMLL_lowGPt_TuneCP5_13TeV-amcatnloFXFX-pythia8": [
            "/ZGToLLG_01J_5f_lowMLL_lowGPt_TuneCP5_13TeV-amcatnloFXFX-pythia8/RunIISummer20UL16NanoAODv9-106X_mcRun2_asymptotic_v17-v1/NANOAODSIM"
        ],
        "WW_TuneCP5_13TeV-pythia8": [
            "/WW_TuneCP5_13TeV-pythia8/RunIISummer20UL16NanoAODv9-106X_mcRun2_asymptotic_v17-v1/NANOAODSIM"
        ],
        "WZ_TuneCP5_13TeV-pythia8" : [
            "/WZ_TuneCP5_13TeV-pythia8/RunIISummer20UL16NanoAODv9-106X_mcRun2_asymptotic_v17-v1/NANOAODSIM"
        ],
        "ZZ_TuneCP5_13TeV-pythia8": [
            "/ZZ_TuneCP5_13TeV-pythia8/RunIISummer20UL16NanoAODv9-106X_mcRun2_asymptotic_v17-v1/NANOAODSIM"
        ],
        "ST_tWAto2L2Nu_5f_TuneCP5_13TeV-madgraph-pythia8" :[
            "/ST_tWAto2L2Nu_5f_TuneCP5_13TeV-madgraph-pythia8/RunIISummer20UL16NanoAODv9-106X_mcRun2_asymptotic_v17-v1/NANOAODSIM"
        ]
    },
    "dataset_for_systematics": {
    },
    "dataset_trigger_order": [
        "SingleElectron",
        "SingleMuon"
    ],
    "dataset_trigger_map": {
        "SingleMuon": [
            "HLT_IsoMu24",
            "HLT_IsoTkMu24"
        ],
        "SingleElectron": [
            "HLT_Ele27_WPTight_Gsf"
        ]
    },
    "trigger_muon_path":["IsoMu24","IsoTkMu24"],
    "trigger_ele_path": ["Ele27_WPTight_Gsf"],

    "column_output_format": "root",
    "columns_to_save": [
        [
	    "Lepton",
            "pt"
	],
        [
	    "Lepton",
            "eta"
	],
        [
	    "Lepton",
            "phi"
	],
        [
	    "Lepton",
            "mass"
	],
        [
	    "Lepton",
            "pdgId"
	],
        [
            "Lepton_charge"
        ],
        [
            "Lepton_isPrompt"
        ],
        [
	    "Photon",
            "pt"
	],
        [
	    "Photon",
            "eta"
	],
        [
	    "Photon",
            "phi"
	],
	[
	    "Jet",
	    "pt"
	],
	[
	    "Jet",
	    "eta"
	],
	[
	    "Jet",
	    "phi"
	],
	[
	    "Jet",
	    "mass"
	],
	[
	    "Jet",
	    "btagged"
	],
        [
            "Jet",
            "btag"
        ],
        [
            "nbtag"
        ],    
        [
            "n_noBjet"
        ],    
        [
            "n_loose_btag"
        ],    
        [
            "ncentral_jets"
        ],    
        [
            "nforward_jets"
        ],    
	[
	    "bJet",
	    "pt"
	],
	[
	    "bJet",
	    "eta"
	],
	[
	    "bJet",
	    "phi"
	],
	[
	    "bJet",
	    "mass"
	],
	[
	    "noBjet",
	    "pt"
	],
	[
	    "noBjet",
	    "eta"
	],
	[
	    "noBjet",
	    "phi"
	],
	[
	    "noBjet",
	    "mass"
	],
	[
	    "reco_W",
	    "pt"
	],
	[
	    "reco_W",
	    "eta"
	],
	[
	    "reco_W",
	    "energy"
	],
        [
            "tophad_m"
        ],
        [
            "tophad_pt"
        ],
        [
            "tophad_eta"
        ],
        [
            "tophad_phi"
        ], 
        [
            "toplep_m"
        ],
        [
            "toplep_pt"
        ],
        [
            "toplep_eta"
        ],
        [
            "toplep_phi"
        ],
        [
            "chi2"
        ],
	[
	    "MET",
	    "pt"
	],
	[
	    "MET",
	    "phi"
	],
        [
            "Neutrino1",
            "pt"
        ],
        [
            "Neutrino1",
            "eta"
        ],
        [
            "Neutrino1",
            "phi"
        ],
        [
            "mlg"
	],
        [
            "mTW"
	],
        [
            "deltaR_lg"
        ],
        [
            "deltaR_lj"
        ],
        [
            "deltaR_jg"
        ],
        [
            "GenPhoton",
            "pt"
        ],
        [
            "GenPhoton",
            "eta"
        ],
        [
            "GenPhoton",
            "phi"
        ],
        [
            "GenTopPos",
            "pt"
        ],
        [
            "GenTopPos",
            "eta"
        ],
        [
            "GenTopPos",
            "phi"
        ],
        [
            "GenTopNeg",
            "pt"
        ],
        [
            "GenTopNeg",
            "eta"
        ],
        [
            "GenTopNeg",
            "phi"
        ]
    ],
    "apply_met_filters": true,
    "mc_lumifactors": "$CONFDIR/mc_lumi_factors_2016post.json",

    "ele_eta_min": -2.5,
    "ele_eta_max": 2.5,
    "good_ele_pt_min": 35.0,
    "veto_ele_pt_min": 15.0,

    "muon_eta_min": -2.4,
    "muon_eta_max": 2.4,
    "good_muon_pt_min": 30.0,
    "veto_muon_pt_min": 15,

    "good_jet_id": "cut:tight",
    "good_jet_puId": "cut:tight",
    "good_jet_lepton_distance": 0.4,
    "good_jet_photon_distance": 0.4,
    "good_jet_eta_min": -4.7,
    "good_jet_eta_max": 4.7,
    "good_jet_pt_min": 30,
    "num_jets_atleast":2,

    "btag": "deepjet:medium",
    "loose_btag": "deepjet:loose",
    "num_atleast_btagged": 1,

    "hem_cut_if_ele": false,
    "hem_cut_if_pho": false,
    "hem_cut_if_muon": false,
    "hem_cut_if_jet": false,
    "photon_phi_removal":false,

    "met_min_met": 20,
    "cuts_to_histogram": ["finalselection"],
    "hists": "$CONFDIR/fit_hist.json"
}

