{
    "TGJets_leptonDecays_TuneCP5_13TeV-amcatnlo-pythia8": 0.003040732165316225,
    "TGJets_leptonDecays_TuneCP5_13TeV-amcatnlo-pythia8_LHEScaleSumw": [
        0.9770362167856582,
        0.9765343282980212,
        0.9657344495448957,
        0.9929061811446971,
        0.9991694208747673,
        1.0265005088620727,
        1.0390463000426624,
        1.0452859457075694
    ],
    "TGJets_leptonDecays_TuneCP5_13TeV-amcatnlo-pythia8_LHEPdfSumw": [
        1.0,
        0.9994364742682155,
        1.000764171394576,
        0.9994910911903949,
        0.9989785543036903,
        0.9996312735935635,
        0.9989363697686658,
        0.9990647160561605,
        0.9988821313842917,
        1.0001914572765207,
        1.0003865161705539,
        1.0010288463611452,
        0.9992487180207422,
        0.9993994047072969,
        0.9991069773159764,
        0.999535947214295,
        0.999535668412073,
        0.9996872965113737,
        1.0005113097931442,
        1.0005115998815446,
        1.0001004557708162,
        1.0003992227495428,
        1.000001569482352,
        0.9995787406929905,
        1.000114041588979,
        0.9998001058812217,
        0.9998736441782752,
        1.00051457862771,
        0.9998724491079504,
        1.0004810894221552,
        0.9996196523910178,
        1.0005111352772003,
        0.9999851287845052,
        0.9997056239408669,
        1.000288850509159,
        1.000140288636479,
        0.999830332432117,
        1.0002793507026506,
        0.9998514908984919,
        1.0009238131108027,
        1.000591295900302,
        0.9996606399788254,
        1.000855477242874,
        1.0006482019095917,
        1.0003342403399689,
        1.000663271458901,
        1.001197901492736,
        1.000413453791009,
        0.999752455239145,
        1.000553557036305,
        1.0003622461941908,
        0.9997984208092168,
        0.9997374523448408,
        0.9997654529967223,
        1.0000004264812274,
        0.9998509718648627,
        0.9998961790930715,
        1.0000905769534512,
        0.9998911197222383,
        0.9997187243325687,
        1.0000198315340896,
        1.0000767762537803,
        0.9996186639869544,
        1.0000094338354168,
        0.9994896409333954,
        0.9997871348875713,
        1.0000769401834784,
        0.9997570005885846,
        0.9997406756034426,
        0.9998534046534077,
        1.0001485753127535,
        0.9999826048084131,
        0.9999518658671538,
        0.9997817722870164,
        1.0001870331282696,
        1.0002052353400988,
        1.0000325971076496,
        0.9994698227608262,
        1.0000572990525607,
        1.0002054910400195,
        1.0000460283748416,
        1.0000604430758018,
        1.0000162512270723,
        0.9999902361411366,
        0.9999087606144063,
        1.0000188521272426,
        1.0000320210346594,
        0.9999531882031242,
        0.9998177702059143,
        0.9999860212518095,
        0.9998674357383552,
        0.999913408277668,
        0.9999195307046063,
        1.0000521196817176,
        1.0001381323905434,
        0.9999657665662437,
        1.0001420924340005,
        0.9999518061366124,
        1.0000517488132015,
        1.0000134811660657,
        0.9999999745604381
    ],
    "TGJets_leptonDecays_TuneCP5_13TeV-amcatnlo-pythia8_PSSumw": [
        1.0001682043075562,
        1.0009654760360718,
        0.9998745322227478,
        0.9983572363853455
    ],
    "TGJets_TuneCP5_13TeV-amcatnlo-madspin-pythia8": 0.02066472832674384,
    "TGJets_TuneCP5_13TeV-amcatnlo-madspin-pythia8_LHEScaleSumw": [
        0.9770880010901153,
        0.9757613331276093,
        0.9641719869516452,
        0.9935881353898245,
        1.0,
        0.9984826995612974,
        1.0276101790054393,
        1.0395651292486479,
        1.045192878441902
    ],
    "TGJets_TuneCP5_13TeV-amcatnlo-madspin-pythia8_LHEPdfSumw": [
        1.0,
        0.9994577814759052,
        1.000728715290978,
        0.999459127766289,
        0.9989672239195099,
        0.9996655170126995,
        0.9989658573403457,
        0.9990125837929427,
        0.9989293569218598,
        1.0002299629538247,
        1.0005751538009693,
        1.0010162560801792,
        0.9992352840257055,
        0.9993754346388574,
        0.999108319393484,
        0.9994588871808119,
        0.9996350106431509,
        0.999590388510868,
        1.000620801321313,
        1.0004891205316029,
        1.0000281429110818,
        1.0003953892529809,
        1.0000157661142923,
        0.9996012953998207,
        1.0001329866540267,
        0.9995398528856245,
        0.999906725290011,
        1.0006852506862598,
        0.9999651539250948,
        1.0004237298668013,
        0.9993827035461077,
        1.000539238809874,
        0.9999128207203875,
        0.9994534922428473,
        1.00029159476658,
        1.0001833065166845,
        0.9997420438563067,
        1.0001535893332256,
        0.9998350668946966,
        1.0008442708093863,
        1.0005103961076292,
        0.9996698346049279,
        1.000688755742977,
        1.0004191995161809,
        1.0002317315553848,
        1.0005424291059009,
        1.000967309763253,
        1.000398557341304,
        0.9998135819542215,
        1.0004399344550525,
        1.0003579414083392,
        1.0000107011734078,
        0.9997296886998299,
        0.999904513141303,
        0.9999372641266612,
        0.9999767864294313,
        1.0000016762151793,
        1.000196936654302,
        1.000006959276418,
        0.9996657447545129,
        1.0000217813705863,
        0.9999860407772951,
        0.9996974540661386,
        1.0000794063029868,
        0.9995475026528882,
        0.9997678844016211,
        1.0001034412582457,
        0.9998482837836744,
        0.999692622237353,
        0.9998602791562876,
        1.00016594628697,
        1.0000293788364634,
        0.9999677637621605,
        0.9998371269660036,
        1.000236311491642,
        1.000160944944726,
        1.0000738215897307,
        0.9994574035804905,
        1.000032692626827,
        1.0002730424454722,
        1.0000721521808558,
        1.0001046616988118,
        0.9999830276697698,
        0.999998695223484,
        0.9999194410812406,
        1.0000325615030023,
        1.0000784131033222,
        0.9999758399236001,
        0.9998628964079199,
        0.9999875518752532,
        0.9998037564974768,
        0.9999352134164246,
        0.9999168465700942,
        1.0000462027368435,
        1.0001561113203004,
        0.9999933269906964,
        1.000182731293967,
        0.999956579811315,
        1.0000108344147667,
        0.9999891608662458,
        0.9999997839940106
    ],
    "TGJets_TuneCP5_13TeV-amcatnlo-madspin-pythia8_PSSumw": [
        0.9994715452194214,
        0.9991438984870911,
        1.0006762742996216,
        1.0018070936203003
    ],
    "ST_t-channel_top_4f_InclusiveDecays_TuneCP5_13TeV-powheg-madspin-pythia8": 0.0004088086376902081,
    "ST_t-channel_top_4f_InclusiveDecays_TuneCP5_13TeV-powheg-madspin-pythia8_LHEScaleSumw": [
        0.9534209562090555,
        0.9540858193733616,
        0.9451471811576356,
        0.9977931283954112,
        1.0000159587956725,
        0.9961626412660575,
        1.0527695671364665,
        1.0563635364653252,
        1.0563285913258627
    ],
    "ST_t-channel_top_4f_InclusiveDecays_TuneCP5_13TeV-powheg-madspin-pythia8_LHEPdfSumw": [
        1.0449165802069906,
        1.0460029333293641,
        1.042620165948424,
        1.0434740749596316,
        1.044433224529465,
        1.045377208147362,
        1.0449401471913646,
        1.0463865258570195,
        1.0448203111947914,
        1.0438051199670306,
        1.0447812321054093,
        1.0433716286598762,
        1.043885254142693,
        1.0426433430118687,
        1.0423089124600204,
        1.0457266777250418,
        1.0452501113146981,
        1.044286182781718,
        1.0440388864335326,
        1.0438696713157953,
        1.0436695789859942,
        1.0450628677067473,
        1.0441432592603388,
        1.0452268121315829,
        1.0459863001971033,
        1.0440703858877862,
        1.0458203311800227,
        1.0447605131491227,
        1.0449017275066288,
        1.0467946661636838,
        1.044746508044862,
        1.0450452971329427,
        1.0456055931740305,
        1.0445737112761766,
        1.0446563037391905,
        1.045413019216036,
        1.0452237516297043,
        1.0446076529464543,
        1.0452402001928778,
        1.0450271437308072,
        1.0451149063999354,
        1.044733078075146,
        1.0452916065237519,
        1.0447083470313228,
        1.0451875122316718,
        1.0448411790558394,
        1.0445877781928181,
        1.0445685293437703,
        1.0447274324737068,
        1.0449241075819555,
        1.044897440348099,
        1.0444318068208607,
        1.044991819819423,
        1.0447448217803919,
        1.0448366131197633,
        1.0445446059564636,
        1.0450061998047122,
        1.044878104934067,
        1.045075586008816,
        1.045138267541494,
        1.0447855814453195,
        1.044764921443711,
        1.045087861570377,
        1.044899447726751,
        1.044871884172246,
        1.044650623944823,
        1.045411097064676,
        1.0445398486656043,
        1.04488013188695,
        1.0449287570557428,
        1.045239059042233,
        1.045261215665525,
        1.0449472326242,
        1.045043238661019,
        1.0446260746952145,
        1.0449662845177075,
        1.04503604007631,
        1.0447329121224243,
        1.044685436342532,
        1.0446203317646845,
        1.0448817554909646,
        1.0450501483838661,
        1.0449154245287298,
        1.044813344111035,
        1.044847624509714,
        1.0448784756498213,
        1.044844837883141,
        1.0450064609576302,
        1.0451170724976098,
        1.0449754710255896,
        1.044851762839446,
        1.0452205180009324,
        1.044977243112523,
        1.0450678577449155,
        1.0447760807707918,
        1.0449051306961903,
        1.045010223069314,
        1.0453216922083681,
        1.0445187776877023,
        1.044875640989952,
        1.0449305177314152,
        1.0639852255387914,
        1.027968483497025
    ],
    "ST_t-channel_top_4f_InclusiveDecays_TuneCP5_13TeV-powheg-madspin-pythia8_PSSumw": [
        1.0013011693954468,
        0.9999983906745911,
        1.0009084939956665,
        0.99997878074646
    ],
    "ST_t-channel_antitop_4f_InclusiveDecays_TuneCP5_13TeV-powheg-madspin-pythia8": 0.0007527500669200548,
    "ST_t-channel_antitop_4f_InclusiveDecays_TuneCP5_13TeV-powheg-madspin-pythia8_LHEScaleSumw": [
        0.9502647490423152,
        0.9500498878131631,
        0.9409862547647548,
        0.9980905671632118,
        0.9999947055529409,
        0.9963439150311957,
        1.055442944862092,
        1.0591799330794192,
        1.0596005722085742
    ],
    "ST_t-channel_antitop_4f_InclusiveDecays_TuneCP5_13TeV-powheg-madspin-pythia8_LHEPdfSumw": [
        1.0478999784184657,
        1.04896202507743,
        1.0469354381104947,
        1.0471701046647228,
        1.047110605177319,
        1.048848271858033,
        1.0494100037572711,
        1.0488198979065786,
        1.0492603169647294,
        1.0482778604968725,
        1.048352642424061,
        1.048751884636213,
        1.0470443218054677,
        1.047589882266089,
        1.049303237225715,
        1.0461658496397757,
        1.0481450794568068,
        1.048621757813452,
        1.0473307286885865,
        1.0496897973658956,
        1.0479065951221909,
        1.048832405088215,
        1.0480916151777149,
        1.0469435712260127,
        1.046218017055864,
        1.048476996134945,
        1.0460963658527833,
        1.0478518866527322,
        1.0479027957256648,
        1.0463522921744999,
        1.0486074516051638,
        1.048055381766809,
        1.047663880441206,
        1.0468381554884054,
        1.0479212845921018,
        1.0474821214597159,
        1.0477148993414345,
        1.0475573222760366,
        1.0459738874839153,
        1.0478086966894724,
        1.047728353582601,
        1.0481355935353853,
        1.047044036520457,
        1.0481040030225566,
        1.047659086794728,
        1.0474959751287762,
        1.0488283966371692,
        1.0490070037283246,
        1.049112470398666,
        1.0483938699075988,
        1.0476098719156088,
        1.0478320634107603,
        1.0482296136350877,
        1.047797635688864,
        1.047913120142593,
        1.0477332678063767,
        1.0474516881497211,
        1.0482359804210122,
        1.047702837393078,
        1.047833352967435,
        1.0478328147806604,
        1.0484350592046587,
        1.0476371784341323,
        1.047961933847036,
        1.0485397670849739,
        1.0476239288680071,
        1.0479166757929705,
        1.047954162741503,
        1.0478126902475622,
        1.0480311880998117,
        1.0473469583967707,
        1.0475439873110048,
        1.0478784380473158,
        1.0475595739478103,
        1.047971361689485,
        1.0475682914587636,
        1.0479349323502916,
        1.0477716243779134,
        1.0481304602785984,
        1.0482312407204646,
        1.0482736266297534,
        1.0478256319602093,
        1.0480237238650454,
        1.0479949839059848,
        1.047731886019963,
        1.0482323854194857,
        1.0480761862131198,
        1.0475500934502142,
        1.0477450421641745,
        1.0475665096461566,
        1.0480826731295658,
        1.0475641481268612,
        1.0477233389235627,
        1.0481760943095066,
        1.0479566846325643,
        1.0479886154708757,
        1.0477226102681028,
        1.0477971592450064,
        1.0483087175836514,
        1.0477369223582036,
        1.0476276587562383,
        1.0674794009260782,
        1.0294966505737906
    ],
    "ST_t-channel_antitop_4f_InclusiveDecays_TuneCP5_13TeV-powheg-madspin-pythia8_PSSumw": [
        1.0003914833068848,
        1.0000630617141724,
        1.0017094612121582,
        0.9997603893280029
    ],
    "TTGamma_SingleLept_TuneCP5_13TeV-madgraph-pythia8": 0.016483156405373955,
    "TTGamma_SingleLept_TuneCP5_13TeV-madgraph-pythia8_LHEScaleSumw": [
        0.7775758085252359,
        0.8245267662366585,
        0.874023866785217,
        0.9429619985994278,
        1.0,
        1.060120060643231,
        1.1234823757453518,
        1.1915394333679608,
        1.2632630074883573
    ],
    "TTGamma_SingleLept_TuneCP5_13TeV-madgraph-pythia8_LHEPdfSumw": [
        1.0,
        1.0003935826245818,
        1.0018498729637082,
        1.0001178792964238,
        0.997839499449898,
        1.0013566608732634,
        0.9981882520966391,
        0.9998219983075258,
        0.9995277966476429,
        0.9997273505070775,
        1.0010898561813941,
        1.0001108170338375,
        0.9988290854712188,
        0.9983632905528647,
        0.9979452131416489,
        0.9972330520862154,
        0.9993245224987175,
        0.9990322605137403,
        1.0022837727616236,
        1.0009540316098071,
        1.000601555556594,
        1.0016120120941427,
        0.9999751357076281,
        0.9995356769286213,
        1.0027999714998537,
        1.0002219558905003,
        1.0009015623343358,
        1.0003091268749507,
        0.999925055692851,
        1.002111339512509,
        0.9997296426976474,
        1.001852632776201,
        1.0002005526682638,
        1.0007672340358045,
        1.0016932704240349,
        0.9998160056282125,
        0.9987525339989207,
        1.0004542399669691,
        0.9999882087833019,
        1.0003800773557086,
        1.0006644369747777,
        1.0006264213712852,
        0.9995733032409989,
        1.0004641507359715,
        0.9997041108959982,
        1.0002104296626781,
        1.001088589067193,
        1.0000100666635148,
        0.9998962759799688,
        1.0012527682032288,
        1.0004858047401137,
        1.0000512484965935,
        0.9990837052038183,
        1.0001765462877739,
        1.0001883166634051,
        1.0004145801973263,
        1.0000778564631678,
        0.9995082662214251,
        0.9995351861855755,
        0.9996616756271808,
        0.999997868387918,
        1.00008852558972,
        0.9993406272319549,
        0.999573609079531,
        0.9999047012808592,
        0.9993354830897168,
        1.00004298260321,
        1.0002295993719974,
        0.9994251106449487,
        1.0001254744254249,
        0.9995724530653396,
        1.0003545583351419,
        1.0004845613188662,
        0.9997905041056315,
        1.0004509791410883,
        1.0001441743005233,
        1.0000333346517596,
        0.999453823859509,
        0.9997770665637278,
        1.0004022839529365,
        0.9999140914285434,
        1.000243065176546,
        0.9998547466726676,
        0.9993159753077878,
        0.99996764592341,
        0.9999577386835614,
        1.000168246955494,
        0.9997971765660447,
        1.0002033928474066,
        1.0001809302984381,
        0.9998300841869023,
        0.9998237572279346,
        0.9996345254318773,
        1.0003180579271798,
        0.9999412051307431,
        0.9997177941643537,
        1.0001189676443079,
        0.9997817467152357,
        0.9999370908024593,
        0.999811606515442,
        1.0,
        1.023544208602216,
        0.9759048401084592
    ],
    "TTGamma_SingleLept_TuneCP5_13TeV-madgraph-pythia8_PSSumw": [
        0.9999290108680725,
        1.0005037784576416,
        1.00006103515625,
        1.0001760721206665
    ],
    "TTGJets_TuneCP5_13TeV-amcatnloFXFX-madspin-pythia8": 0.006924297142776722,
    "TTGJets_TuneCP5_13TeV-amcatnloFXFX-madspin-pythia8_LHEScaleSumw": [
        0.9422838633617274,
        0.9350016594929893,
        0.926790492709142,
        0.9840510073345077,
        1.0,
        1.0127189038723379,
        1.0767218865318229,
        1.1087782217814588,
        1.1368868516124013
    ],
    "TTGJets_TuneCP5_13TeV-amcatnloFXFX-madspin-pythia8_LHEPdfSumw": [
        1.0,
        1.000552133630848,
        1.0013677238272296,
        1.0002755498276168,
        0.9981114806379765,
        1.0021629830584367,
        0.9986820377087032,
        1.0006788147476708,
        1.001091482180847,
        0.9990373034261212,
        1.0012280589095275,
        0.998649082984943,
        0.999427535327917,
        0.9979942113803503,
        0.9980035040789037,
        0.9969547128224222,
        0.998903549074173,
        0.9984094520284499,
        1.0032260157962467,
        1.0018173001481592,
        1.0005320942856026,
        1.002272164735675,
        0.9996048922932687,
        0.9996702996676224,
        1.0030651969123423,
        1.0000071022302857,
        1.0008407745366186,
        0.9998502606378298,
        1.0002425736625093,
        1.0011279836652618,
        0.999373408907382,
        1.001067169369677,
        1.00030297628409,
        1.0003111429956328,
        1.001491437022342,
        1.0001030858726703,
        0.9988960845654425,
        1.0002621860617942,
        0.99995185007692,
        1.0005939209656494,
        1.0006818193742038,
        1.000612927182203,
        0.9998667191934306,
        1.0004452216477238,
        0.9998205969218849,
        1.000326902467398,
        1.0013529419131315,
        1.0001858891413784,
        0.9998565977292212,
        1.0015201708685644,
        1.0004756067242073,
        0.999949888749574,
        0.9993406452717065,
        1.0001771788528904,
        1.0001648390735478,
        1.0003287435790125,
        1.000003000888729,
        0.9994144593300861,
        0.9994411727784208,
        0.9997349843809292,
        1.0000191194666355,
        1.000023652032185,
        0.9995454538989911,
        0.9996372162694083,
        0.9999001022670563,
        0.9994124517170546,
        1.0001379523969718,
        1.0002929879112095,
        0.9995090987793778,
        1.0001759784352793,
        0.9998136460420904,
        1.0005561119069448,
        1.0003863510485356,
        0.9997059536575437,
        1.0003624710043595,
        1.0001492865754844,
        1.000139475489103,
        0.9995127747784488,
        0.9997836074096678,
        1.0005097544986736,
        0.9999242553004266,
        1.000194043158456,
        0.9999733720963818,
        0.9994345549508981,
        0.9999307777391728,
        0.9998980783796738,
        1.0001839056719959,
        0.999975882432937,
        1.0001693098152538,
        1.0001039245063614,
        0.9998800817978263,
        0.9998039693028071,
        0.9996614107484034,
        1.0002370889475263,
        0.9999706199108748,
        0.9997612811439803,
        1.0000282426802982,
        0.9997880624792911,
        1.0000264254561282,
        0.9999388094729742,
        1.0000000743447581,
        1.0410297732520177,
        0.9596658989504251
    ],
    "TTGJets_TuneCP5_13TeV-amcatnloFXFX-madspin-pythia8_PSSumw": [
        0.9824341535568237,
        0.9996877908706665,
        1.0220537185668945,
        1.0004297494888306
    ],
    "TTToSemiLeptonic_TuneCP5_13TeV-powheg-pythia8": 0.00014660641380623008,
    "TTToSemiLeptonic_TuneCP5_13TeV-powheg-pythia8_LHEScaleSumw": [
        0.8877690272184687,
        0.9034626916841603,
        0.9138935107697722,
        0.9759872336144074,
        0.9999934071729943,
        1.0192869087273537,
        1.0785079227398062,
        1.110363046928531,
        1.1379729705798964
    ],
    "TTToSemiLeptonic_TuneCP5_13TeV-powheg-pythia8_LHEPdfSumw": [
        0.9999934071729943,
        1.0008956083237435,
        0.999064491391907,
        0.9996468130035316,
        0.9975664191007892,
        1.0006210840653158,
        1.0023988909851547,
        1.0015433752469427,
        1.0023071412016864,
        0.9981860566096602,
        1.0007552336892893,
        1.0021440202909853,
        0.9997758273162312,
        1.0012793345055457,
        0.9990571041506553,
        0.9994601412470291,
        0.998710382338143,
        1.0006661218898352,
        1.000293449771754,
        0.9997058777589024,
        0.9993264122087945,
        0.9997059860637507,
        0.9999846886414852,
        0.9989758245565825,
        1.0014396331944273,
        0.9994108795478487,
        0.9984745108292232,
        1.0014886700456362,
        1.0015926713961596,
        0.995273331452297,
        0.9997365133622741,
        0.9992144460334321,
        0.9993648380911515,
        0.9992653718286376,
        0.9992343932513915,
        1.000023739511341,
        1.000226259443084,
        0.9992918655228867,
        0.9998098815500983,
        1.0005554832009833,
        0.999772524252251,
        1.000287591328708,
        1.0015247602664483,
        0.9999628885496684,
        0.9991166340863291,
        1.000383759438088,
        0.9988351961161801,
        0.9990096384489487,
        1.0011009182012396,
        1.0004478490066948,
        0.9996028181956806,
        0.9993697945930313,
        1.0004090075237895,
        0.9997932149810079,
        0.9996264764607748,
        0.9998535836550501,
        0.9999885636588913,
        0.9999981897318813,
        0.9998096585203288,
        1.0002887862743015,
        1.0000402790030576,
        1.0003785168022752,
        1.0001041586259987,
        0.9999957925146044,
        1.0002524801698844,
        0.9998167550548275,
        0.9998369535223703,
        1.0000897487471898,
        0.9997081825300768,
        0.9996880958013634,
        1.0007969835193578,
        1.0006126253670522,
        0.9998739841405694,
        1.0004893920618687,
        1.0005131749788112,
        1.0004572454204748,
        0.9995637740099498,
        1.0010883188780697,
        0.999786706832516,
        0.9997088476927126,
        0.9996252951193276,
        0.9997470490869953,
        0.9995846632171573,
        0.9998970568855416,
        1.0001843441648575,
        0.9997413652369377,
        0.9997985431387884,
        1.0004893696310024,
        0.9998549261176166,
        1.00021924096024,
        0.999818874813696,
        1.0001317906148006,
        1.0000993104732414,
        0.9997212588968398,
        1.0000807261134532,
        0.9996659682910447,
        1.0003609015352863,
        0.9992137925337872,
        1.0003023331834546,
        0.9999121262548756,
        1.0000057628674308,
        1.0281074340688254,
        0.9720872575727557
    ],
    "TTToSemiLeptonic_TuneCP5_13TeV-powheg-pythia8_PSSumw": [
        0.9999844431877136,
        1.0000313520431519,
        1.0005640983581543,
        0.9998992085456848
    ],
    "TTGamma_Dilept_TuneCP5_13TeV-madgraph-pythia8": 0.009197979137552405,
    "TTGamma_Dilept_TuneCP5_13TeV-madgraph-pythia8_LHEScaleSumw": [
        0.7775329198394669,
        0.8244491607456603,
        0.8739544399465035,
        0.9430007481332585,
        1.0,
        1.0601337388658632,
        1.1236187082830824,
        1.191632947112321,
        1.263376571448927
    ],
    "TTGamma_Dilept_TuneCP5_13TeV-madgraph-pythia8_LHEPdfSumw": [
        1.0,
        1.0003860764230326,
        1.001865066514425,
        1.0001070472424398,
        0.9978376299653842,
        1.0013273372366736,
        0.9981746954897222,
        0.9997979364941089,
        0.9994807438426687,
        0.999768578094998,
        1.0010865434155494,
        1.000153101648497,
        0.9988095008380172,
        0.9983799577930351,
        0.9979342359845255,
        0.997264788935033,
        0.9993233551493916,
        0.9990337855760013,
        1.0022432423224226,
        1.0009435780881515,
        1.0006065848420653,
        1.0015798562717395,
        1.0000017020077103,
        0.9995248625545013,
        1.0027771134629555,
        1.0002241540409085,
        1.0008930732017318,
        1.0003374226854054,
        0.9999269055756145,
        1.0021652250939377,
        0.9997335033370315,
        1.0018870487549492,
        1.0001910533109575,
        1.0007682102357591,
        1.0017092660697804,
        0.9997770755356902,
        0.9987433705078415,
        1.0004706613869154,
        0.9999995748218615,
        1.0003677050599493,
        1.0006671219386127,
        1.0006372923344875,
        0.99954971540224,
        1.000448547728768,
        0.9996933787254808,
        1.0001965283563083,
        1.001063945966892,
        0.9999939676016857,
        0.9999030435248996,
        1.001229472196708,
        1.0004875589992046,
        1.0000583607738307,
        0.9990847280689145,
        1.0001739594554915,
        1.0001884859253303,
        1.0004251602235246,
        1.0000855026504527,
        0.999514768949362,
        0.9995336603057725,
        0.9996684018066072,
        0.9999974954911482,
        1.0000922506307743,
        0.9993272677607583,
        0.9995640500720591,
        0.9999026259859282,
        0.9993303802298692,
        1.0000481003088078,
        1.0002324225364922,
        0.999424400578299,
        1.0001190553296815,
        0.9995630359834915,
        1.0003514952107737,
        1.0004870825385122,
        0.9998002642464303,
        1.0004498901613958,
        1.0001438756694943,
        1.0000343318244191,
        0.9994498262580181,
        0.9997822518406101,
        1.0003932954791472,
        0.999913656090251,
        1.0002418039761078,
        0.9998516384704272,
        0.9993118638403202,
        0.9999709148869745,
        0.9999577138866366,
        1.000164909364336,
        0.999793524180512,
        1.0002022113741669,
        1.0001872947493204,
        0.9998247940327281,
        0.9998260771937035,
        0.9996323400822495,
        1.0003184365222482,
        0.9999423459916578,
        0.999715868959364,
        1.0001232099921669,
        0.9997810913000572,
        0.9999344000295793,
        0.9998095952849524,
        1.0,
        1.0234954333769424,
        0.9759447061499923
    ],
    "TTGamma_Dilept_TuneCP5_13TeV-madgraph-pythia8_PSSumw": [
        0.9999939203262329,
        1.0010191202163696,
        0.9999980926513672,
        1.0008114576339722
    ],
    "TTTo2L2Nu_TuneCP5_13TeV-powheg-pythia8": 0.0004814300621942509,
    "TTTo2L2Nu_TuneCP5_13TeV-powheg-pythia8_LHEScaleSumw": [
        0.8877427935852295,
        0.9034451864147628,
        0.9138845103999875,
        0.9759817139454381,
        1.000004126660981,
        1.0192944876353212,
        1.0785198060247754,
        1.1103803643117474,
        1.137995531834625
    ],
    "TTTo2L2Nu_TuneCP5_13TeV-powheg-pythia8_LHEPdfSumw": [
        1.000004126660981,
        1.0008963968777895,
        0.9990664627642848,
        0.9996484371767372,
        0.9975684730043995,
        1.0006222917282193,
        1.0023996957001677,
        1.0015443891967737,
        1.002308516802662,
        0.9981882001460515,
        1.0007559456327628,
        1.0021456844486885,
        0.9997778788458798,
        1.0012808674172842,
        0.9990590030358428,
        0.9994615384167693,
        0.9987116192015251,
        1.00066719597449,
        1.0002953677199948,
        0.9997074226634046,
        0.9993281890508919,
        0.9997067729596262,
        0.9999859346846951,
        0.9989770071792838,
        1.0014411981691882,
        0.9994118082919037,
        0.9984756851649416,
        1.0014896088522232,
        1.00159331510312,
        0.9952748974717425,
        0.9997389936726544,
        0.9992152134974036,
        0.9993656526066715,
        0.9992679147537855,
        0.9992341632729489,
        1.0000258003553557,
        1.0002283506238219,
        0.9992929981656653,
        0.999809651017518,
        1.0005568617751581,
        0.9997740463762281,
        1.0002895566706653,
        1.0015253434466527,
        0.9999646313973651,
        0.9991175787920105,
        1.0003855214693356,
        0.9988365848078041,
        0.9990106579358395,
        1.0011015233163942,
        1.0004486060741886,
        0.9996036046972973,
        0.9993706850872945,
        1.0004098217296538,
        0.9997942787983267,
        0.9996274293632608,
        0.999853908323441,
        0.9999888896576836,
        0.999999918531212,
        0.9998120889535633,
        1.0002902441263923,
        1.0000413714387724,
        1.000379540685576,
        1.0001055926303701,
        0.9999978949039036,
        1.0002544411151726,
        0.999817671373158,
        0.9998382311343548,
        1.0000908883233857,
        0.9997087153377393,
        0.9996907975298452,
        1.0007975810265053,
        1.0006139588237852,
        0.9998754197338097,
        1.0004912088483058,
        1.0005147637319,
        1.000457890658573,
        0.9995648635359508,
        1.0010898376491761,
        0.9997884976347649,
        0.9997103416413073,
        0.9996261832314839,
        0.9997485952930598,
        0.9995861438437971,
        0.9998985159459133,
        1.0001862819822878,
        0.9997424138796122,
        0.9998004759631722,
        1.000491121707178,
        0.9998561182775718,
        1.0002210240371352,
        0.9998197306904053,
        1.0001341158866857,
        1.0001003935464665,
        0.9997226276091229,
        1.0000818928333424,
        0.9996689045191754,
        1.0003622371979695,
        0.9992152352499615,
        1.0003037141229985,
        0.9999141464465262,
        1.0000063804614883,
        1.0281128957516672,
        0.9720861039771369
    ],
    "TTTo2L2Nu_TuneCP5_13TeV-powheg-pythia8_PSSumw": [
        1.0004297494888306,
        0.9999827742576599,
        1.000099539756775,
        1.0000425577163696
    ],
    "ST_s-channel_4f_leptonDecays_TuneCP5_13TeV-amcatnlo-pythia8": 0.003209376972918552,
    "ST_s-channel_4f_leptonDecays_TuneCP5_13TeV-amcatnlo-pythia8_LHEScaleSumw": [
        1.9702986803843363,
        1.9465154650245715,
        1.9271558421134707,
        2.028116693103785,
        1.0,
        1.9774553762537106,
        2.0778130961454275,
        2.045816744481826,
        2.0204366971833023
    ],
    "ST_s-channel_4f_leptonDecays_TuneCP5_13TeV-amcatnlo-pythia8_LHEPdfSumw": [
        1.0,
        1.9985847606659553,
        2.0007926000812883,
        2.00247969152238,
        1.997795638846776,
        2.001905996266437,
        2.000134652484137,
        2.0013530031757267,
        2.004923833061918,
        1.9957461959109615,
        2.003958235565493,
        1.9991025000607203,
        1.9999179332074644,
        1.9958681868976313,
        2.000014887537152,
        1.990994936975326,
        2.002376687562441,
        2.00058911705844,
        2.005104125547994,
        1.9996978399102736,
        1.9954300638536833,
        2.0028805630504216,
        1.9961064128347663,
        2.0038052511190076,
        2.0021673670930666,
        2.002159865393807,
        2.0009636262688226,
        1.9926884517742958,
        1.9973902057624593,
        1.994276458919446,
        1.998453382932844,
        1.9918004257480484,
        2.000461414112177,
        1.9982319522363199,
        1.997131120656627,
        2.0018607045816057,
        2.004217708429839,
        1.9968416789725643,
        1.9978900774046775,
        2.002096630292853,
        1.9995602749049592,
        1.9982529638253008,
        2.0032520403222414,
        2.0014282638329823,
        2.002001867977491,
        2.0001083280652034,
        2.0011211516522436,
        2.0006317983359256,
        1.99910571238817,
        2.00203451545445,
        2.001086203934542,
        1.9990503471543402,
        2.000256202118275,
        2.000190429696745,
        1.9999727097209818,
        1.9980843367171313,
        1.9989157730695652,
        2.000003098258128,
        1.999646292198067,
        1.9983799002102127,
        1.9993812902320884,
        1.9998070605060003,
        1.9997915784837579,
        2.0002788337168798,
        1.998593376444306,
        2.0001132923323475,
        1.9983738040311647,
        1.998638949371065,
        2.0005859147582314,
        2.000221623400536,
        2.00051651068859,
        1.999428831791502,
        1.999545484498774,
        1.999726578575521,
        1.9997965475119721,
        2.000541003526742,
        2.0005008335908427,
        1.9993708703523958,
        2.0001768855258875,
        2.000985579120663,
        2.0002460800584303,
        2.0001552088371355,
        1.999557262723881,
        2.0010452401649483,
        1.9994162881764233,
        2.0003799624850407,
        2.0001677677866923,
        1.9998561138113766,
        1.9995158593253755,
        1.9994232723141139,
        2.0001063153852816,
        1.9997577906462365,
        2.000333172090941,
        1.9999281438365037,
        2.00068863038442,
        2.000366714582214,
        2.0000475520751615,
        2.0000667265462226,
        2.00007239656934,
        2.00004078424418,
        1.9999999857658581
    ],
    "ST_s-channel_4f_leptonDecays_TuneCP5_13TeV-amcatnlo-pythia8_PSSumw": [
        0.9999260902404785,
        0.9998875260353088,
        0.9998713135719299,
        1.0000146627426147
    ],
    "ST_tW_top_5f_inclusiveDecays_TuneCP5_13TeV-powheg-pythia8": 0.007904443272755858,
    "ST_tW_top_5f_inclusiveDecays_TuneCP5_13TeV-powheg-pythia8_LHEScaleSumw": [
        0.9726728098473745,
        0.9538875496773167,
        0.9324916242154357,
        1.028449496833754,
        1.0000232068603891,
        0.973514543777962,
        1.0867298988513094,
        1.0498766850253434,
        1.018845281697487
    ],
    "ST_tW_top_5f_inclusiveDecays_TuneCP5_13TeV-powheg-pythia8_LHEPdfSumw": [
        1.0000232068603891,
        1.0003330398940355,
        1.002404480204731,
        0.9997490392166023,
        0.9973293821940329,
        1.0007758633781128,
        0.9972200936009961,
        0.9982331541625667,
        0.9971184360400904,
        1.000869157282961,
        1.0005898825482984,
        1.0016702153606403,
        0.9980452785134544,
        0.9991920702411915,
        0.9978768525775226,
        0.9982111691730409,
        0.999631687484739,
        0.9995560302864132,
        1.000683663961797,
        1.000363726595554,
        1.0010802891816437,
        1.0005627672902242,
        1.001106488119766,
        0.9991013748849948,
        1.0024471121221308,
        1.0001743734393709,
        1.0013691351506944,
        1.0016173563520347,
        0.9999565062136337,
        1.0041771126765828,
        1.0003066334748771,
        1.0042525143199712,
        0.9998625479477093,
        1.0016251503410667,
        1.0026992508941013,
        0.9994683609376821,
        0.9975649819981216,
        1.0009919791408888,
        1.000251808325938,
        1.0001808915780275,
        1.0009783098752725,
        1.0007663243768623,
        0.9988289434866677,
        1.000573190413144,
        0.9993542195979643,
        1.0000869625692699,
        1.0008586335773086,
        0.9998789609557557,
        1.0002338725629338,
        1.0010940540300195,
        1.0005883993596876,
        1.0003241434542813,
        0.9988711754472114,
        1.0001613008074461,
        1.0002924586913766,
        1.0007237001230809,
        1.0005140517269135,
        0.9995274590956111,
        0.9995601987263153,
        0.9997957905521219,
        1.0001970680895278,
        1.0002371399711232,
        0.9991342491289819,
        0.9993889639641927,
        1.0000327066058627,
        0.999051680595632,
        1.0002548677374028,
        1.0004067137774193,
        0.9993422295036188,
        1.0001131194648738,
        0.9994630791006555,
        1.0003492263663651,
        1.000570330755493,
        0.9999026248294038,
        1.0004803171620955,
        1.0001968962586463,
        1.0000262530035766,
        0.9993644430959564,
        0.9998265778005537,
        1.0002597001160427,
        0.9998807774006333,
        1.0003126535850078,
        0.9998471059427027,
        0.9991113926658631,
        1.0000750712282331,
        0.9998872087004343,
        1.0002120471190714,
        0.9998437446590529,
        1.0002526178203488,
        1.0002874209649015,
        0.9997858913553229,
        0.9998885195614098,
        0.9995660401800526,
        1.000405926860739,
        0.9999894647154081,
        0.999673652941074,
        1.0001943229976122,
        0.9997722207207349,
        0.9999537213655166,
        0.999787885931839,
        1.0000232068603891,
        1.0342950340893042,
        0.9665747122440141
    ],
    "ST_tW_top_5f_inclusiveDecays_TuneCP5_13TeV-powheg-pythia8_PSSumw": [
        1.0000700950622559,
        0.9998131990432739,
        1.0001035928726196,
        1.0000592470169067
    ],
    "ST_tW_antitop_5f_inclusiveDecays_TuneCP5_13TeV-powheg-pythia8": 0.007854670413734968,
    "ST_tW_antitop_5f_inclusiveDecays_TuneCP5_13TeV-powheg-pythia8_LHEScaleSumw": [
        0.9727000757145556,
        0.9537799958091283,
        0.9323123699901407,
        1.0285196434231747,
        0.999972481068199,
        0.9734020092844423,
        1.0868373909887963,
        1.0498724657292882,
        1.0187858875660623
    ],
    "ST_tW_antitop_5f_inclusiveDecays_TuneCP5_13TeV-powheg-pythia8_LHEPdfSumw": [
        0.999972481068199,
        1.0002412546582942,
        1.0023999762789386,
        0.9996717700203183,
        0.9972822891231566,
        1.000684506655771,
        0.9971806767336188,
        0.998203746554679,
        0.9970811819305472,
        1.0007918567666978,
        1.0004968808777288,
        1.00161832397376,
        0.9979871475512043,
        0.9991768590740658,
        0.9977939694908727,
        0.9981882370017824,
        0.9995473115705464,
        0.9995273222156472,
        1.0006229959081072,
        1.0002958388601388,
        1.0011303737997816,
        1.0005192552808824,
        1.0010610458417006,
        0.9990359368993029,
        1.0023569211646435,
        1.0001702108280552,
        1.001277958023141,
        1.001527984808685,
        0.9998991990224716,
        1.0041343159428615,
        1.0003030971086002,
        1.004155830240118,
        0.9998380935689959,
        1.0016358159653949,
        1.0026389600513037,
        0.9994434898655243,
        0.9975491679046015,
        1.0009675712253963,
        1.0002336578448616,
        1.0001302406052717,
        1.0009440290739842,
        1.0007262899071958,
        0.9988139463150725,
        1.0005794584856929,
        0.999351866209097,
        1.0000644771618754,
        1.0008412177557569,
        0.9998481867657216,
        1.0001606127700151,
        1.00105347312158,
        1.0005355451931561,
        1.000297078028614,
        0.998846883265277,
        1.0000823067712197,
        1.0002448656837237,
        1.0006682006290124,
        1.000457211152143,
        0.999438175973086,
        0.9994701541897287,
        0.9997387501055494,
        1.0001522480458342,
        1.0001748495857659,
        0.999066430316849,
        0.9993098555812963,
        1.0000005558576914,
        0.9990051605667771,
        1.000191630589897,
        1.0003882344211632,
        0.9992956254057377,
        1.0000517007866603,
        0.9993785276033474,
        1.0003067686089782,
        1.000541657455422,
        0.9998541811954268,
        1.0004048511560504,
        1.0001445495987173,
        0.9999672927933765,
        0.9993101029512087,
        0.9997920876170849,
        1.000210211801427,
        0.999814123578435,
        1.000270953539896,
        0.9998086121290651,
        0.9990407673279497,
        1.0000332003746364,
        0.9998454620769157,
        1.0001629465393178,
        0.9997991587048279,
        1.0001986456315468,
        1.0002420395278415,
        0.999734751759139,
        0.9998412339923469,
        0.9995127749703169,
        1.0003514915781087,
        0.9999372925109619,
        0.9996270151456662,
        1.0001379167206892,
        0.9997203403663327,
        0.9998995550739453,
        0.9997388434048741,
        0.999972481068199,
        1.0344905935425972,
        0.9664307031452752
    ],
    "ST_tW_antitop_5f_inclusiveDecays_TuneCP5_13TeV-powheg-pythia8_PSSumw": [
        0.9999285340309143,
        1.000028371810913,
        1.0001140832901,
        1.000042200088501
    ],
    "TTWJetsToLNu_TuneCP5_13TeV-amcatnloFXFX-madspin-pythia8": 0.004212728207618099,
    "TTWJetsToLNu_TuneCP5_13TeV-amcatnloFXFX-madspin-pythia8_LHEScaleSumw": [
        0.9072634121654538,
        0.9159011397614187,
        0.9205842900009352,
        0.9810797579820157,
        1.0,
        1.0148485359388257,
        1.082612293779092,
        1.109873472077019,
        1.1330599478521768
    ],
    "TTWJetsToLNu_TuneCP5_13TeV-amcatnloFXFX-madspin-pythia8_LHEPdfSumw": [
        1.0,
        0.9998300648423797,
        1.0002070130629135,
        0.9997908258944948,
        0.9987779598966571,
        1.0017480624300708,
        1.000413680725048,
        1.0021438643409935,
        1.0039858049515868,
        0.9959458463182489,
        1.001589244809276,
        0.9976865763630557,
        1.0006287983211801,
        0.9964873735986565,
        1.0002112510935226,
        0.993420823647474,
        1.0011322886117462,
        1.0001751330608353,
        1.0046710030983792,
        1.0002648507633503,
        0.9989207734430164,
        1.0035782024891151,
        0.9972246284584318,
        1.0014565640900743,
        1.0033099528156502,
        1.000392295044873,
        0.9999424083729256,
        0.9969023942370142,
        0.9997023350152645,
        0.9946406935619042,
        0.9968601869783483,
        0.9951422438823192,
        1.000905474708149,
        0.9967709977143652,
        0.9988721288091441,
        1.0016129621812266,
        1.0020590957120967,
        0.9982166452749035,
        0.9983535929028416,
        1.0024611637017329,
        1.0007307035014632,
        0.9996087266756916,
        1.004058110574478,
        1.0015764519976764,
        1.0011701000236766,
        1.0001712178878903,
        1.0015287934379122,
        1.000339408278487,
        0.9987420357828248,
        1.0023874075748689,
        1.0007681695128783,
        0.9984197278822722,
        1.0007375876983917,
        1.0002101633800928,
        0.9998305436644981,
        0.9985513106645505,
        0.999586078558589,
        1.0005050776289623,
        0.9997261883525953,
        0.9991303340154674,
        0.9987497807198882,
        0.9992917524547008,
        0.9999174573483528,
        1.0014848773913876,
        0.9991136781006983,
        0.9999710594775512,
        0.9988963764361948,
        0.9989795689741435,
        1.000172310318692,
        1.0010084915762065,
        1.0003734147714687,
        0.9999810099864069,
        0.9999930433110353,
        0.9995356024153101,
        1.0007031428527593,
        1.0003965145879445,
        1.0004305643252753,
        0.9996214250764723,
        0.9994071648878087,
        1.0010672357950332,
        1.0000348546784295,
        0.9996026257426663,
        0.9994344632630261,
        1.0007501349242427,
        0.9995476112605984,
        1.0003802747205826,
        0.9999921467446075,
        0.9993574616346312,
        0.9999834579486064,
        0.9997876730945964,
        1.0002102547983243,
        0.9996938207480351,
        1.0004727585060478,
        1.0001602630786197,
        1.0001118283264614,
        1.0000995179014331,
        1.0003075396557959,
        0.9999927152603647,
        0.9999849130165701,
        0.999976244731267,
        0.9999999883504553,
        1.041048661518344,
        0.9638114054612302
    ],
    "TTWJetsToLNu_TuneCP5_13TeV-amcatnloFXFX-madspin-pythia8_PSSumw": [
        0.9898987412452698,
        0.9988158941268921,
        1.0131579637527466,
        1.0009779930114746
    ],
    "TTWJetsToQQ_TuneCP5_13TeV-amcatnloFXFX-madspin-pythia8": 0.04691691234327635,
    "TTWJetsToQQ_TuneCP5_13TeV-amcatnloFXFX-madspin-pythia8_LHEScaleSumw": [
        0.9054758877759764,
        0.9144952306325329,
        0.919586159135307,
        0.980866900418681,
        1.0,
        1.0151023273561848,
        1.0834652154617754,
        1.1108548837750365,
        1.134215885105115
    ],
    "TTWJetsToQQ_TuneCP5_13TeV-amcatnloFXFX-madspin-pythia8_LHEPdfSumw": [
        1.0,
        0.999796627042693,
        1.0001549714625801,
        0.9998502513346518,
        0.998777012683026,
        1.001783064316487,
        1.0004142796846014,
        1.002147046951531,
        1.0040175873028703,
        0.9959357485083007,
        1.0016014053977704,
        0.997719157525894,
        1.0006090278055966,
        0.9963311793606073,
        1.0003115321992002,
        0.993574041838236,
        1.0011511621329143,
        1.0002304808761273,
        1.0048115655568168,
        1.0003362710232344,
        0.9991367689111524,
        1.0035955062770148,
        0.9971417758548237,
        1.0014819366364491,
        1.0033316611191339,
        1.0005806891243336,
        0.9997803645081826,
        0.9969477849457647,
        0.999671549010919,
        0.9945503626996023,
        0.9971141011805581,
        0.9949597891309802,
        1.0009695014214646,
        0.996974481164732,
        0.9988547491140449,
        1.00155042497024,
        1.0021298861539187,
        0.9982457675445454,
        0.9984137379252576,
        1.0024079918535815,
        1.0007977230206575,
        0.9995489081723195,
        1.004230105848989,
        1.0015171521513095,
        1.001248023924738,
        1.0003061754192883,
        1.0017138752270907,
        1.0002037025631494,
        0.9984849605414854,
        1.0023753223669636,
        1.0007207584695301,
        0.9984098027064047,
        1.000818801388188,
        1.000088899055914,
        0.9998603161814922,
        0.9986738299634754,
        0.999647388818913,
        1.0005783147214553,
        0.9997256789360274,
        0.9990908617218086,
        0.9985651160826782,
        0.9993651456046342,
        0.9998371740312278,
        1.0014266682164021,
        0.9990246350421451,
        0.9998424018300365,
        0.9989889128749603,
        0.9989125331590445,
        1.0001214266724037,
        1.000916156694996,
        1.0003701046915303,
        1.0000386979038318,
        1.0000119611782106,
        0.9995384058907075,
        1.0006381411238316,
        1.000428091198706,
        1.0004724942978465,
        0.9996248515364583,
        0.9995264824093403,
        1.001006450233203,
        1.000031786328077,
        0.9995591202697063,
        0.9994490359458776,
        1.0007908724004666,
        0.9995676640424097,
        1.0003775270967343,
        1.0000028820805926,
        0.9994390048869991,
        0.9999306646158367,
        0.9997320429081612,
        1.0001791106725495,
        0.9996721517514132,
        1.0004287207578815,
        1.000111779530321,
        1.000096145824607,
        1.00012738197346,
        1.0002776880414301,
        1.0000059906592564,
        0.9999961099448025,
        0.9999750213821434,
        1.000000291726148,
        1.041523183952963,
        0.9639816702617493
    ],
    "TTWJetsToQQ_TuneCP5_13TeV-amcatnloFXFX-madspin-pythia8_PSSumw": [
        0.9901120066642761,
        0.9989493489265442,
        1.0128439664840698,
        1.0022516250610352
    ],
    "TTZToQQ_TuneCP5_13TeV-amcatnlo-pythia8": 0.002999838406492136,
    "TTZToQQ_TuneCP5_13TeV-amcatnlo-pythia8_LHEScaleSumw": [
        0.9134715044870239,
        0.9271543690976028,
        0.9376404684554106,
        0.9735980470711948,
        1.0,
        1.0226438531336681,
        1.0520038796353877,
        1.0893770168442192,
        1.122753408073551
    ],
    "TTZToQQ_TuneCP5_13TeV-amcatnlo-pythia8_LHEPdfSumw": [
        1.0,
        1.000817536822617,
        1.0017003397569977,
        0.9998177621249582,
        0.9981073662685155,
        1.0022276176566662,
        0.9987399523829565,
        1.002206860275172,
        1.0022274524610266,
        0.9989841172110789,
        1.00129416487645,
        0.9979392656431446,
        0.9995880525326988,
        0.9972514051061964,
        0.9980578979226514,
        0.9958884079667628,
        0.9987527289912622,
        0.9983481545830022,
        1.004109148434145,
        1.0019402945388158,
        0.999499043289996,
        1.0029644877939337,
        0.9991995066682678,
        0.9994205988905979,
        1.0036934895577354,
        1.0002759387078153,
        1.0003568892377475,
        0.9988854684676225,
        1.0003690428367398,
        1.0006930223974801,
        0.9991562272529144,
        1.0003971724442455,
        1.000555016806368,
        0.9997859883798729,
        1.001322144610654,
        0.9999451874975824,
        0.9997606718079807,
        1.0006046740571732,
        0.9995377488918971,
        1.0009671322214804,
        1.000995010482134,
        1.000991235840715,
        1.0006203234074629,
        1.0006093651551882,
        1.0001854146599594,
        1.00053212492715,
        1.0018031453405545,
        0.9999475238044881,
        0.9991729754768277,
        1.001639651735203,
        1.000575389303707,
        0.9996187903748255,
        0.9991844640523405,
        1.0000239769142676,
        1.0001943228439492,
        1.0004715688667143,
        0.9998884101227397,
        0.9999063212973356,
        0.9994101615581046,
        0.9993682098854091,
        0.9995867001487208,
        0.9997964879786635,
        0.9993579871443254,
        0.9999551725887118,
        0.999841195325682,
        0.9994423344419326,
        0.9997997442814017,
        1.0002035902437107,
        0.9991017235076145,
        1.0004470905454734,
        0.9992875190727215,
        1.0004030367360959,
        1.0008221635268084,
        0.9998142673655219,
        1.0009598924402665,
        1.0001880483382564,
        0.9999075960827756,
        0.9994215378400348,
        0.9995687825516691,
        1.0005497312926237,
        1.0000026962363302,
        1.0001791115833045,
        0.9996327272211993,
        0.9993235085210099,
        0.9999886338508454,
        1.0001232643096742,
        1.0000388455461142,
        0.9993923135380337,
        1.000285711464746,
        1.0003295066191307,
        0.9997707588473717,
        0.9996831330705591,
        0.9997348382803578,
        1.0004347814770744,
        0.9998550038482894,
        0.9996327690073,
        1.0002930294670551,
        0.999716860676033,
        0.9997553171938615,
        0.9996494254089336,
        0.9999999074252626,
        1.02771600548737,
        0.9718155237073942
    ],
    "TTZToQQ_TuneCP5_13TeV-amcatnlo-pythia8_PSSumw": [
        1.000015139579773,
        0.9998570084571838,
        1.0000263452529907,
        0.9996320605278015
    ],
    "TTZToNuNu_TuneCP5_13TeV_amcatnlo-pythia8": 0.0014074525599636985,
    "TTZToNuNu_TuneCP5_13TeV_amcatnlo-pythia8_LHEScaleSumw": [
        0.9144482171268659,
        0.9278601319038317,
        0.9380957141001612,
        0.9738187008502702,
        1.0224370658450983,
        1.051634217286776,
        1.0887973573014842,
        1.1219765809031421
    ],
    "TTZToNuNu_TuneCP5_13TeV_amcatnlo-pythia8_LHEPdfSumw": [
        1.0,
        1.0008198503798105,
        1.0017026835436083,
        0.9998142891753837,
        0.9980918454490739,
        1.0022114254652477,
        0.9987296400406777,
        1.0022058945028018,
        1.0022379287725507,
        0.9989969794344644,
        1.00133683874704,
        0.9979428513227655,
        0.9995756661139024,
        0.9972408822105222,
        0.9980654797075151,
        0.9958836486860825,
        0.9987716775928968,
        0.9983248456486046,
        1.0041247663602766,
        1.0019438604357769,
        0.9994939631575372,
        1.0029533869883638,
        0.9991856062047385,
        0.9994249841544537,
        1.0036996169412506,
        1.0002545036283976,
        1.0003699058363227,
        0.9989067036210304,
        1.0003629163467358,
        1.0006920710003269,
        0.9991189590274037,
        1.0003755007621093,
        1.0005512359354158,
        0.9997483902252068,
        1.0013255855179237,
        0.9999198715707647,
        0.9997688854073022,
        1.0005661632158045,
        0.9995387869734356,
        1.0009113433921073,
        1.000976365683014,
        1.0010046948575348,
        1.0005682615970128,
        1.0005681475769141,
        1.0001772949800178,
        1.000498094438278,
        1.0017318633782921,
        0.9999160100182886,
        0.9991806052000487,
        1.001616387161914,
        1.000572337708774,
        0.9996351986272488,
        0.9991795688228513,
        1.0000523136410915,
        1.0001723135999578,
        1.0004782181922318,
        0.9998947922382762,
        0.9999256377907714,
        0.9994257697697637,
        0.9993758470472939,
        0.9995870059008795,
        0.9997936199541156,
        0.9993469714899285,
        0.9999606300285758,
        0.9998474698567389,
        0.9994324779300994,
        0.9997988039005906,
        1.0002005360056234,
        0.999109377866788,
        1.0004512042318936,
        0.9992986103579967,
        1.0003933632262259,
        1.0008007636948593,
        0.9998210001301346,
        1.0009717910241815,
        1.0001809982932524,
        0.9999021460786326,
        0.9994200057191356,
        0.9995608392744251,
        1.000549712094595,
        0.9999976669724391,
        1.0001715601839298,
        0.9996292043696685,
        0.9993172836490046,
        0.9999843006690643,
        1.000125998538524,
        1.0000429069297307,
        0.9993907765094086,
        1.0002877084230226,
        1.0003279542158734,
        0.9997798031570596,
        0.9996845318739684,
        0.9997391867772475,
        1.0004338982512238,
        0.9998606259637136,
        0.9996375972201159,
        1.0002986584362723,
        0.9997176929213685,
        0.9997496758378036,
        0.9996487887694274,
        1.0000000086551433,
        1.0276341408120933,
        0.9718255249082333
    ],
    "TTZToNuNu_TuneCP5_13TeV_amcatnlo-pythia8_PSSumw": [
        0.9999748468399048,
        1.0000088214874268,
        0.9998369812965393,
        1.0000169277191162,
        0.9986110925674438,
        1.0000396966934204,
        1.0000978708267212,
        0.9998737573623657,
        0.9999873638153076,
        1.0000309944152832,
        0.9999828934669495,
        1.0000077486038208,
        0.9998260736465454,
        1.0001026391983032,
        0.999945342540741,
        1.000004768371582,
        0.999925434589386,
        0.9999902248382568,
        0.9999757409095764,
        1.000009536743164,
        1.0000460147857666,
        0.9999483227729797,
        1.0000767707824707,
        0.9999717473983765,
        1.0001392364501953,
        0.9999286532402039,
        1.0003128051757812,
        0.9998515844345093,
        1.0001051425933838,
        0.9998927116394043,
        0.9999585151672363,
        0.9999653100967407,
        1.0000183582305908,
        1.0000137090682983,
        0.9999691247940063,
        0.9999502301216125,
        0.9999868869781494,
        0.9999812841415405,
        0.9999609589576721,
        0.9999575018882751,
        1.00002121925354,
        1.000014305114746,
        0.9999350905418396,
        0.9999447464942932
    ],
    "WJetsToLNu_TuneCP5_13TeV-amcatnloFXFX-pythia8": 0.0005599599764189643,
    "WJetsToLNu_TuneCP5_13TeV-amcatnloFXFX-pythia8_LHEScaleSumw": [
        1.0183827344150782,
        0.9827296846572042,
        0.965445561726424,
        1.0466026060863964,
        1.0,
        0.9730921064444555,
        1.0720989378259524,
        1.0161742146065789,
        0.9812795631366349
    ],
    "WJetsToLNu_TuneCP5_13TeV-amcatnloFXFX-pythia8_LHEPdfSumw": [
        1.0,
        0.9991542975420545,
        0.9983678396566054,
        1.0034103420720875,
        1.0007272544599894,
        1.0014238292320963,
        1.0005747239764065,
        1.0005728304777077,
        1.0012062496935652,
        1.0011431174232523,
        1.0008308300510877,
        0.9990293835432471,
        1.00094478336634,
        0.9991654620481064,
        1.0013258627220514,
        0.9993008388541104,
        1.000170296378553,
        1.0006005815533148,
        0.9994036378561292,
        0.9995473029169617,
        0.9969312043814861,
        0.9991149202022085,
        0.9999138549122512,
        1.0008363826243212,
        0.9987887027056483,
        0.9995903816864574,
        1.0010838847447545,
        0.9973662835460679,
        0.9996063835651693,
        0.9986122936742172,
        1.0002140105646238,
        0.9980630001890081,
        0.9994912058733888,
        1.0003341178955127,
        0.9992958789959214,
        1.0003791179916464,
        1.0007419302983873,
        0.9996653914082363,
        0.9988809722023668,
        1.000398664899441,
        1.0001277590256694,
        0.9988999589642215,
        1.0007648451699096,
        1.0005326458271737,
        1.0009148488551638,
        0.9999890065363134,
        0.9999437600387394,
        1.000468984399262,
        0.9997671599148389,
        1.0000867099442834,
        1.0000455819737304,
        0.9999697045087687,
        1.000208510028218,
        0.9997714015240017,
        0.9998291436102806,
        0.999403024478586,
        0.999713549738644,
        1.000111395211348,
        1.0000677003378673,
        0.9997585718313753,
        1.000141827038823,
        0.999817740134799,
        1.0000243213831952,
        0.9999957833843915,
        0.9994510147482716,
        1.000130390103998,
        0.9995398045961507,
        0.9997073331969167,
        1.0001353213597886,
        0.9998151494938077,
        1.00028062823113,
        0.9997762947165069,
        0.9996934662358236,
        1.0001325681906377,
        0.9998204281429952,
        1.0003476472966284,
        1.000061846308752,
        0.9995356525696517,
        1.0002365380079121,
        1.0002491892868677,
        0.9999690076915081,
        1.0002256543688421,
        1.0000471097182237,
        1.000368971723214,
        0.9998078868116912,
        1.0000406488563403,
        1.000021589013085,
        1.0000872984200946,
        0.9996235043168799,
        0.9998187171859779,
        0.9999084769216718,
        0.9998920316693266,
        1.000040069386043,
        0.9999400618650627,
        1.0004215509299952,
        1.0002097237934953,
        1.0000804305918278,
        0.9999807596960857,
        0.9999762242383606,
        1.0000731451319695,
        1.0000000426994062,
        1.0196943290717522,
        0.9842868474091343
    ],
    "WJetsToLNu_TuneCP5_13TeV-amcatnloFXFX-pythia8_PSSumw": [
        0.9981784820556641,
        0.9997506737709045,
        1.0032719373703003,
        1.0002448558807373
    ],
    "WGToLNuG_01J_5f_TuneCP5_13TeV-amcatnloFXFX-pythia8": 0.00036911531619781033,
    "WGToLNuG_01J_5f_TuneCP5_13TeV-amcatnloFXFX-pythia8_LHEScaleSumw": [
        0.984660188740117,
        0.952959789097642,
        0.9350186174825645,
        1.041683170124788,
        1.0,
        0.9740623961805899,
        1.0921452829924645,
        1.041458640685635,
        1.0083963325020209
    ],
    "WGToLNuG_01J_5f_TuneCP5_13TeV-amcatnloFXFX-pythia8_LHEPdfSumw": [
        1.0,
        0.99891131805754,
        1.0004217488083833,
        1.0001555648281044,
        0.9997754683572524,
        0.9997733730070075,
        1.0001826139822247,
        0.999817001551034,
        1.0005824065222058,
        1.0001788548006285,
        1.0006091464267792,
        0.9999920067614736,
        1.0003053775216089,
        0.9995624832820398,
        1.0010225135138586,
        0.999125578758062,
        1.0004348755496342,
        1.0004830054647265,
        0.9997478767827784,
        0.9999300370998622,
        0.9978058259822533,
        0.9992930188410813,
        0.9997492789722111,
        1.000708924660774,
        0.998966197031121,
        0.9997761755781407,
        1.0007134242676554,
        0.9973966566210398,
        0.9994866418403249,
        0.9989504857500697,
        1.000203836519495,
        0.9984100688067201,
        0.9995697696898538,
        1.0006696946092686,
        0.9991869533303417,
        1.0001133516004475,
        1.000734506630992,
        0.9997926790922583,
        0.9990557044804085,
        1.0001361656013843,
        0.9999783022093569,
        0.999225622453031,
        1.000271907726003,
        1.000429936145487,
        1.0008025127961704,
        0.9996482269015362,
        0.9996595207789767,
        1.0003410572900364,
        0.9999452870031212,
        1.0000145962549047,
        1.000006173132192,
        1.000058957136899,
        1.0000083684895549,
        1.0000251754509983,
        0.9998906520788438,
        0.9994907903559637,
        0.9996108457126438,
        1.0000009387169142,
        1.0001880255362183,
        0.9995512536130521,
        1.000105168975249,
        0.9998256394072437,
        0.9999014347077736,
        0.9999253283412782,
        0.9994372788039346,
        1.0001169676856807,
        0.9992649978946367,
        0.9997514330026482,
        1.000044761040119,
        0.9998013448615484,
        1.0000072792621182,
        0.9996569710798896,
        0.9999034631418413,
        1.000108550892033,
        0.9998560147680998,
        1.000292961255544,
        0.9999328063041194,
        0.9994411160298802,
        1.0002121822801595,
        1.0002009357889452,
        0.9999996705899208,
        1.00032999451581,
        0.9998866852842585,
        1.0002114789344563,
        0.9997976594850311,
        1.0000880514126038,
        1.000079797445159,
        0.9999404676775855,
        0.9997258402258372,
        0.9998306173790193,
        0.9999491766558237,
        0.9998849008081782,
        1.000033709482756,
        1.0000124512765372,
        1.000464794139292,
        1.0001435776896108,
        1.0000864115267436,
        0.9999978532408476,
        0.9998876078568001,
        0.9999523897530845,
        1.0000000252045014,
        1.0192338137247434,
        0.9829644273589486
    ],
    "WGToLNuG_01J_5f_TuneCP5_13TeV-amcatnloFXFX-pythia8_PSSumw": [
        0.9966601729393005,
        0.9996343851089478,
        1.0036430358886719,
        1.0003634691238403
    ],
    "WGToLNuG_TuneCP5_13TeV-madgraphMLM-pythia8": 1.9698403355275778,
    "WGToLNuG_TuneCP5_13TeV-madgraphMLM-pythia8_LHEScaleSumw": [
        1.1189915931355354,
        0.9901881373874818,
        0.896356109496656,
        1.131312800788682,
        1.0,
        0.9044654278799645,
        1.1413938454808128,
        1.0080137923408465,
        0.9110796206498433
    ],
    "WGToLNuG_TuneCP5_13TeV-madgraphMLM-pythia8_LHEPdfSumw": [
        1.0,
        0.9988707805486564,
        1.0002325071413656,
        1.0002909826132744,
        1.0002756534998314,
        0.9996330893355626,
        1.0004674263665325,
        0.9999416759577842,
        1.000375830442249,
        1.0003794753005573,
        1.000362850924094,
        0.9996289697001763,
        1.0008251179206584,
        0.9997048142507936,
        1.0010715936005299,
        0.9993838239836378,
        1.00026816078314,
        1.0004091488114217,
        0.9995109645717488,
        0.9998518635797874,
        0.997585556860443,
        0.9992858803487202,
        1.0001828406150959,
        1.000791772311549,
        0.9988970906874972,
        0.9997235379817593,
        1.0011989063294193,
        0.9971366760573263,
        0.9994730072017722,
        0.9992301777364946,
        1.0003487379607565,
        0.9987341453040273,
        0.9993290896330208,
        1.0009366399850517,
        0.9994741532454777,
        1.0001838763996533,
        1.000409660123357,
        0.9996937189437924,
        0.9990793278063329,
        1.000091898942572,
        0.9999730392159809,
        0.9990950752590984,
        0.9999129199743982,
        1.0004291176177704,
        1.0007855875607754,
        0.999507784923471,
        0.999456377497655,
        1.0004000092019905,
        1.0001053396931003,
        1.0001656509121044,
        0.999935293271267,
        1.0000059891990212,
        1.000095619999302,
        1.0000384170414802,
        0.9999170966533437,
        0.9994997384129075,
        0.9997423929061178,
        0.9998666353187392,
        1.000111048349863,
        0.9997382643144713,
        1.00028839957424,
        0.9998987822397087,
        1.0000248481952434,
        0.9997378557953027,
        0.9995631979865809,
        1.0000112892251065,
        0.9993853813493218,
        0.9998642128117002,
        1.0002206262691196,
        0.9998500236178662,
        1.000180446505946,
        0.9998149980915242,
        0.9997778392554751,
        1.0001858590763073,
        0.9996761889131736,
        1.0003372661537417,
        1.0000332940985046,
        0.9995097016606282,
        1.0002644304791473,
        1.0002364620011062,
        0.9999303501713291,
        1.0003573217613804,
        1.0000273312370649,
        1.000237033979443,
        0.9997952277206545,
        0.9999814884966548,
        1.0001272453637318,
        1.0001456140303135,
        0.9997369412257066,
        0.9997708194391103,
        0.9999419553049669,
        0.9998638205361107,
        0.9999841165368966,
        0.9999723046014685,
        1.0005572350149812,
        1.000194615235151,
        0.9999622755253105,
        0.9999736989225647,
        0.9999229944638222,
        1.000016009236823,
        1.0,
        1.0163462382100046,
        0.9865555221081627
    ],
    "WGToLNuG_TuneCP5_13TeV-madgraphMLM-pythia8_PSSumw": [
        0.983471155166626,
        0.9995414614677429,
        1.0214991569519043,
        1.0010169744491577
    ],
    "DYJetsToLL_M-10to50_TuneCP5_13TeV-amcatnloFXFX-pythia8": 0.00023830025640488137,
    "DYJetsToLL_M-10to50_TuneCP5_13TeV-amcatnloFXFX-pythia8_LHEScaleSumw": [
        1.1831868825598486,
        0.9685370173685457,
        0.9139192849607072,
        1.2508706258695381,
        0.9088002652000945,
        1.3065819818195945,
        1.0252249184141669,
        0.9060229633494848
    ],
    "DYJetsToLL_M-10to50_TuneCP5_13TeV-amcatnloFXFX-pythia8_LHEPdfSumw": [
        1.0,
        1.0337229808842914,
        0.9791782870804343,
        1.0131424295531304,
        1.0095307571644268,
        1.0055731392861011,
        0.9852689602851379,
        0.9993455961823151,
        1.0118344457707107,
        0.9934061436728854,
        0.9980924427577342,
        0.9982031119113998,
        1.0025364310474487,
        0.9979981588451217,
        1.0030698900562285,
        1.0016114147507187,
        0.9996910248218481,
        1.0019959290312879,
        0.9993927863332216,
        1.0003937597445431,
        0.9997349937121818,
        0.9983230677597317,
        0.9980580596068039,
        1.0010353618143073,
        1.0010067743307745,
        0.9981023935952383,
        1.0019971362779727,
        0.9984653436130931,
        1.000009701251321,
        0.9971004312544376,
        0.9998150745380165,
        0.9987631108990552,
        0.9995330039544075,
        1.0010424170556307,
        0.9992357052479174,
        1.0002241162313006,
        0.9995070146139176,
        1.0004551686207077,
        0.9978823090781063,
        0.998873999972261,
        0.9990532193418012,
        0.9995713050920172,
        1.0012917813214202,
        1.000156458099995,
        1.0001678507293728,
        0.9996846324184957,
        0.9991939503154655,
        0.9997498187160124,
        1.0008050830592117,
        0.9998395443284015,
        0.9988170756361836,
        1.0000827126110725,
        1.0006748834607548,
        1.0003528531888222,
        0.9991970595460586,
        0.998786795524462,
        1.0000104146733488,
        1.0006151395578247,
        0.999889879835714,
        1.000155142787893,
        1.0008795199203324,
        0.9992297858187147,
        1.0006760054271917,
        0.9997993653164803,
        0.9997713920016668,
        1.0004610380664698,
        0.9997512650372383,
        0.999951372211529,
        1.0002349508865773,
        1.0002081061743757,
        1.0002089467134725,
        1.0003630511880675,
        0.9993680407568836,
        1.0003653860327675,
        1.0001136318227095,
        1.0004636139610186,
        1.0001421586177568,
        0.9998049797001421,
        1.0007392914778648,
        0.9999936197717046,
        0.9999745117329003,
        1.0000654561806441,
        1.0004419330275116,
        1.0008874085847688,
        0.9997857052122185,
        0.9998761566398251,
        0.9999647231358214,
        1.0003996169115184,
        0.9996485787982999,
        1.000349739962855,
        0.9999931611000656,
        1.0001158258118001,
        0.9998386915995965,
        0.9993747599776979,
        1.0001725249059092,
        1.0000934787202311,
        0.999813476285464,
        0.999413956878038,
        0.9998014886527747,
        0.9999402654995521,
        1.0000000120585486,
        1.0250134751365065,
        0.9694958057763616
    ],
    "DYJetsToLL_M-10to50_TuneCP5_13TeV-amcatnloFXFX-pythia8_PSSumw": [
        0.9955565929412842,
        0.9971625804901123,
        1.0018181800842285,
        0.9988795518875122
    ],
    "DYJetsToLL_M-50_TuneCP5_13TeV-amcatnloFXFX-pythia8": 7.589732317253244e-05,
    "DYJetsToLL_M-50_TuneCP5_13TeV-amcatnloFXFX-pythia8_LHEScaleSumw": [
        1.0169108905719901,
        0.986115387468915,
        0.9710170149421864,
        1.0412732678887378,
        1.0,
        0.9757496083419094,
        1.0644751805690924,
        1.0143592955516392,
        0.9825633987639439
    ],
    "DYJetsToLL_M-50_TuneCP5_13TeV-amcatnloFXFX-pythia8_LHEPdfSumw": [
        1.0,
        0.9990669545126634,
        0.9990252947147183,
        1.0016588325180769,
        1.0012329713590922,
        1.0001527947509536,
        1.0011527395662843,
        1.0006827007053418,
        1.0011904298361645,
        1.0006366302085081,
        1.000006927032547,
        0.9990866102935719,
        1.0014410123172266,
        0.9993439336701218,
        1.0013290951293394,
        1.0004410098012806,
        0.9994192139620712,
        1.000298697825094,
        0.999641406351884,
        1.0002596464451268,
        0.9975977716162675,
        0.9990408295258599,
        0.9995928453721042,
        1.000571097588601,
        0.9984420914622592,
        0.9990687012740479,
        1.0011697016426928,
        0.997166733666804,
        0.999769107513796,
        0.9985357906201101,
        0.9999941185989351,
        0.9977378119119017,
        0.9994136067558831,
        1.0005510528099097,
        0.9992233092349014,
        1.0002132878537942,
        1.0007126669380881,
        0.9997218260653271,
        0.9984620357827045,
        1.000322468905711,
        0.9999756229287091,
        0.9988124208049246,
        1.0007387033246806,
        1.0007079821958809,
        1.0009212996504548,
        0.9998956444187461,
        1.0001233104282927,
        1.0005019759746057,
        0.9995469074518171,
        0.9999874894355278,
        1.0002269620643716,
        1.0000383529925045,
        1.0000083125895531,
        0.9998562967297151,
        0.9999830359760316,
        0.99950044147944,
        0.9993106597982464,
        1.0001576772443739,
        1.0002035365738215,
        0.999472613099754,
        1.000047004727275,
        0.9998819527824248,
        0.9998487503851542,
        1.0000484495420896,
        0.9993586751007454,
        1.0001582923095302,
        0.9994614179692233,
        0.9995389422096054,
        0.9999847170100075,
        0.9997175033007147,
        1.0000661811535811,
        0.9996223752726819,
        0.9998373118165795,
        1.0000064217713038,
        0.9998591273225848,
        1.0002455703745805,
        0.999999625798786,
        0.9994999960462672,
        1.0001025411211595,
        1.0001762118017725,
        1.0000323124977384,
        1.0001851998185018,
        0.9998811054731376,
        1.0002524235190187,
        0.9998096277915914,
        1.0000900804877244,
        1.0000669284812496,
        0.9999260108017141,
        0.999723987560196,
        0.999847638062399,
        0.9999501496628521,
        0.9999357154917273,
        1.0000184567885773,
        0.9999811693842178,
        1.0002858838562767,
        1.0000955511972422,
        1.0001037811153173,
        1.0000302779109729,
        0.9999476317281303,
        0.9999484012103077,
        0.999999992198347,
        1.0192222350947344,
        0.984719252443415
    ],
    "DYJetsToLL_M-50_TuneCP5_13TeV-amcatnloFXFX-pythia8_PSSumw": [
        0.9968879222869873,
        0.9997189044952393,
        1.0036174058914185,
        1.000434398651123
    ],
    "DYJetsToLL_M-50_TuneCP5_13TeV-madgraphMLM-pythia8": 1.237938445254429,
    "DYJetsToLL_M-50_TuneCP5_13TeV-madgraphMLM-pythia8_LHEScaleSumw": [
        1.113317365813319,
        0.9958174645849719,
        0.9096782115763838,
        1.1184326347443136,
        1.0,
        0.9132131626528591,
        1.122658603574935,
        1.0034531118734729,
        0.9161300839342992
    ],
    "DYJetsToLL_M-50_TuneCP5_13TeV-madgraphMLM-pythia8_LHEPdfSumw": [
        1.0,
        0.9989981436829289,
        0.9994770919160354,
        1.0010640128589674,
        1.0009244527572128,
        0.9998785132047493,
        1.001028884117272,
        1.0004080380072664,
        1.000976388016539,
        1.0004302265204372,
        0.9999571985588188,
        0.9993461999689794,
        1.0011277904310778,
        0.9995799448174693,
        1.0012603085757643,
        1.0002466567456556,
        0.9998527955273638,
        1.0004801743343206,
        0.9996168194820859,
        1.0001519319038854,
        0.9979991709248287,
        0.999077160616277,
        0.9996270928840731,
        1.0005337586750183,
        0.9986754108379697,
        0.9992541423092682,
        1.0009235280355069,
        0.9975756952194564,
        0.9997206692503802,
        0.9987139170414742,
        0.9999416183455987,
        0.9979977629781182,
        0.999498638275115,
        1.000447470125328,
        0.9992886737184623,
        1.0001762131539138,
        1.0006452996136501,
        0.9997416119384142,
        0.9986427246502938,
        1.0003223988038266,
        0.9999732268463101,
        0.9989224363166788,
        1.0006693158683755,
        1.0006975162663623,
        1.0008391165209842,
        0.9999134922405133,
        1.0001322743320786,
        1.00048599790036,
        0.999583122969925,
        1.0000513421446746,
        1.0002422847315395,
        1.0000287113555468,
        0.999958693970523,
        0.9999040411970159,
        0.999972850827433,
        0.9995284401908634,
        0.9993458357811305,
        1.0001344491760114,
        1.0001929555693816,
        0.9994648020432367,
        1.0000185741270133,
        0.9998747758791231,
        0.999808360224687,
        1.000067094084676,
        0.9993808754016676,
        1.0001060036824396,
        0.9994789023758958,
        0.9995483620812006,
        0.9999504216349894,
        0.9997410612542862,
        1.0000378083463133,
        0.9996444933037318,
        0.9998673614117867,
        0.9999777913016838,
        0.9998905717622472,
        1.0002330139044298,
        1.0000019983875061,
        0.9994974335585035,
        1.0000722262192219,
        1.0001911984525877,
        1.0000288034275542,
        1.000177531311556,
        0.9998674849616283,
        1.000209955108266,
        0.9998092915458017,
        1.0000961225514016,
        1.000074545066535,
        0.9998960711888661,
        0.9997627790996356,
        0.9998624708688515,
        0.9999497645515508,
        0.9999366872976005,
        1.0000043972108945,
        0.9999922089221053,
        1.0002540944525684,
        1.0000663689968923,
        1.000112033504114,
        1.000024439971051,
        0.999948344699674,
        0.9999355455559256,
        1.0,
        1.0173544984338112,
        0.9863047433865826
    ],
    "DYJetsToLL_M-50_TuneCP5_13TeV-madgraphMLM-pythia8_PSSumw": [
        0.9645334482192993,
        0.9993481636047363,
        1.0475033521652222,
        1.0012381076812744
    ],
    "ZGToLLG_01J_5f_TuneCP5_13TeV-amcatnloFXFX-pythia8": 0.0007261421881909467,
    "ZGToLLG_01J_5f_TuneCP5_13TeV-amcatnloFXFX-pythia8_LHEScaleSumw": [
        1.0000749312222794,
        0.9716936568026687,
        0.9575892170150874,
        1.0389552803083935,
        1.0000000000000002,
        0.9768667381070931,
        1.0733570886515975,
        1.0252796837356883,
        0.9945285320564979
    ],
    "ZGToLLG_01J_5f_TuneCP5_13TeV-amcatnloFXFX-pythia8_LHEPdfSumw": [
        1.0000000000000002,
        0.9989966090149257,
        1.0002965555528405,
        0.999618425996796,
        1.0006239111874942,
        0.9992189311448386,
        1.0008450722964912,
        1.0000677262845572,
        1.0005979718701459,
        1.000014413680469,
        1.0001037328852682,
        0.9994130888814159,
        1.0011162951242785,
        0.9996205659556385,
        1.0011066938568778,
        1.0000953041149965,
        0.9995957558199329,
        1.0001900643922388,
        1.0000322836156832,
        1.0005291601986797,
        0.9981974907365143,
        0.9993811733568381,
        0.9995599681507562,
        1.000614998039418,
        0.9988744358520951,
        0.9991642695015154,
        1.00106192322014,
        0.9970014113209702,
        0.9997081077155351,
        0.9986665354324398,
        0.9998779635854441,
        0.9980924225941338,
        0.9994929311974059,
        1.0010052559189861,
        0.9991979425492299,
        1.0000736411016409,
        1.0004334109438933,
        0.999648289004869,
        0.998550886401243,
        0.9999331074594653,
        0.9996877170094449,
        0.9989971449355857,
        1.0000577835343152,
        1.000622596570641,
        1.0007427845158137,
        0.9994127124619113,
        0.9996334469143864,
        1.0004313531842368,
        0.9999300854745977,
        1.0000405034020943,
        1.0000541363934823,
        1.0001487109497436,
        0.999948303285051,
        1.0002000167187808,
        0.9999973523652682,
        0.9995397315880529,
        0.9992747247046082,
        0.999793188064246,
        1.0003599330027058,
        0.9994232328098953,
        1.0001483922380734,
        0.9998884508481701,
        0.9998523805774546,
        0.9998164897066246,
        0.9994737336651326,
        1.000158598257305,
        0.9991956974977515,
        0.9997097075136072,
        1.0000746792056527,
        0.9997170710397086,
        0.9999453633208312,
        0.9996481295123796,
        0.9999451997298994,
        0.9999448397379945,
        0.9997388038121725,
        1.0002078012173627,
        0.999942965891898,
        0.9994554284344165,
        1.000153272500202,
        1.000226831731037,
        1.0000034008510303,
        1.0002993735916326,
        0.9998657833355453,
        1.0001115084578267,
        0.9997554364745554,
        1.000078694201314,
        1.0001510681155246,
        0.999964046458968,
        0.9998170357792523,
        0.9997827010597616,
        1.0000390744786818,
        0.9999101596308504,
        0.9999928811852815,
        1.000011637634013,
        1.0003951837306564,
        1.0001032083027581,
        1.0000055658399543,
        1.000035262913604,
        0.9999247747741096,
        0.9999297074984741,
        0.9999999875405959,
        1.0185385051633333,
        0.9838340384981624
    ],
    "ZGToLLG_01J_5f_TuneCP5_13TeV-amcatnloFXFX-pythia8_PSSumw": [
        0.9967749118804932,
        0.9997790455818176,
        1.0043083429336548,
        0.9999660849571228
    ],
    "ZGToLLG_01J_5f_lowMLL_lowGPt_TuneCP5_13TeV-amcatnloFXFX-pythia8": 0.00027899167309587843,
    "ZGToLLG_01J_5f_lowMLL_lowGPt_TuneCP5_13TeV-amcatnloFXFX-pythia8_LHEScaleSumw": [
        1.011574117092466,
        0.9719086287989366,
        0.9513967241229676,
        1.0507495296839826,
        1.0,
        0.9698623448486621,
        1.0845686733583968,
        1.0242315024895192,
        0.9859624333390459
    ],
    "ZGToLLG_01J_5f_lowMLL_lowGPt_TuneCP5_13TeV-amcatnloFXFX-pythia8_LHEPdfSumw": [
        1.0,
        0.9989577497094716,
        1.0001417733836149,
        1.0000187378651246,
        1.0007130503555692,
        0.9994915822686481,
        1.0009910925876784,
        1.0001585658873215,
        1.0008124013024846,
        1.0000826922934598,
        1.0000661863323759,
        0.9992369909667574,
        1.001232927180302,
        0.9996810191290221,
        1.001255131779969,
        1.000218816065993,
        0.9996415703405641,
        1.000242110080148,
        0.9998369698239946,
        1.0005280721940915,
        0.9982096330830103,
        0.9991967240479811,
        0.9996318224777301,
        1.0006412383098984,
        0.998812236537195,
        0.9990882433861482,
        1.0011987116007615,
        0.9969896108042746,
        0.9997650499315512,
        0.9986666671113271,
        0.9999018923250195,
        0.9981463481537816,
        0.999448897391897,
        1.0010766235761297,
        0.999251676077492,
        1.0000760478313249,
        1.0003522118168142,
        0.9996543016048943,
        0.9985193143559409,
        0.9998835002480697,
        0.9996825868235127,
        0.9989503288663052,
        1.0000270065956198,
        1.000615455299318,
        1.0007274693767416,
        0.9994048740707545,
        0.9995907739591191,
        1.0003975517039376,
        0.9999205578300318,
        0.9999864240298629,
        0.9999991571237455,
        1.0001538968364583,
        0.9999823035000821,
        1.0001482340426933,
        0.9999838827502571,
        0.9995381146632617,
        0.999324779207903,
        0.9998279983547611,
        1.0003630714621845,
        0.9994925912733309,
        1.000180006259006,
        0.9998697062492162,
        0.9998957598943559,
        0.9997971565485112,
        0.9994780860639068,
        1.000162149682039,
        0.9992302842412606,
        0.9997306539781867,
        1.0000843164469648,
        0.9997345993497309,
        0.9999610772888489,
        0.9996487077220724,
        0.9999065400967591,
        1.0000047768551936,
        0.9997353704501791,
        1.000229160236304,
        0.9999589522958042,
        0.999463512893607,
        1.0001698101006529,
        1.0002218975054802,
        0.999975771655616,
        1.0003121854509522,
        0.9998958362436119,
        1.000129472895774,
        0.9997694812247693,
        1.0000673620405711,
        1.0001268964073473,
        0.9999871796734708,
        0.9997833887164663,
        0.9997886438078266,
        1.000016473297307,
        0.9999039810804614,
        0.9999810872930024,
        1.000008412552409,
        1.0004127587680858,
        1.0001178823707866,
        1.0000154381415411,
        1.0000132419024272,
        0.9999225394311912,
        0.999942824687256,
        0.9999999906660659,
        1.0184648400706782,
        0.9839884968288624
    ],
    "ZGToLLG_01J_5f_lowMLL_lowGPt_TuneCP5_13TeV-amcatnloFXFX-pythia8_PSSumw": [
        0.998384952545166,
        0.999761164188385,
        1.0034289360046387,
        1.0005404949188232
    ],
    "WW_TuneCP5_13TeV-pythia8": 0.3150833687773915,
    "WZ_TuneCP5_13TeV-pythia8": 0.24792686018506782,
    "ZZ_TuneCP5_13TeV-pythia8": 0.25340151515151516,
    "ST_tWAto2L2Nu_5f_TuneCP5_13TeV-madgraph-pythia8": 0.007946989009403332,
    "ST_tWAto2L2Nu_5f_TuneCP5_13TeV-madgraph-pythia8_LHEScaleSumw": [
        0.969194607362644,
        0.9049659969964228,
        0.8670809307006002,
        1.0708945705344834,
        1.0,
        0.9581909197578651,
        1.1721399836643398,
        1.0946092993994974,
        1.0488937906918239
    ],
    "ST_tWAto2L2Nu_5f_TuneCP5_13TeV-madgraph-pythia8_LHEPdfSumw": [
        1.0,
        1.0003747757448673,
        1.0024032822490083,
        0.9998049565191767,
        0.9973441848948279,
        1.0008932792995833,
        0.9972181909852,
        0.9985551722142393,
        0.9973818458117809,
        1.0008203004663137,
        1.0006217818434644,
        1.0013584132033788,
        0.9981013788507841,
        0.99904361708491,
        0.997636256691183,
        0.9981584574172472,
        0.9993199991736439,
        0.999290909156603,
        1.0009077237614228,
        1.0005929948280812,
        1.0010615335543585,
        1.0007493087853718,
        1.0010892386559755,
        0.9989784706675997,
        1.0025138300043965,
        1.0001489374059185,
        1.0013014237564164,
        1.0015057961567215,
        0.9999978069355997,
        1.004267148773914,
        1.000260179182852,
        1.004278700575899,
        0.9998680933433799,
        1.0016007281346895,
        1.0027326366725462,
        0.9994271735937148,
        0.9975839827267967,
        1.0011318499704678,
        1.0002703816555645,
        1.0002388053876505,
        1.0010169500040937,
        1.0007907384271857,
        0.9988663649896393,
        1.0006147803283532,
        0.9993953132066427,
        1.0000995313037546,
        1.0009588226937205,
        0.9998337909158542,
        1.0001804768226552,
        1.0010812149679031,
        1.000556218168628,
        1.0003061026539954,
        0.9988447796760448,
        1.000096100329009,
        1.0002812453868615,
        1.000774471926555,
        1.0004957685745255,
        0.9994549019441983,
        0.9994861094936488,
        0.9997924323033218,
        1.0001774895262812,
        1.000231658667394,
        0.9990797941400102,
        0.9992816792280376,
        1.0000363299847312,
        0.9990442447969439,
        1.000258536014744,
        1.0004520763419231,
        0.9993115776038657,
        1.00007569471189,
        0.9993662896926844,
        1.0003710659739546,
        1.0006057790295275,
        0.9999133131671848,
        1.0004620822020225,
        1.0001540385974734,
        0.9999847216074894,
        0.9993378229531159,
        0.9998177982416807,
        1.0002333316220682,
        0.9998478649191036,
        1.0003019464917264,
        0.9998417136097797,
        0.9990313124904081,
        1.000067835538127,
        0.9998696696592344,
        1.0001820435835465,
        0.9998223047551498,
        1.000238627991015,
        1.0002907206408254,
        0.9997456789253562,
        0.9998575573411043,
        0.9995180995698575,
        1.0004001038552084,
        0.9999549253729614,
        0.9996414741025246,
        1.0001727327451244,
        0.9997320789320185,
        0.9999235711774073,
        0.9997592300192719,
        1.0,
        1.0291880317715527,
        0.9709552619431269
    ],
    "ST_tWAto2L2Nu_5f_TuneCP5_13TeV-madgraph-pythia8_PSSumw": [
        0.9999953508377075,
        1.0007199048995972,
        0.999980092048645,
        1.0005087852478027
    ]
}