{

    "year": "ul2017",
    "datadir": "/afs/desy.de/user/y/yian/cms/topgamma/data/2017",
    "store": "/data/dust/group/cms/topcmsdesy/nanoaod_topv",
    "rng_seed_file": "$CONFDIR/seed.txt",
    "compute_systematics": false,
    "top_pt_reweighting": {
        "method": "datanlo",
        "scale": 0.997175,
        "a": 0.0615,
        "b": -0.0005
    },
    "lumimask": "$CONFDIR/Cert_294927-306462_13TeV_UL2017_Collisions17_GoldenJSON.txt",
    "ML_model": "$DATADIR/ML/",
    "luminosity": 41.5,
    "split_pdf_uncs":true,
    "crosssections": "$CONFDIR/crosssections.json",
    "data_pu_hist": "$DATADIR/PU/my2017PUHist_nominal.root",
    "data_pu_hist_up": "$DATADIR/PU/my2017UHist_up.root",
    "data_pu_hist_down": "$DATADIR/PU/my2017PUHist_down.root",
    "pileup_reweighting": "$DATADIR/PU/pileup.root",
    "pdf_types": {
    "91400": "Hessian",
    "325300": "Hessian",
    "325500": "Hessian",
    "306000": "Hessian"
    },
    "muon_rochester": "$DATADIR/roccor/RoccoR2017UL.txt",
    "electron_sf": [
        [
          "$DATADIR/electron_sf/egammaEffi.txt_Ele_Medium_EGM2D_UL2017.root",
          "EGamma_SF2D",
          ["eta", "pt"]
        ],
        [
          "$DATADIR/electron_sf/egammaEffi_ptAbove20.txt_EGM2D_UL2017.root",
          "EGamma_SF2D",
          ["eta", "pt"]
        ],
        [
          "$DATADIR/trigger_sf/egammaEffi.txt_EGM2D.root",
          "EGamma_SF2D",
          ["eta", "pt"]
        ]
    ],
    "muon_sf": [
        [
          "$DATADIR/muon_sf/Efficiencies_muon_generalTracks_Z_Run2017_UL_ID.root",
          "NUM_TightID_DEN_TrackerMuons_abseta_pt",
          ["abseta","pt"]
        ],
        [
          "$DATADIR/muon_sf/Efficiencies_muon_generalTracks_Z_Run2017_UL_ISO.root", 
          "NUM_TightRelIso_DEN_TightIDandIPCut_abseta_pt",
          ["abseta","pt"]
        ],
        [
          "$DATADIR/muon_sf/Efficiencies_muon_generalTracks_Run2017_UL_trackerMuon.root", 
          "NUM_TrackerMuons_DEN_genTracks",
          ["abseta","pt"]
        ],
        [
          "$DATADIR/trigger_sf/NUM_IsoMu27_DEN_CutBasedIdTight_and_PFIsoTight17.root",
          "NUM_IsoMu27_DEN_CutBasedIdTight_and_PFIsoTight_abseta_pt",
          ["abseta","pt"]
        ]
    ],
    "photon_sf": [
        [
        "$DATADIR/photon_sf/egammaEffi.txt_EGM2D_Pho_Med_UL17.root",
        "EGamma_SF2D",
        ["eta", "pt"]
        ]
    ],
    "psv_sf": [
        [
        "$DATADIR/photon_sf/HasPix_SummaryPlot_UL17.root",
        "MediumID/SF_HasPix_MediumID"
        ]
    ],
    "jet_puid_sf":[
        [
          "$DATADIR/jet_puid/PUID_106XTraining_ULRun2_EffSFandUncties_v1.root",
          "h2_eff_mcUL2017_L",
          ["pt","eta"]
        ],
        [
          "$DATADIR/jet_puid/PUID_106XTraining_ULRun2_EffSFandUncties_v1.root",
          "h2_eff_sfUL2017_L",
          ["pt","eta"]
        ]
    ],
    "jet_puid_sf_unc":[
        [
          "$DATADIR/jet_puid/PUID_106XTraining_ULRun2_EffSFandUncties_v1.root",
          "h2_eff_sfUL2017_L_Systuncty",
          ["pt","eta"]
        ]
    ],
    "btag_sf" : [
        [
        "$DATADIR/btag/btagging17.json",
        "$DATADIR/btag/new_deepjet_medium_eff_ul17.root"
        ]
    ],
    "btag": "deepjet:medium",
    "btag_method": "fixedwp",
    "btag_measure_type": "comb",
    "btag_ignoremissing": false,
    "split_muon_uncertainty": false,
    "split_btag_year_corr": false,
    "reapply_jec": false,
    "jet_correction_mc": [
        "$DATADIR/JEC/Summer19UL17_V5_MC/Summer19UL17_V5_MC_L1FastJet_AK4PFchs.txt",
        "$DATADIR/JEC/Summer19UL17_V5_MC/Summer19UL17_V5_MC_L2Relative_AK4PFchs.txt",
        "$DATADIR/JEC/Summer19UL17_V5_MC/Summer19UL17_V5_MC_L3Absolute_AK4PFchs.txt"
    ],
    "jet_uncertainty": "$DATADIR/RegroupedV2_Summer19UL17_V5_MC_UncertaintySources_AK4PFchs.txt",
    "jet_resolution": "$DATADIR/JER/Summer19UL17_JRV2_MC/Summer19UL17_JRV2_MC_PtResolution_AK4PFchs.txt",
    "jet_ressf": "$DATADIR/JER/Summer19UL17_JRV2_MC/Summer19UL17_JRV2_MC_SF_AK4PFchs.txt",
    "smear_met": true,
    "data_eras": {
        "2017B": [297047, 299329],
        "2017C": [299368, 302029],
        "2017D": [302030, 302663],
        "2017E": [303818, 304797],
        "2017F": [305040, 306462]
    },
    "exp_datasets": {
        "SingleMuon": [
            "/SingleMuon/Run2017B-UL2017_MiniAODv2_NanoAODv9-v1/NANOAOD",
            "/SingleMuon/Run2017C-UL2017_MiniAODv2_NanoAODv9-v1/NANOAOD",
            "/SingleMuon/Run2017D-UL2017_MiniAODv2_NanoAODv9-v1/NANOAOD",
            "/SingleMuon/Run2017E-UL2017_MiniAODv2_NanoAODv9-v1/NANOAOD",
            "/SingleMuon/Run2017F-UL2017_MiniAODv2_NanoAODv9-v1/NANOAOD"
        ],
        "SingleElectron": [
            "/SingleElectron/Run2017B-UL2017_MiniAODv2_NanoAODv9-v1/NANOAOD",
            "/SingleElectron/Run2017C-UL2017_MiniAODv2_NanoAODv9-v1/NANOAOD",
            "/SingleElectron/Run2017D-UL2017_MiniAODv2_NanoAODv9-v1/NANOAOD",
            "/SingleElectron/Run2017E-UL2017_MiniAODv2_NanoAODv9-v1/NANOAOD",
            "/SingleElectron/Run2017F-UL2017_MiniAODv2_NanoAODv9-v1/NANOAOD"
        ]

    },
    "mc_datasets": {
        "TTToSemiLeptonic_TuneCP5_13TeV-powheg-pythia8": [
            "/TTToSemiLeptonic_TuneCP5_13TeV-powheg-pythia8/RunIISummer20UL17NanoAODv9-106X_mc2017_realistic_v9-v1/NANOAODSIM"
        ],
        "TTTo2L2Nu_TuneCP5_13TeV-powheg-pythia8": [
            "/TTTo2L2Nu_TuneCP5_13TeV-powheg-pythia8/RunIISummer20UL17NanoAODv9-106X_mc2017_realistic_v9-v1/NANOAODSIM"
        ],
        "WJetsToLNu_TuneCP5_13TeV-amcatnloFXFX-pythia8": [
            "/WJetsToLNu_TuneCP5_13TeV-amcatnloFXFX-pythia8/RunIISummer20UL17NanoAODv9-106X_mc2017_realistic_v9-v2/NANOAODSIM"
        ],
        "DYJetsToLL_M-10to50_TuneCP5_13TeV-amcatnloFXFX-pythia8": [
            "/DYJetsToLL_M-10to50_TuneCP5_13TeV-amcatnloFXFX-pythia8/RunIISummer20UL17NanoAODv9-106X_mc2017_realistic_v9-v1/NANOAODSIM"
        ],
        "DYJetsToLL_M-50_TuneCP5_13TeV-amcatnloFXFX-pythia8": [
            "/DYJetsToLL_M-50_TuneCP5_13TeV-amcatnloFXFX-pythia8/RunIISummer20UL17NanoAODv9-106X_mc2017_realistic_v9-v2/NANOAODSIM"
        ]
    },
    "dataset_for_systematics": {
    },
    "dataset_trigger_order": [
        "SingleElectron",
        "SingleMuon"
    ],
    "dataset_trigger_map": {
        "SingleMuon": [
            "HLT_IsoMu27"
        ],
        "SingleElectron": [
            "HLT_Ele32_WPTight_Gsf_L1DoubleEG"
        ]
    },
    "trigger_muon_path":"IsoMu27",
    "trigger_ele_path":"Ele32_WPTight_Gsf_L1DoubleEG",

    "column_output_format": "root",
    "columns_to_save": [
        [
	    "Lepton",
            "pt"
	],
        [
	    "Lepton",
            "eta"
	],
        [
	    "Lepton",
            "phi"
	],
        [
	    "Lepton",
            "mass"
	],
        [
	    "Lepton",
            "pdgId"
	],
        [
            "Lepton_charge"
        ],
        [
            "Lepton_isPrompt"
        ],
        [
	    "Photon",
            "pt"
	],
        [
	    "Photon",
            "eta"
	],
        [
	    "Photon",
            "phi"
	],
	[
	    "Jet",
	    "pt"
	],
	[
	    "Jet",
	    "eta"
	],
	[
	    "Jet",
	    "phi"
	],
	[
	    "Jet",
	    "mass"
	],
	[
	    "Jet",
	    "btagged"
	],
        [
            "Jet",
            "btag"
        ],
        [
            "nbtag"
        ],    
        [
            "n_noBjet"
        ],    
        [
            "n_loose_btag"
        ],    
        [
            "ncentral_jets"
        ],    
        [
            "nforward_jets"
        ],    
	[
	    "bJet",
	    "pt"
	],
	[
	    "bJet",
	    "eta"
	],
	[
	    "bJet",
	    "phi"
	],
	[
	    "bJet",
	    "mass"
	],
	[
	    "noBjet",
	    "pt"
	],
	[
	    "noBjet",
	    "eta"
	],
	[
	    "noBjet",
	    "phi"
	],
	[
	    "noBjet",
	    "mass"
	],
	[
	    "reco_W",
	    "pt"
	],
	[
	    "reco_W",
	    "eta"
	],
	[
	    "reco_W",
	    "energy"
	],
        [
            "tophad_m"
        ],
        [
            "tophad_pt"
        ],
        [
            "tophad_eta"
        ],
        [
            "tophad_phi"
        ], 
        [
            "toplep_m"
        ],
        [
            "toplep_pt"
        ],
        [
            "toplep_eta"
        ],
        [
            "toplep_phi"
        ],
        [
            "chi2"
        ],
	[
	    "MET",
	    "pt"
	],
	[
	    "MET",
	    "phi"
	],
        [
            "Neutrino1",
            "pt"
        ],
        [
            "Neutrino1",
            "eta"
        ],
        [
            "Neutrino1",
            "phi"
        ],
        [
            "mlg"
	],
        [
            "mTW"
	],
        [
            "deltaR_lg"
        ],
        [
            "deltaR_lj"
        ],
        [
            "deltaR_jg"
        ],
        [
            "GenPhoton",
            "pt"
        ],
        [
            "GenPhoton",
            "eta"
        ],
        [
            "GenPhoton",
            "phi"
        ],
        [
            "GenTopPos",
            "pt"
        ],
        [
            "GenTopPos",
            "eta"
        ],
        [
            "GenTopPos",
            "phi"
        ],
        [
            "GenTopNeg",
            "pt"
        ],
        [
            "GenTopNeg",
            "eta"
        ],
        [
            "GenTopNeg",
            "phi"
        ]
    ],
    "apply_met_filters": true,

    "ele_eta_min": -2.5,
    "ele_eta_max": 2.5,
    "good_ele_pt_min": 35.0,
    "veto_ele_pt_min": 15.0,

    "muon_eta_min": -2.4,
    "muon_eta_max": 2.4,
    "good_muon_pt_min": 30.0,
    "veto_muon_pt_min": 15,

    "good_jet_id": "cut:tight",
    "good_jet_puId": "cut:loose",
    "good_jet_lepton_distance": 0.4,
    "good_jet_photon_distance": 0.4,
    "good_jet_eta_min": -4.7,
    "good_jet_eta_max": 4.7,
    "good_jet_pt_min": 30,
    "num_jets_atleast":1,

    "btag": "deepjet:medium",
    "loose_btag": "deepjet:loose",
    "num_atleast_btagged": 1,

    "hem_cut_if_ele": false,
    "hem_cut_if_pho": false,
    "hem_cut_if_muon": false,
    "hem_cut_if_jet": false,
    "photon_phi_removal":false,

    "met_min_met": 20,

    "electron_sf_overflow_pt": [500,500,500],
    "photon_sf_overflow_pt": [500],
    "muon_sf_overflow_pt": [120,120,40,200],

    "hists": "$CONFDIR/fakerate_lepton_hist.json"
}

