{
    "leading_lepton_pt": {
        "bins": [
            {
                "name": "pt",
                "label": "Lepton $p_{\\mathrm{T}}$",
                "n_or_arr": 100,
                "lo": 0,
                "hi": 200,
                "unit": "GeV"
            }
        ],
        "cats": [
            {
                "name": "tight",
                "label": "is_tight"
            }
        ],
        "fill": {
            "pt": [
                "Lepton",
                "pt"
            ],
            "tight": {
                "tight": [
                    "Lepton",
                    "is_good"
                ],
                "loose_not_tight": [
                    "Lepton",
                    "is_good",
                    {"function": "not"}
                ]
            }
        }
    },
    "number_of_loose_lep": {
        "bins": [
            {
                "name": "n_loose_lepton",
                "label": "Number of loose lepton",
                "n_or_arr":[0,1,2]
            }
        ],
        "fill": {
            "n_loose_lepton": [
                "n_loose_lepton"
            ]
        }
    },
    "number_of_tight_lep": {
        "bins": [
            {
                "name": "n_tight_lepton",
                "label": "Number of tight lepton",
                "n_or_arr":[0,1,2]
            }
        ],
        "fill": {
            "n_tight_lepton": [
                "n_tight_lepton"
            ]
        }
    },
    "number_of_fake_lep": {
        "bins": [
            {
                "name": "n_fake_lepton",
                "label": "Number of fake lepton",
                "n_or_arr":[0,1,2]
            }
        ],
        "fill": {
            "n_fake_lepton": [
                "n_fake_lepton"
            ]
        }
    },
    "tight_to_loose": {
        "bins": [
            {
                "name": "pt",
                "label": "$p_{\\mathrm{T}}$",
                "n_or_arr": [30,35,45,60]
            },
            {
                "name": "abseta",
                "label": "$\\left|\\eta\\right|$",
                "n_or_arr": [0,0.5,1.0,1.5,2.0,2.5]
            }
        ],
        "cats": [
            {
                "name": "tight",
                "label": "is_tight"
            }
        ],
        "fill": {
            "pt": [
                "Lepton",
                "pt"
            ],
            "abseta": [
                "Lepton",
                "eta",
                {"function": "abs"}
            ],
            "tight": {
                "tight": [
                    "Lepton",
                    "is_good"
                ],
                "loose_not_tight": [
                    "Lepton",
                    "is_good",
                    {"function": "not"}
                ]
            }
        }
    },
    "tight_to_loose_unc": {
        "bins": [
            {
                "name": "pt",
                "label": "$p_{\\mathrm{T}}$",
                "n_or_arr": [30,35,45,60]
            },
            {
                "name": "abseta",
                "label": "$\\left|\\eta\\right|$",
                "n_or_arr": [0,1.5,2.0,2.5]
            }
        ],
        "cats": [
            {
                "name": "tight",
                "label": "is_tight"
            }
        ],
        "fill": {
            "pt": [
                "Lepton",
                "pt"
            ],
            "abseta": [
                "Lepton",
                "eta",
                {"function": "abs"}
            ],
            "tight": {
                "tight": [
                    "Lepton",
                    "is_good"
                ],
                "loose_not_tight": [
                    "Lepton",
                    "is_fake"
                ]
            }
        }
    },
    "mTW": {
        "bins": [
            {
                "name": "mTW",
                "label": "m_{T}^{W}",
                "n_or_arr": 200,
                "lo": 0,
                "hi": 400
            }
        ],
        "fill": {
            "mTW": [
                "mTW"
          ]
        }
    },
    "METpt": {
        "bins": [
            {
                "name": "pt",
                "label": "MET $p_{\\mathrm{T}}$",
                "n_or_arr": 100,
                "lo": 0,
                "hi": 200,
                "unit": "GeV"
            }
        ],
        "fill": {
            "pt": [
                "MET",
                "pt"
            ]
        }
    }
}
