{
    "TGJets_leptonDecays_TuneCP5_13TeV-amcatnlo-pythia8": 0.002681166903932543,
    "TGJets_leptonDecays_TuneCP5_13TeV-amcatnlo-pythia8_LHEScaleSumw": [
        0.9781474015736215,
        0.9764996984513576,
        0.9646699004587275,
        0.993802603577136,
        0.9983315621245108,
        1.0272593295068804,
        1.0390555534619765,
        1.044576193525274
    ],
    "TGJets_leptonDecays_TuneCP5_13TeV-amcatnlo-pythia8_LHEPdfSumw": [
        1.0,
        0.9994263293057106,
        1.0008324105487179,
        0.9995111744539356,
        0.9990238203285423,
        0.9996008503157817,
        0.9989988136134436,
        0.9990663749768073,
        0.9990094637625292,
        1.0001638977390745,
        1.0003863635219592,
        1.0011546359877694,
        0.9991637738635721,
        0.9994325249522662,
        0.9991395861879918,
        0.9996343460386822,
        0.9994990026351361,
        0.9997154258292505,
        1.0004929240869795,
        1.0005316096288261,
        1.0003092050589715,
        1.000346076795185,
        0.9999547611216955,
        0.9996363905582535,
        1.0001031934114082,
        0.9999972325975393,
        0.9997405144808199,
        1.0005296541539341,
        0.9998427438995536,
        1.0004706492642448,
        0.9997729579780638,
        1.0002471827521724,
        1.0000307921611415,
        0.9998200732339001,
        1.000216736938892,
        0.9998866897928108,
        0.9999058090467502,
        1.0003092264639601,
        0.999967432544361,
        1.0007446721189779,
        1.000506742632616,
        0.9997468832895979,
        1.00079487427999,
        1.0004966677702691,
        1.0003917105452658,
        1.0005916088494615,
        1.0010615829292,
        1.0003601647342375,
        0.9997616575992798,
        1.0004508552476945,
        1.000416889980918,
        0.9998378253654818,
        0.9997726865860064,
        0.9996891881518256,
        1.0000463558444823,
        0.99990042386546,
        0.999888113331157,
        1.000078100495177,
        0.9998121162225786,
        0.9997036028073597,
        0.9999590128942673,
        1.0000583313805902,
        0.9995289140279862,
        0.999965669711214,
        0.9994726153269874,
        0.999754158323295,
        1.000053000650142,
        0.9997983141461639,
        0.9997395344069303,
        0.9998413127275263,
        1.0001401355523136,
        1.0000728527367677,
        1.0000008846862052,
        0.9998201019122754,
        1.0001184181714518,
        1.0002405860246726,
        1.0001068806924918,
        0.9994407212541954,
        1.0000972824029517,
        1.0001960647221921,
        1.0000376782702358,
        1.0000389764445192,
        0.9999702502479977,
        0.9999825626357154,
        0.9998887526200815,
        1.0000050359580483,
        1.000043470282758,
        0.9999230108413877,
        0.999822138075945,
        0.9999920555006517,
        0.999865645345003,
        0.9999106707682293,
        0.9998947472060626,
        1.0000457964229255,
        1.0001167422869441,
        0.9999653740381277,
        1.0001542774540766,
        0.9999513784123919,
        1.0000584784913815,
        1.0000182845303962,
        0.9999999518955884
    ],
    "TGJets_leptonDecays_TuneCP5_13TeV-amcatnlo-pythia8_PSSumw": [
        1.0001895427703857,
        1.0000333786010742,
        0.9997696280479431,
        1.0008745193481445
    ],
    "TGJets_TuneCP5_13TeV-amcatnlo-madspin-pythia8": 0.009823880848949456,
    "TGJets_TuneCP5_13TeV-amcatnlo-madspin-pythia8_LHEScaleSumw": [
        0.9792124948619962,
        0.9779918270256573,
        0.9664396628314169,
        0.9934927267772624,
        1.0,
        0.9985781421975719,
        1.0260221003899945,
        1.0380311472536041,
        1.0437445329062351
    ],
    "TGJets_TuneCP5_13TeV-amcatnlo-madspin-pythia8_LHEPdfSumw": [
        1.0,
        0.999353779866895,
        1.0007573812264807,
        0.999557590897834,
        0.9990118445784617,
        0.9995381083108235,
        0.9989182292877328,
        0.9990164638350066,
        0.9989730430897193,
        1.0001483027833777,
        1.0004180746742786,
        1.0011136713834479,
        0.9992057926543708,
        0.9993901805026256,
        0.9991520459943037,
        0.9997478321458809,
        0.9994498563445757,
        0.9998008283126881,
        1.000635806807893,
        1.0005939216224458,
        1.000329820966548,
        1.000333303600365,
        0.9999644989009897,
        0.9996323732826145,
        1.0001080466152665,
        1.000045793629372,
        0.9996804481689447,
        1.000613861124429,
        0.9998036243397092,
        1.0005826005760232,
        0.9997149348425942,
        1.00025395732036,
        1.0001075061448697,
        1.00003873191037,
        1.0001998006154273,
        0.9999010790014583,
        0.9998915285723986,
        1.0001825979288848,
        0.9998860749791082,
        1.0006693149437809,
        1.0006803242028908,
        0.9998085947250308,
        1.0008677358772455,
        1.0005848872063068,
        1.0003866888588662,
        1.000616526681232,
        1.0009627158823395,
        1.0003352732822575,
        0.9997283310824677,
        1.0004513591999675,
        1.000472502340602,
        0.9999158646620933,
        0.9998471990291646,
        0.9997081042724463,
        1.0000572607133185,
        0.9999303602432844,
        1.0000766219526784,
        1.0000296726129165,
        0.9998734836107388,
        0.9996691172183224,
        0.9999287372160036,
        1.0000318499975185,
        0.9995030076600802,
        0.9999496323173894,
        0.9994606701930068,
        0.9997304748643167,
        1.0001573249030618,
        0.9997665380150319,
        0.9997790237366683,
        0.9998582643132761,
        1.0001449082515632,
        1.000019123094938,
        0.9999195493247961,
        0.9998163549487666,
        1.0001302038646656,
        1.0002848818030479,
        1.0000490643764488,
        0.9993945130620717,
        1.0001280608817575,
        1.0002064347223114,
        1.0000406425218027,
        1.0000544616544162,
        1.0000676224196299,
        0.9999586339624585,
        0.9998645834247467,
        1.0000318617261115,
        1.0000395560815747,
        0.9999750171686436,
        0.9997743921614217,
        0.9999164385254488,
        0.9999267612641103,
        0.9998811162845685,
        0.9999425336359474,
        1.0000537728927437,
        1.0000813991275401,
        0.9999887361661945,
        1.0001582478157136,
        0.9999444337904928,
        1.000058022463931,
        1.0000278109160075,
        1.0000002754574464
    ],
    "TGJets_TuneCP5_13TeV-amcatnlo-madspin-pythia8_PSSumw": [
        1.0008018016815186,
        1.0017738342285156,
        0.9991297721862793,
        1.0019044876098633
    ],
    "ST_t-channel_top_4f_InclusiveDecays_TuneCP5_13TeV-powheg-madspin-pythia8": 0.00034107453997662393,
    "ST_t-channel_top_4f_InclusiveDecays_TuneCP5_13TeV-powheg-madspin-pythia8_LHEScaleSumw": [
        0.9533719248028207,
        0.954052760174578,
        0.9451305317579323,
        0.9977840096257088,
        1.0000187731011971,
        0.9961767108548278,
        1.0527872636462636,
        1.0563907395338878,
        1.0563641999590128
    ],
    "ST_t-channel_top_4f_InclusiveDecays_TuneCP5_13TeV-powheg-madspin-pythia8_LHEPdfSumw": [
        1.0449177069341884,
        1.0460032121610519,
        1.0426209366358383,
        1.0434730504689607,
        1.044435474471263,
        1.0453796177032708,
        1.044938573045718,
        1.0463878539549418,
        1.0448217495962284,
        1.0438079990185793,
        1.0447806011678773,
        1.0433723166250832,
        1.043887053790576,
        1.0426440914147344,
        1.0423077389588435,
        1.045726569603289,
        1.0452511041272703,
        1.0442863638324595,
        1.0440404148521818,
        1.0438710459282965,
        1.0436679292899438,
        1.0450650255220582,
        1.0441443000094839,
        1.045229351105421,
        1.045987293979956,
        1.044068234239147,
        1.0458232464849027,
        1.0447613195208731,
        1.044898488085999,
        1.0468058445804012,
        1.0447565043781883,
        1.0450438016150863,
        1.045603731457144,
        1.0445838973320096,
        1.0446489973495712,
        1.0454296724297227,
        1.0452295923022665,
        1.0446099918797052,
        1.0452273946468087,
        1.0450256506878786,
        1.0451152413938942,
        1.0447374350320668,
        1.0452911394452125,
        1.0447118604270984,
        1.0451890931779564,
        1.0448429542347792,
        1.0445884802335004,
        1.044570770335721,
        1.0447258804681272,
        1.0449276866413675,
        1.0448980970494612,
        1.0444312869229586,
        1.0449918606543398,
        1.0447421961231653,
        1.0448392897414303,
        1.044534912132263,
        1.0450024883476545,
        1.0448802052399888,
        1.0450836910160357,
        1.045140593703129,
        1.0447882417894376,
        1.0447693764003554,
        1.045086825282014,
        1.0448986022060378,
        1.0448782095224587,
        1.044646492515831,
        1.0454187039072649,
        1.044538258738676,
        1.04488022387247,
        1.0449264175615798,
        1.0452428805266027,
        1.0452633043356125,
        1.044950781060636,
        1.0450466234709461,
        1.0446255389809487,
        1.0449658551078622,
        1.0450364430870274,
        1.0447384724075022,
        1.0446838461459236,
        1.044620243710678,
        1.0448841821292318,
        1.0450520276624102,
        1.044916994872868,
        1.0448127597432593,
        1.0448497663127783,
        1.0448777232199065,
        1.044846390342901,
        1.0450070629783994,
        1.0451195295849585,
        1.0449758455909377,
        1.0448541067877084,
        1.0452209839647977,
        1.0449765580691894,
        1.0450564893461025,
        1.0447768886768958,
        1.044906544027273,
        1.0450120040153874,
        1.0452983647307965,
        1.0445202130914037,
        1.0448750251112504,
        1.0449298883159133,
        1.063991298396416,
        1.0279759154765185
    ],
    "ST_t-channel_top_4f_InclusiveDecays_TuneCP5_13TeV-powheg-madspin-pythia8_PSSumw": [
        1.001564860343933,
        1.0000104904174805,
        1.000838041305542,
        1.0000356435775757
    ],
    "ST_t-channel_antitop_4f_InclusiveDecays_TuneCP5_13TeV-powheg-madspin-pythia8": 0.0008687905277620732,
    "ST_t-channel_antitop_4f_InclusiveDecays_TuneCP5_13TeV-powheg-madspin-pythia8_LHEScaleSumw": [
        0.9502353109359564,
        0.9500253773790492,
        0.9409714590565039,
        0.9980944290976872,
        1.0000028220403425,
        0.9963592812784232,
        1.0554665946470583,
        1.059207589073093,
        1.059634493631324
    ],
    "ST_t-channel_antitop_4f_InclusiveDecays_TuneCP5_13TeV-powheg-madspin-pythia8_LHEPdfSumw": [
        1.047897222313026,
        1.0489637580709386,
        1.04692596678387,
        1.0471664079968714,
        1.0471092603146062,
        1.0488460951666092,
        1.0494102259533498,
        1.0488176252457053,
        1.049257479481398,
        1.0482717010543103,
        1.0483529410647865,
        1.0487504011250504,
        1.0470412842946049,
        1.0475891818907481,
        1.0492994975923307,
        1.0461670501745322,
        1.0481428515890931,
        1.0486197636559271,
        1.0473263835066984,
        1.0496876186126547,
        1.0479056300629825,
        1.0488339492120402,
        1.0480871917996706,
        1.0469457064454957,
        1.0462125966495124,
        1.0484770024039682,
        1.0460944427981729,
        1.0478447476900603,
        1.0479012903776344,
        1.0463592589391224,
        1.0486058301692058,
        1.0480631260263855,
        1.0476745711697295,
        1.0468223438668989,
        1.047929146429432,
        1.0474726560650225,
        1.0477172720663086,
        1.0475538395928885,
        1.0459835213663224,
        1.0478051768003276,
        1.047723761053558,
        1.0481287254744616,
        1.0470414160688795,
        1.0481045395472006,
        1.0476611464597454,
        1.0474902608161878,
        1.0488237535271365,
        1.0490062563219555,
        1.0491173460660164,
        1.0483960817093083,
        1.0476018144812849,
        1.047828938890235,
        1.0482360502252948,
        1.04779712064996,
        1.0479116054019522,
        1.0477405889105014,
        1.047469377147878,
        1.0482335150552406,
        1.0476977985073526,
        1.0478367388526504,
        1.0478324783111477,
        1.0484317164463934,
        1.0476411162042667,
        1.0479677385135127,
        1.0485389980324913,
        1.0476141445100398,
        1.0479281386615278,
        1.0479498588610299,
        1.0478232644937504,
        1.0480245301024744,
        1.0473560422465673,
        1.047545253198614,
        1.0478785600681304,
        1.0475558166110448,
        1.0479709042972782,
        1.0475759599889334,
        1.047932055496748,
        1.047770988844336,
        1.0481248966031032,
        1.048229071465681,
        1.0482676124674053,
        1.0478247160293006,
        1.04802219746888,
        1.047992406832862,
        1.0477297854697316,
        1.0482342723598421,
        1.048080094621136,
        1.0475488953037115,
        1.0477429612366402,
        1.0475652798535589,
        1.0480810496954671,
        1.047564166178906,
        1.047718691352443,
        1.0481721825621904,
        1.047954520861234,
        1.0479862955633699,
        1.0477218407919673,
        1.047773673619226,
        1.0483112006674495,
        1.0477379207644903,
        1.0476224723722698,
        1.0674735113617277,
        1.029503600238965
    ],
    "ST_t-channel_antitop_4f_InclusiveDecays_TuneCP5_13TeV-powheg-madspin-pythia8_PSSumw": [
        1.0004690885543823,
        0.9999374151229858,
        0.9993497729301453,
        0.9999178051948547
    ],
    "TTGamma_SingleLept_TuneCP5_13TeV-madgraph-pythia8": 0.013075320872177335,
    "TTGamma_SingleLept_TuneCP5_13TeV-madgraph-pythia8_LHEScaleSumw": [
        0.777662549912501,
        0.8245252877229975,
        0.8739267550007517,
        0.943068059491525,
        1.0,
        1.0600049874044495,
        1.123609227414177,
        1.1915408172353845,
        1.2631281616993486
    ],
    "TTGamma_SingleLept_TuneCP5_13TeV-madgraph-pythia8_LHEPdfSumw": [
        1.0,
        1.0003894662822324,
        1.0018508947844682,
        1.0001152307293553,
        0.9978398084826808,
        1.0013525203206701,
        0.9981887714961237,
        0.9998327108093783,
        0.9995401987866473,
        0.9997197200688661,
        1.0011034144589928,
        1.000109760719247,
        0.9988344229743656,
        0.9983576628980018,
        0.9979461734289485,
        0.9972317863454229,
        0.9993273275737362,
        0.9990316838419793,
        1.0022872605815154,
        1.0009480759320748,
        1.0006066387304695,
        1.001616137957482,
        0.9999704114996781,
        0.9995351722896033,
        1.00280316948543,
        1.0002252012804416,
        1.0008917152590822,
        1.0003007562037753,
        0.9999179018586659,
        1.0021034314131556,
        0.9997253994791646,
        1.0018199184385155,
        1.0002011514370182,
        1.0007512319751657,
        1.0016867402374567,
        0.99981326521973,
        0.998771177762777,
        1.0004574122546925,
        0.999989952708507,
        1.0003744603012246,
        1.0006591124160495,
        1.0006266048518924,
        0.9995797632742459,
        1.0004611826151044,
        0.9997112496702852,
        1.0002063649428454,
        1.0010811290946784,
        0.9999962896473362,
        0.9998880473232455,
        1.0012440626413497,
        1.0004761612464366,
        1.000051580506058,
        0.9990942570817324,
        1.000176276049145,
        1.0001873465253144,
        1.0004225080310003,
        1.0000777922366075,
        0.9995072605165579,
        0.9995336312931005,
        0.9996652834766648,
        0.9999950725707146,
        1.0000858460445419,
        0.9993360184414382,
        0.9995668690013458,
        0.9999060028297669,
        0.9993338440129699,
        1.000044904258819,
        1.0002282370361029,
        0.9994282819565552,
        1.0001246295347397,
        0.9995664864649838,
        1.0003564150777946,
        1.0004841036953112,
        0.999795921993423,
        1.0004474340478366,
        1.000143091408642,
        1.0000334293062239,
        0.9994519041519127,
        0.9997774731218004,
        1.000401180752255,
        0.9999134169715769,
        1.0002407340409256,
        0.9998528781362189,
        0.9993149424676654,
        0.9999662860863832,
        0.9999615766058421,
        1.000165502800078,
        0.999797097118626,
        1.0002037659065708,
        1.0001783248791363,
        0.9998311630589004,
        0.9998213247227777,
        0.9996327718452626,
        1.0003168068522834,
        0.9999409305438938,
        0.9997177551367893,
        1.0001207420009797,
        0.9997813157517865,
        0.9999351011079555,
        0.9998103312751871,
        1.0,
        1.023557557832294,
        0.9758996252255063
    ],
    "TTGamma_SingleLept_TuneCP5_13TeV-madgraph-pythia8_PSSumw": [
        1.0000110864639282,
        1.000335693359375,
        0.9999852776527405,
        1.0007953643798828
    ],
    "TTGJets_TuneCP5_13TeV-amcatnloFXFX-madspin-pythia8": 0.0070073219365528435,
    "TTGJets_TuneCP5_13TeV-amcatnloFXFX-madspin-pythia8_LHEScaleSumw": [
        0.941098093010952,
        0.9345639786027471,
        0.9269774874299718,
        0.9835657326710981,
        1.0,
        1.013164588590544,
        1.0765864579056703,
        1.1090178477449582,
        1.1374919697116606
    ],
    "TTGJets_TuneCP5_13TeV-amcatnloFXFX-madspin-pythia8_LHEPdfSumw": [
        1.0,
        1.0005673197185982,
        1.0013270351151948,
        1.0002854007309692,
        0.9980868593655966,
        1.0021053162327629,
        0.9986919843755472,
        1.0006575306296668,
        1.0011098309620408,
        0.9991229694032893,
        1.0012808145906782,
        0.9986039868258857,
        0.9994808037607457,
        0.9979872284029271,
        0.9979983886788966,
        0.9969835896160021,
        0.9989258972964072,
        0.9983527180031386,
        1.0032413007613261,
        1.0018376431112113,
        1.000459343529275,
        1.0022782451275292,
        0.9996350707675076,
        0.9996915507632146,
        1.0031306021908986,
        0.999967239637225,
        1.0008266284814025,
        0.999934085902964,
        1.00025984585327,
        1.0011475425752854,
        0.999312220365892,
        1.0010909425876113,
        1.0002782963548638,
        1.0002008046765967,
        1.0014959260765914,
        0.9999940547815549,
        0.9989111402127676,
        1.0001527538263355,
        0.99983060990473,
        1.0004752693622547,
        1.0007015297924884,
        1.000581513235401,
        0.999744274947736,
        1.0003671425276621,
        0.999901760649862,
        1.0003682396882991,
        1.0012951660736922,
        1.0001474679467781,
        0.9998676769418033,
        1.0015239070371098,
        1.0004270630382148,
        0.999895997358652,
        0.9992510243013357,
        1.0001407070010075,
        1.0001768553566945,
        1.0003295340039953,
        1.0000520647754916,
        0.9994146929194859,
        0.9994314731380414,
        0.9996902560541574,
        1.0000048444772112,
        1.0000358235871991,
        0.9995763130718289,
        0.9996781183341443,
        0.9999152853824057,
        0.9993618182691109,
        1.0001180891073633,
        1.000219719507224,
        0.9994962850787519,
        1.000174210250714,
        0.9998480887324053,
        1.0005414340114707,
        1.0003736775794887,
        0.9996730200747075,
        1.0003982493547932,
        1.0002040973907773,
        1.0001107753126341,
        0.9995164516141387,
        0.9997889027052823,
        1.0004985381417784,
        0.9999214144155776,
        1.0002207526987787,
        0.9999415921936397,
        0.9994615571019391,
        0.9999077767822692,
        0.9998571776683174,
        1.0001875816096406,
        0.999960595607745,
        1.0001714724763173,
        1.0000639258348996,
        0.9999322082829761,
        0.9997860131839185,
        0.9996606534012623,
        1.0002425167069657,
        0.9999566444444143,
        0.9997568381457074,
        1.000041521058846,
        0.9997888290540345,
        1.0000402112213378,
        0.9999439665652521,
        1.0000000277587584,
        1.0408997422333548,
        0.9595726047763162
    ],
    "TTGJets_TuneCP5_13TeV-amcatnloFXFX-madspin-pythia8_PSSumw": [
        0.9824714064598083,
        0.9983972907066345,
        1.0219825506210327,
        1.0049127340316772
    ],
    "TTToSemiLeptonic_TuneCP5_13TeV-powheg-pythia8": 0.00014199646741540315,
    "TTToSemiLeptonic_TuneCP5_13TeV-powheg-pythia8_LHEScaleSumw": [
        0.8877650347071103,
        0.903455498022286,
        0.9138846077601371,
        0.9759911820829938,
        0.9999934071729952,
        1.0192844562615475,
        1.0785187897701054,
        1.1103693408131683,
        1.1379762417265489
    ],
    "TTToSemiLeptonic_TuneCP5_13TeV-powheg-pythia8_LHEPdfSumw": [
        0.9999934071729952,
        1.0008960482283966,
        0.9990653736316022,
        0.9996473942137255,
        0.9975658285464689,
        1.0006208341284566,
        1.002399181314374,
        1.0015442947611242,
        1.0023075428826005,
        0.9981858341462502,
        1.000754964236887,
        1.0021430661999877,
        0.9997755575688213,
        1.001279273540644,
        0.9990566546574093,
        0.9994610063320875,
        0.9987092533606037,
        1.000666348415157,
        1.0002940617696388,
        0.9997061485406168,
        0.9993275711643734,
        0.9997062166911371,
        0.9999842492682296,
        0.9989768117532518,
        1.0014396830669887,
        0.9994112177376114,
        0.9984739530907879,
        1.0014880815416733,
        1.0015921948240327,
        0.995274588230837,
        0.9997375957111797,
        0.9992154098462701,
        0.9993661397763999,
        0.9992619192866695,
        0.9992346600180467,
        1.0000237357718442,
        1.0002273770088213,
        0.9992916507287815,
        0.9998068827761719,
        1.0005558722624495,
        0.9997728853255569,
        1.0002875302901555,
        1.001524499076432,
        0.999964315534089,
        0.9991164239778323,
        1.0003842252987543,
        0.9988349559885988,
        0.9990091811415033,
        1.001102612472813,
        1.0004486215527988,
        0.9996027973147364,
        0.9993692471082951,
        1.0004092357199639,
        0.9997929235415395,
        0.999626242239899,
        0.9998530541280289,
        0.9999878978101746,
        0.9999997679602971,
        0.9998107799410969,
        1.000289162811337,
        1.0000396214877507,
        1.0003786162568757,
        1.0001051243642272,
        0.9999956460901545,
        1.000253534741465,
        0.9998159968780671,
        0.999835709088932,
        1.0000889444753902,
        0.9997076097925864,
        0.9996876362126469,
        1.000797903868293,
        1.0006140536062573,
        0.9998730790347712,
        1.0004905898533418,
        1.0005126355057439,
        1.0004569897614657,
        0.9995631898549995,
        1.0010893772865535,
        0.999787265927547,
        0.9997092967218424,
        0.9996256708962866,
        0.9997477669966757,
        0.9995842754271319,
        0.9998984267143056,
        1.0001834438240225,
        0.9997429530436116,
        0.9998017947325071,
        1.0004880333479984,
        0.9998548840756406,
        1.0002202351161409,
        0.9998196206795406,
        1.0001300042343215,
        1.0000989323557705,
        0.999723194937347,
        1.0000796751186016,
        0.9996690565544001,
        1.0003587812927006,
        0.9992174094413958,
        1.0003020040187502,
        0.9999110317229539,
        1.0000059113474076,
        1.0281061615391245,
        0.9720877337711217
    ],
    "TTToSemiLeptonic_TuneCP5_13TeV-powheg-pythia8_PSSumw": [
        0.9999814629554749,
        0.999995768070221,
        1.0004514455795288,
        0.999927282333374
    ],
    "TTGamma_Dilept_TuneCP5_13TeV-madgraph-pythia8": 0.007978713061137238,
    "TTGamma_Dilept_TuneCP5_13TeV-madgraph-pythia8_LHEScaleSumw": [
        0.777514281310324,
        0.8244526741286948,
        0.8739817209077562,
        0.9429738664817982,
        1.0,
        1.060162584312429,
        1.1235824045847274,
        1.1916286846497934,
        1.2634066940434956
    ],
    "TTGamma_Dilept_TuneCP5_13TeV-madgraph-pythia8_LHEPdfSumw": [
        1.0,
        1.0003858150122946,
        1.0018536834433567,
        1.0001055243949295,
        0.9978360560247337,
        1.0013449552550777,
        0.998170424201668,
        0.9997914277340526,
        0.9994769429812528,
        0.9997614952064815,
        1.001083811134482,
        1.0001512949116511,
        0.9987996861892275,
        0.9983739360268433,
        0.9979444567957154,
        0.9972628561900896,
        0.9993275965250888,
        0.9990310982539373,
        1.0022544385533838,
        1.000950894968175,
        1.000605827468052,
        1.0015778357283434,
        0.9999926613014897,
        0.9995217632765312,
        1.002767770005193,
        1.0002201021805992,
        1.0009102040150661,
        1.0003343100908957,
        0.999933983925595,
        1.0021615210769086,
        0.9997364398854509,
        1.00190158533548,
        1.0002023049177984,
        1.0007836368318848,
        1.00170946137658,
        0.9997933386842559,
        0.9987246346689385,
        1.0004708916390164,
        1.0000074868024549,
        1.0003647510507425,
        1.0006648021721765,
        1.00063363467803,
        0.999535970305178,
        1.0004423439397014,
        0.9996786449983722,
        1.0001919120381406,
        1.0010638812431687,
        0.9999994533782022,
        0.9999135063676117,
        1.0012358946101867,
        1.0004890529871775,
        1.0000699355465923,
        0.9990841359882816,
        1.0001796547933754,
        1.0001828873967598,
        1.000415961275028,
        1.000092013940678,
        0.9995162711699416,
        0.9995365713003564,
        0.9996645926085128,
        0.9999996901879494,
        1.0000903742321055,
        0.9993322285182535,
        0.9995710781846475,
        0.9999090861815687,
        0.9993267105657525,
        1.0000471497243648,
        1.0002328576994828,
        0.9994186122985587,
        1.0001200058521877,
        0.9995731894822246,
        1.0003489200527738,
        1.0004783926452658,
        0.9997957298316822,
        1.0004505492322353,
        1.0001459775372061,
        1.0000363759688158,
        0.9994470264552134,
        0.9997793817217738,
        1.0003945947123223,
        0.9999202299431925,
        1.0002444007282685,
        0.9998496765138642,
        0.9993165135805631,
        0.9999710904897,
        0.9999560288547157,
        1.000164998885414,
        0.9997983708610263,
        1.0001996661669554,
        1.0001852642931628,
        0.9998271409790316,
        0.999826466989506,
        0.9996326625676212,
        1.000315405541158,
        0.9999443886962338,
        0.9997176063800263,
        1.000121658867244,
        0.9997834435967042,
        0.9999376352305664,
        0.9998124914405294,
        1.0,
        1.0234695089850878,
        0.9759393397752769
    ],
    "TTGamma_Dilept_TuneCP5_13TeV-madgraph-pythia8_PSSumw": [
        1.0000749826431274,
        1.0006641149520874,
        0.999906599521637,
        1.0014047622680664
    ],
    "TTTo2L2Nu_TuneCP5_13TeV-powheg-pythia8": 0.00047792713561825345,
    "TTTo2L2Nu_TuneCP5_13TeV-powheg-pythia8_LHEScaleSumw": [
        0.88778612866134,
        0.9034783915726047,
        0.9139099768347103,
        0.9759893854221341,
        1.0000041266609814,
        1.0192891078429185,
        1.0784971859302992,
        1.110351372505697,
        1.1379624564155784
    ],
    "TTTo2L2Nu_TuneCP5_13TeV-powheg-pythia8_LHEPdfSumw": [
        1.0000041266609814,
        1.0008966854409385,
        0.9990645622378488,
        0.9996477052878028,
        0.9975672322805813,
        1.0006215771429774,
        1.002400140356878,
        1.0015438010600026,
        1.0023072429790603,
        0.9981872604019382,
        1.0007564981374886,
        1.0021449829794882,
        0.9997770086118101,
        1.0012811307511187,
        0.9990585898051685,
        0.9994607840760553,
        0.9987107082959631,
        1.00066767238983,
        1.0002946334733633,
        0.9997069560731803,
        0.9993271674615029,
        0.9997058677982122,
        0.9999862863748091,
        0.9989769993926888,
        1.0014405444068057,
        0.9994122042763919,
        0.9984754255200257,
        1.0014903440451346,
        1.0015939898746797,
        0.9952739074248369,
        0.9997375366619305,
        0.9992157865440178,
        0.9993660445977044,
        0.999270829784591,
        0.9992351696900179,
        1.0000250982146084,
        1.0002280549348412,
        0.9992945040549543,
        0.9998155560211613,
        1.0005571145153376,
        0.9997739248801484,
        1.000288658719094,
        1.0015272428431075,
        0.9999630680818612,
        0.9991177876226918,
        1.0003852932826804,
        0.9988364613510047,
        0.9990106321348008,
        1.0011030605764573,
        1.000448176847488,
        0.9996042010457993,
        0.9993709443178281,
        1.000410146481954,
        0.999795159647423,
        0.9996277978923273,
        0.9998569178701696,
        0.9999935084668716,
        0.9999982440181155,
        0.9998108824833206,
        1.0002909707283987,
        1.000041858626194,
        1.0003788701134078,
        1.0001061563259914,
        0.9999983154592419,
        1.000250869474341,
        0.9998174003869709,
        0.9998394410344789,
        1.0000903182383087,
        0.9997106500008173,
        0.9996888361118588,
        1.0007975149797224,
        1.000610308187321,
        0.9998747263553887,
        1.0004901097668943,
        1.0005141523221075,
        1.0004589453442254,
        0.999564481055433,
        1.0010876689554582,
        0.9997867318797072,
        0.9997094238889631,
        0.999625896511656,
        0.9997468816010973,
        0.9995850248545369,
        0.9998950134006235,
        1.0001845598915662,
        0.9997396578172398,
        0.9997876860793034,
        1.0004897929279468,
        0.9998553062306733,
        1.0002150535982228,
        0.9998188835380508,
        1.0001322130251908,
        1.0001006634073297,
        0.9997140626131095,
        1.0000817952016359,
        0.9996555333157211,
        1.0003598151459243,
        0.9992026259675243,
        1.0003028840653325,
        0.9999122261495659,
        1.0000067331674527,
        1.0281064106964426,
        0.9720887707847798
    ],
    "TTTo2L2Nu_TuneCP5_13TeV-powheg-pythia8_PSSumw": [
        1.0004379749298096,
        0.9999799728393555,
        1.0000804662704468,
        1.0000900030136108
    ],
    "ST_s-channel_4f_leptonDecays_TuneCP5_13TeV-amcatnlo-pythia8": 0.003235165524312785,
    "ST_s-channel_4f_leptonDecays_TuneCP5_13TeV-amcatnlo-pythia8_LHEScaleSumw": [
        1.9702333803286,
        1.9464750685955916,
        1.9271430375890082,
        2.0280891744063814,
        1.0,
        1.977484569264919,
        2.0778198618564505,
        2.0458531191098035,
        2.020503485206458
    ],
    "ST_s-channel_4f_leptonDecays_TuneCP5_13TeV-amcatnlo-pythia8_LHEPdfSumw": [
        1.0,
        1.9985392118763992,
        2.000836951037333,
        2.002573613359328,
        1.9977838346055359,
        2.0019338478343487,
        2.0001442264259244,
        2.0013232109975143,
        2.0049462092757326,
        1.995737821134267,
        2.003972586707497,
        1.999142772783333,
        1.9998598147895275,
        1.9958996643339397,
        2.0000246832370907,
        1.9910555747433392,
        2.0022956763096014,
        2.0005838562785283,
        2.005079278525445,
        1.9997202923427462,
        1.9955169194934552,
        2.002883617518314,
        1.9961050900879298,
        2.0038070416160876,
        2.002196964817347,
        2.0022418515432436,
        2.000915904254109,
        1.992702236730852,
        1.9973620961483725,
        1.9943584580466618,
        1.998510292582445,
        1.9917486428761453,
        2.0005248056931273,
        1.9983770887289323,
        1.9971336255861154,
        2.0017452207708217,
        2.0041771795583583,
        1.9968180359269165,
        1.9979815016212497,
        2.0019953377147717,
        1.9995363632015541,
        1.998317317090194,
        2.0032039192734077,
        2.0013391410533834,
        2.001970217420782,
        2.000110992846003,
        2.001062751047042,
        2.000597682604126,
        1.999106379037196,
        2.001989426101219,
        2.0011398262547138,
        1.9990569252533705,
        2.000344035607196,
        2.0001870076331256,
        2.000028876148904,
        1.9981100951664201,
        1.998925550210789,
        1.9999648125097362,
        1.9996651380264718,
        1.9983528562608286,
        1.9994227052327098,
        1.9997985395665394,
        1.9998057578572193,
        2.0002670595126326,
        1.9985937245937684,
        2.0000910841050112,
        1.9984182409661853,
        1.9986488354676508,
        2.0005891096074055,
        2.0002617562389085,
        2.000516537769455,
        1.9994429977311237,
        1.999533918097174,
        1.9997486455763815,
        1.9997999505958861,
        2.000530647031548,
        2.0005104645836633,
        1.999372605593979,
        2.00018137364019,
        2.000978966014852,
        2.0002348565559704,
        2.000117961123756,
        1.9995701390110898,
        2.0010591710731385,
        1.9993988391211017,
        2.0003861648279067,
        2.0001637768460383,
        1.9998618766568863,
        1.9995196979323846,
        1.9994145553605451,
        2.000110529422544,
        1.99974313713941,
        2.000325492351945,
        1.9999325026677253,
        2.0007191445998567,
        2.000362250554131,
        2.0000372958907935,
        2.000071008334326,
        2.0000780743910194,
        2.000047566487215,
        1.9999999872166778
    ],
    "ST_s-channel_4f_leptonDecays_TuneCP5_13TeV-amcatnlo-pythia8_PSSumw": [
        0.9999104738235474,
        0.9999222159385681,
        1.000186562538147,
        1.0000652074813843
    ],
    "ST_tW_top_5f_inclusiveDecays_TuneCP5_13TeV-powheg-pythia8": 0.0072609094045938405,
    "ST_tW_top_5f_inclusiveDecays_TuneCP5_13TeV-powheg-pythia8_LHEScaleSumw": [
        0.9725537278491244,
        0.953811763810118,
        0.9324566654958938,
        1.0283983484454864,
        1.0000120837390505,
        0.9735381421027623,
        1.0867362649094254,
        1.0499190159624137,
        1.0189170019023892
    ],
    "ST_tW_top_5f_inclusiveDecays_TuneCP5_13TeV-powheg-pythia8_LHEPdfSumw": [
        1.0000120837390505,
        1.000320808732296,
        1.0023981274518632,
        0.999737087883162,
        0.9973193812564116,
        1.0007607395938751,
        0.9972037651562795,
        0.9982329398843162,
        0.997105385766162,
        1.000854684670686,
        1.000577718393144,
        1.0016633614000945,
        0.9980432127778102,
        0.9991860879437481,
        0.9978530902502382,
        0.998206775388252,
        0.999608299388613,
        0.9995506895240781,
        1.0006618722373941,
        1.0003427020136415,
        1.0010752898343118,
        1.0005618381558234,
        1.0011088905860313,
        0.9990816454721769,
        1.0024389304412111,
        1.000165819499562,
        1.0013512715503763,
        1.0015976717677624,
        0.9999438439289011,
        1.0041812867914102,
        1.0003009701606123,
        1.0042442893378922,
        0.9998528782341963,
        1.0016178957030746,
        1.0026874832131183,
        0.9994660981133217,
        0.9975614942783175,
        1.0009997421920838,
        1.0002404990796219,
        1.0001794171762668,
        1.0009687976871757,
        1.0007565190963195,
        0.9988328782323959,
        1.0005744831881724,
        0.9993558818192543,
        1.0000833109871519,
        1.000856400785049,
        0.9998631905830115,
        1.0002151818190959,
        1.0010794159352163,
        1.000567390390996,
        1.000308180217247,
        0.9988630492328435,
        1.0001428789036955,
        1.0002883554736273,
        1.0007268280602524,
        1.0004998023594307,
        0.9995081390393641,
        0.9995449238198377,
        0.9997895195834933,
        1.000187393128566,
        1.000224215998515,
        0.9991236860644024,
        0.9993602855548894,
        1.0000260028754573,
        0.9990450657349427,
        1.0002445050119588,
        1.0004022555512422,
        0.9993389188959724,
        1.0001033790963685,
        0.9994407887838889,
        1.0003406655449376,
        1.0005695536316612,
        0.9999006986887824,
        1.000469457908866,
        1.0001824406193236,
        1.0000117983920824,
        0.9993524935428664,
        0.9998165400133039,
        1.0002501664057775,
        0.9998681905046418,
        1.0003024376690648,
        0.9998368002148209,
        0.9990936142435581,
        1.000064995228738,
        0.9998769646963548,
        1.0001977538817832,
        0.9998317182470444,
        1.0002439660612377,
        1.0002794295760675,
        0.9997738379521224,
        0.999873730421591,
        0.9995527593094794,
        1.000396871305656,
        0.9999767687317572,
        0.9996614860128133,
        1.0001838330594865,
        0.9997600433050194,
        0.9999416911709371,
        0.9997754686233115,
        1.0000120837390505,
        1.0342953293203125,
        0.9665715379871812
    ],
    "ST_tW_top_5f_inclusiveDecays_TuneCP5_13TeV-powheg-pythia8_PSSumw": [
        1.0001370906829834,
        1.0002343654632568,
        1.0000394582748413,
        0.9990211129188538
    ],
    "ST_tW_antitop_5f_inclusiveDecays_TuneCP5_13TeV-powheg-pythia8": 0.007068269900242673,
    "ST_tW_antitop_5f_inclusiveDecays_TuneCP5_13TeV-powheg-pythia8_LHEScaleSumw": [
        0.9727062028834647,
        0.9537858433110095,
        0.9323150711913589,
        1.0285222092561037,
        0.9999786413624752,
        0.9734085997989516,
        1.0868369568947411,
        1.0498789665287875,
        1.018795726884252
    ],
    "ST_tW_antitop_5f_inclusiveDecays_TuneCP5_13TeV-powheg-pythia8_LHEPdfSumw": [
        0.9999786413624752,
        1.0002439977481725,
        1.0024023778073532,
        0.9996806484370867,
        0.9972855724233113,
        1.0007018849163183,
        0.9971861677003591,
        0.9982083367072032,
        0.9970806367183602,
        1.000793609938593,
        1.0004966091026921,
        1.0016291350156665,
        0.9979866597087156,
        0.9991797685788465,
        0.9978098638123152,
        0.9981927921638372,
        0.9995532629462524,
        0.9995319660677703,
        1.000643365071318,
        1.0002956965558771,
        1.0011351881591686,
        1.0005228904091819,
        1.0010638710124986,
        0.9990456880341461,
        1.0023621322014271,
        1.0001787776063653,
        1.0012952032173539,
        1.0015332726059067,
        0.9999081695408794,
        1.0041327301338787,
        1.0003212237173038,
        1.0041622361493816,
        0.9998491335829582,
        1.001658373169009,
        1.0026414774468286,
        0.9994570765319242,
        0.9975481328079896,
        1.0009700204201621,
        1.0002474772770522,
        1.0001305703854957,
        1.0009438701566706,
        1.0007366941980682,
        0.9988182905601006,
        1.0005885070856755,
        0.9993508523538436,
        1.0000732368314889,
        1.0008418241139323,
        0.9998624537311067,
        1.0001713814009974,
        1.0010587913389408,
        1.0005465834849236,
        1.000302747783572,
        0.9988532842810842,
        1.000097030196525,
        1.0002476957011661,
        1.0006728125572337,
        1.0004665808329758,
        0.9994539378717228,
        0.9994845180788601,
        0.9997445968672503,
        1.0001623791017502,
        1.0001818227377195,
        0.9990766140961097,
        0.9993218260389508,
        1.0000086787696585,
        0.9990061464694042,
        1.0001941292049985,
        1.0003930249977169,
        0.9992990262701323,
        1.0000572572977164,
        0.9993970229770813,
        1.000311757903813,
        1.0005432900915892,
        0.999853805044829,
        1.000414351222913,
        1.0001522109920506,
        0.9999731021644591,
        0.9993171396795396,
        0.9997939408057976,
        1.0002142779161554,
        0.9998236444408297,
        1.0002783963662936,
        0.9998134104503144,
        0.9990527048913117,
        1.0000391005885567,
        0.9998509147807486,
        1.0001686633398463,
        0.9998079049795645,
        1.000201572077546,
        1.0002457808013996,
        0.9997436213952207,
        0.9998486999727431,
        0.9995200921126487,
        1.000356408317147,
        0.9999442915184432,
        0.9996324885389324,
        1.000143533521467,
        0.9997273834420816,
        0.9999072938007371,
        0.9997456908355398,
        0.9999786413624752,
        1.0344908970610114,
        0.9664280962986624
    ],
    "ST_tW_antitop_5f_inclusiveDecays_TuneCP5_13TeV-powheg-pythia8_PSSumw": [
        1.0002342462539673,
        0.9997100234031677,
        0.9998826384544373,
        1.0004693269729614
    ],
    "TTWJetsToQQ_TuneCP5_13TeV-amcatnloFXFX-madspin-pythia8": 0.04038220042552577,
    "TTWJetsToQQ_TuneCP5_13TeV-amcatnloFXFX-madspin-pythia8_LHEScaleSumw": [
        0.9044567919336511,
        0.9143002168700206,
        0.9200327400931717,
        0.9801399472445652,
        1.0,
        1.0156951795279654,
        1.0831125963833124,
        1.1111950584929966,
        1.1351389439510742
    ],
    "TTWJetsToQQ_TuneCP5_13TeV-amcatnloFXFX-madspin-pythia8_LHEPdfSumw": [
        1.0,
        0.9998026568216565,
        1.0003101955552083,
        0.9998473021462964,
        0.9987808181357579,
        1.0017020601883875,
        1.0005253537062675,
        1.00222184723469,
        1.004124082013382,
        0.9959948902464439,
        1.0016787936819478,
        0.9977926130394849,
        1.0006016178235566,
        0.9964556411367381,
        1.0003265053822654,
        0.993683468317172,
        1.0010711251801006,
        1.0001388149880448,
        1.004803452351034,
        1.0003623358762583,
        0.9992446069880101,
        1.0035562260455648,
        0.997149982392278,
        1.0014700204552514,
        1.0032979229725025,
        1.0007384274014737,
        0.999833834375434,
        0.9969442952612162,
        0.9996781602052726,
        0.9946931454874056,
        0.9971857797083024,
        0.9946554657944318,
        1.001024391924322,
        0.9970112015674585,
        0.998765703380213,
        1.0012891111499198,
        1.0021561090989985,
        0.9981362689629425,
        0.9985864883699394,
        1.0020668585486299,
        1.000606498512141,
        0.9997960526115254,
        1.0039274876871482,
        1.0012585934928844,
        1.0012019866466355,
        1.0001331017519095,
        1.0012552330234867,
        1.0001330258123144,
        0.9986886141566621,
        1.00216054868334,
        1.0007349109416135,
        0.9984679210093064,
        1.0008617747522348,
        1.0002085013686728,
        0.9998938825449284,
        0.9987130642463892,
        0.9996179070162858,
        1.0005109765263944,
        0.9997455229056144,
        0.9991852801736979,
        0.9986310656079181,
        0.9992551352639825,
        0.9998196913858143,
        1.0013620060113049,
        0.9990692349388915,
        0.9998993276377415,
        0.998952114187062,
        0.9990440182134016,
        1.000162608066413,
        1.0009392959107375,
        1.0003783505446393,
        1.0000603536308508,
        1.0000457481097915,
        0.9995476487582265,
        1.0006495681824716,
        1.000420540500257,
        1.0004927436586157,
        0.9995507989959412,
        0.9994483160610602,
        1.0010404531228807,
        1.000003506987064,
        0.9995561927522595,
        0.9994302970327944,
        1.0007392851702348,
        0.9995655007429591,
        1.0004106649940387,
        0.999970948249269,
        0.9993664092144199,
        0.999937169612188,
        0.9997760474699934,
        1.000172523103694,
        0.9996523433587804,
        1.0004641125531508,
        1.0001204386660183,
        1.0000763575836045,
        1.0000858518765987,
        1.0003157656559971,
        1.0000078004346447,
        0.9999634605732369,
        0.9999422319896716,
        0.9999999672201327,
        1.0410190123833594,
        0.963483448513495
    ],
    "TTWJetsToQQ_TuneCP5_13TeV-amcatnloFXFX-madspin-pythia8_PSSumw": [
        0.9898533225059509,
        1.000420093536377,
        1.0131839513778687,
        0.999285876750946
    ],
    "TTWJetsToLNu_TuneCP5_13TeV-amcatnloFXFX-madspin-pythia8": 0.003668101718701687,
    "TTWJetsToLNu_TuneCP5_13TeV-amcatnloFXFX-madspin-pythia8_LHEScaleSumw": [
        0.906787146371515,
        0.9155952931741044,
        0.9204046048610338,
        0.9809628029270506,
        1.0,
        1.0149358823230845,
        1.0827723388581718,
        1.1101229750202495,
        1.1333766437484472
    ],
    "TTWJetsToLNu_TuneCP5_13TeV-amcatnloFXFX-madspin-pythia8_LHEPdfSumw": [
        1.0,
        0.9998343185190524,
        1.0002216082678201,
        0.9997888034510322,
        0.9987956854447585,
        1.0017074928371996,
        1.0004148724415198,
        1.0021777206940479,
        1.0040380505768614,
        0.9959936462418636,
        1.0016822425952436,
        0.9976981407871818,
        1.0006263967531166,
        0.9964327973844964,
        1.0003045253531766,
        0.9935042240916139,
        1.0011810463075455,
        1.0001109640108126,
        1.0047904420744023,
        1.0002837032979666,
        0.9990124580892431,
        1.0035883666583283,
        0.9971335998853852,
        1.001442767986945,
        1.0033173910037783,
        1.0004693152037007,
        0.9999204957771467,
        0.996959946885222,
        0.9996313952681001,
        0.9945161127427912,
        0.9969931683777685,
        0.9949607070419797,
        1.000899087328585,
        0.9968134202769736,
        0.9987929652425905,
        1.0015940461736832,
        1.0021310968294923,
        0.9981726498207495,
        0.9984357269281567,
        1.002287141191495,
        1.0006856205937051,
        0.9995854813001064,
        1.00395932068173,
        1.0014397487980131,
        1.0011966521347393,
        1.0001088136005523,
        1.0014516896567944,
        1.0002132518207394,
        0.9986945396721224,
        1.0023247029894973,
        1.0006972481859409,
        0.9984588694523008,
        1.0007556453589703,
        1.0002303830854233,
        0.9997972301646705,
        0.9986098343278831,
        0.999659535252991,
        1.0005412229918944,
        0.9997395762755978,
        0.9991398377468753,
        0.9986629139888547,
        0.9993143287957575,
        0.999899497683074,
        1.0014815262538355,
        0.9991008942606849,
        0.9999290542824153,
        0.9989309499860681,
        0.9989382293539538,
        1.0001420817876845,
        1.0009703683448397,
        1.0003518851307638,
        0.9999919688795188,
        0.9999894261187868,
        0.999523890331148,
        1.0006774209863059,
        1.000402750691746,
        1.0004302646075884,
        0.9996044155074836,
        0.9994579605314353,
        1.0010558447455975,
        1.0000229427543865,
        0.999582786537411,
        0.999438248468438,
        1.0007403354820663,
        0.9995498155925935,
        1.000395288178715,
        0.9999884352275875,
        0.9993696612855818,
        0.9999776896633565,
        0.9997641441949006,
        1.0001983275247426,
        0.9996708139906424,
        1.0004753482627462,
        1.0001291379752737,
        1.0001066785516204,
        1.0000962955464376,
        1.0003152539860194,
        0.9999921696891589,
        0.9999786427136245,
        0.9999660998694815,
        0.9999999633884535,
        1.0409442176979755,
        0.9637429631216915
    ],
    "TTWJetsToLNu_TuneCP5_13TeV-amcatnloFXFX-madspin-pythia8_PSSumw": [
        0.9898159503936768,
        0.9988077282905579,
        1.0132434368133545,
        1.0008949041366577
    ],
    "TTZToQQ_TuneCP5_13TeV-amcatnlo-pythia8": 0.0031100529453718896,
    "TTZToQQ_TuneCP5_13TeV-amcatnlo-pythia8_LHEScaleSumw": [
        0.913336947700349,
        0.9273990453102242,
        0.9382109896916857,
        0.9732641199618708,
        1.0,
        1.0229462645926641,
        1.0514994405175302,
        1.0891748335163332,
        1.122835223356331
    ],
    "TTZToQQ_TuneCP5_13TeV-amcatnlo-pythia8_LHEPdfSumw": [
        1.0,
        1.0008176563556037,
        1.0017090747975514,
        0.9997889593795808,
        0.9981059617739504,
        1.0022117228072884,
        0.9987121117117715,
        1.002240973021986,
        1.0022624185046927,
        0.9989737292930134,
        1.001335504581488,
        0.9979281158584601,
        0.999595541290313,
        0.9972425659552496,
        0.9980413230729575,
        0.9958724437374734,
        0.9987696234387009,
        0.9983268530128014,
        1.0041184764099496,
        1.0019198310696786,
        0.9995077076870402,
        1.0029775391601965,
        0.9991908801758648,
        0.999414926507385,
        1.003690557380674,
        1.0002544672957179,
        1.0003736321471741,
        0.9988724621093876,
        1.0003543208573606,
        1.0006861288435696,
        0.9991327719693694,
        1.0003531885437216,
        1.0005452435023736,
        0.9997063323851244,
        1.0013363023002544,
        0.9999809154277436,
        0.9998006868751732,
        1.0006104978829389,
        0.9995386944516099,
        1.000956874603134,
        1.0009708323876383,
        1.000980022780946,
        1.0006245795708621,
        1.0006135352329326,
        1.000211011397555,
        1.0004900134630932,
        1.0017743729852588,
        0.9998995898359967,
        0.9991702055769552,
        1.0016213388934614,
        1.0005474669755714,
        0.9996324263791257,
        0.9991895724937885,
        1.0000475436078773,
        1.0001607833714334,
        1.0005053649874893,
        0.9998904139427195,
        0.999914118242437,
        0.999411262846117,
        0.9993904984285569,
        0.9995791297506287,
        0.999794969384253,
        0.9993274504199241,
        0.9999342982159342,
        0.999865107403775,
        0.9994480880162562,
        0.9998006161469847,
        1.0002228329074045,
        0.9991216248687239,
        1.0004503042910655,
        0.9992793457432597,
        1.0004056475252598,
        1.000813027756066,
        0.9998316566839027,
        1.0009698070909459,
        1.000177050497605,
        0.9999011999644166,
        0.9994211493172649,
        0.9995603593728716,
        1.000548348883337,
        0.9999933071692076,
        1.0001592267058839,
        0.9996303864211951,
        0.9993019351264173,
        0.9999918842005793,
        1.0001320766454784,
        1.0000413272352253,
        0.9993893064917048,
        1.0002929125099136,
        1.000333602792847,
        0.999774861713554,
        0.9996828514816573,
        0.9997321483327628,
        1.0004333031848403,
        0.9998589441301473,
        0.9996367495931617,
        1.000294499312552,
        0.9997148690179695,
        0.9997458457851371,
        0.999649302581056,
        0.9999999169731529,
        1.0277139093312269,
        0.9718174220340369
    ],
    "TTZToQQ_TuneCP5_13TeV-amcatnlo-pythia8_PSSumw": [
        1.000320315361023,
        0.9999494552612305,
        0.9996607303619385,
        1.0007668733596802
    ],
    "TTZToNuNu_TuneCP5_13TeV_amcatnlo-pythia8": 0.0012038698099731638,
    "TTZToNuNu_TuneCP5_13TeV_amcatnlo-pythia8_LHEScaleSumw": [
        0.9145314252552523,
        0.9278939925446233,
        0.9380719825831986,
        0.9738553027021286,
        1.0223902941774865,
        1.0516320054367105,
        1.0887653918764126,
        1.1219037754749275
    ],
    "TTZToNuNu_TuneCP5_13TeV_amcatnlo-pythia8_LHEPdfSumw": [
        1.0,
        1.0008336209717192,
        1.0016949818013259,
        0.9998301389872647,
        0.9980875415379085,
        1.0021920721419464,
        0.9987227168520333,
        1.0021984553697045,
        1.002220512180799,
        0.999010202805129,
        1.001304012819727,
        0.9979519264292173,
        0.9995642477014203,
        0.9972475149299936,
        0.9980710846822789,
        0.9959027667020687,
        0.9987666087729308,
        0.9983404298800668,
        1.0041093788806945,
        1.0019317398799399,
        0.9994671142590033,
        1.0029618277042265,
        0.9991964778376154,
        0.9994126833047321,
        1.0036953601974083,
        1.0002614748666725,
        1.0003639529956605,
        0.9989035512750475,
        1.0003605752802485,
        1.0007083758953053,
        0.999146976180553,
        1.0004284806130854,
        1.0005533583671715,
        0.9997619538198468,
        1.0013178751305434,
        0.9999396769310375,
        0.9997627228552242,
        1.000568465997838,
        0.9995166973324584,
        1.0009191604450776,
        1.0009942151006956,
        1.0009738388541127,
        1.000579074066413,
        1.0006123532016722,
        1.0002192803035264,
        1.000540456672992,
        1.0017870245445628,
        0.999960296353041,
        0.999179025996513,
        1.001653612823195,
        1.0005693086034042,
        0.9996262268339965,
        0.9991487052841111,
        1.0000337796001895,
        1.0001839863071258,
        1.000461716853427,
        0.9998891958063546,
        0.9999191488063078,
        0.9994172894885116,
        0.9993598143141135,
        0.9995874844389188,
        0.9998271916697689,
        0.9993600833453126,
        0.9999624560202304,
        0.9998445895198467,
        0.9994475537091111,
        0.9998029757891543,
        1.000188287394443,
        0.9991216843425367,
        1.0004553526400337,
        0.9992911477133352,
        1.0003890803156334,
        1.0007931123237916,
        0.9998295801000514,
        1.00097347936421,
        1.0001818692690645,
        0.9998915393781372,
        0.9994184628065133,
        0.9995676836073815,
        1.000540613271377,
        0.9999897133744131,
        1.0001743841224433,
        0.9996302310080025,
        0.9993191778564897,
        0.9999793051296854,
        1.0001249405413906,
        1.0000408501678604,
        0.9993876438980642,
        1.0002869636643077,
        1.0003318711957707,
        0.9997842779192887,
        0.9996757753513708,
        0.9997391646090897,
        1.0004488224094126,
        0.9998594653122908,
        0.9996432858100127,
        1.000303264692406,
        0.9997161176639462,
        0.9997485464920192,
        0.9996448910738742,
        1.0000000307005212,
        1.0276193959944082,
        0.9718239222242165
    ],
    "TTZToNuNu_TuneCP5_13TeV_amcatnlo-pythia8_PSSumw": [
        0.9999305605888367,
        0.9999629259109497,
        0.9994330406188965,
        0.9999033212661743,
        0.9942805171012878,
        0.9998096227645874,
        0.9993032217025757,
        1.0002259016036987,
        1.0002038478851318,
        0.9998775720596313,
        1.0001567602157593,
        0.9998475313186646,
        1.0000338554382324,
        0.9999812245368958,
        0.9999666810035706,
        1.0000373125076294,
        0.9999739527702332,
        0.9999350309371948,
        1.0000485181808472,
        0.9999381303787231,
        1.0000016689300537,
        0.9999814629554749,
        1.0000497102737427,
        0.9999918937683105,
        1.000074028968811,
        0.9999616742134094,
        1.0000829696655273,
        0.9999014735221863,
        1.0000137090682983,
        0.9999479651451111,
        0.9999873042106628,
        0.9999357461929321,
        1.0000170469284058,
        1.000024437904358,
        0.9999685287475586,
        0.9999440908432007,
        0.9999614357948303,
        1.0000044107437134,
        0.9999392628669739,
        0.9999720454216003,
        1.0000063180923462,
        1.0000311136245728,
        0.9999276995658875,
        0.9999433159828186
    ],
    "WJetsToLNu_TuneCP5_13TeV-amcatnloFXFX-pythia8": 0.00021224530105190043,
    "WJetsToLNu_TuneCP5_13TeV-amcatnloFXFX-pythia8_LHEScaleSumw": [
        1.0184374756553551,
        0.9827892546332538,
        0.9655080052021835,
        1.0466082458903119,
        1.0,
        0.9730831395982996,
        1.072071827304892,
        1.0161367088635092,
        0.9812279193530303
    ],
    "WJetsToLNu_TuneCP5_13TeV-amcatnloFXFX-pythia8_LHEPdfSumw": [
        1.0,
        0.9991580282725587,
        0.9983759266685904,
        1.00341541089505,
        1.000736183624293,
        1.0014341821151047,
        1.0005689098906214,
        1.0005741047909633,
        1.0012126162704988,
        1.001135020010732,
        1.0008286038630607,
        0.9990270528317863,
        1.0009383695706344,
        0.9991437900531022,
        1.0013341617046683,
        0.9993007484067189,
        1.0001664873139422,
        1.0005933340224176,
        0.9994138409626698,
        0.9995764871507062,
        0.9969335937255993,
        0.9991223718309729,
        0.9999034636028341,
        1.0008411358746643,
        0.9987922055416706,
        0.9996037066500016,
        1.0010840200992284,
        0.9973730442374236,
        0.9996033155030617,
        0.9986131917134258,
        1.0002216691765522,
        0.9980704940582853,
        0.9994861266488331,
        1.0003300020034906,
        0.9993125927289198,
        1.0003765484244864,
        1.0007312559131438,
        0.9996733293788972,
        0.998886679331998,
        1.00041211039944,
        1.00013226047572,
        0.9989020964104929,
        1.0007869815236,
        1.0005191952892092,
        1.000932755213062,
        1.0000105155361245,
        0.9999589899722371,
        1.000457099928526,
        0.9997446716530021,
        1.0000855583407429,
        1.0000542233517113,
        0.9999585945925166,
        1.0002098285501955,
        0.9997676760979097,
        0.9998278771079838,
        0.9993993408969812,
        0.9997038033275245,
        1.0001182138186226,
        1.0000705865378197,
        0.9997592358950301,
        1.0001261041486917,
        0.9998199877664388,
        1.000012730504072,
        0.999987181647235,
        0.9994483647433867,
        1.0001312137136467,
        0.9995441281184014,
        0.9997100512325371,
        1.0001316740517765,
        0.9998156753807619,
        1.0002834716857902,
        0.99977759841357,
        0.9996819860681772,
        1.0001234030118031,
        0.9998249948513475,
        1.0003429332527496,
        1.000070149983599,
        0.9995399523042098,
        1.00023975151257,
        1.0002443755533745,
        0.9999787952738244,
        1.000221481509745,
        1.0000507948149322,
        1.0003700711370804,
        0.999809975493901,
        1.0000391743491017,
        1.0000266286204609,
        1.0000920693872402,
        0.9996188479527396,
        0.9998250630462577,
        0.9999069547016114,
        0.9998869557615614,
        1.000031484239187,
        0.99994217434299,
        1.000420436605609,
        1.0002047580715376,
        1.0000742776580194,
        0.9999804474775825,
        0.9999774689273646,
        1.0000657789640333,
        0.9999999990314853,
        1.0197232142984518,
        0.9842849470305811
    ],
    "WJetsToLNu_TuneCP5_13TeV-amcatnloFXFX-pythia8_PSSumw": [
        0.9979989528656006,
        0.999668538570404,
        1.0029786825180054,
        1.0005488395690918
    ],
    "WGToLNuG_01J_5f_TuneCP5_13TeV-amcatnloFXFX-pythia8": 0.0001609422512526665,
    "WGToLNuG_01J_5f_TuneCP5_13TeV-amcatnloFXFX-pythia8_LHEScaleSumw": [
        0.9847586792955471,
        0.952909186038414,
        0.9347950783747405,
        1.0418017553467573,
        1.0000000000096128,
        0.9739277408027082,
        1.092279993989328,
        1.0414977592648536,
        1.0083287181813188
    ],
    "WGToLNuG_01J_5f_TuneCP5_13TeV-amcatnloFXFX-pythia8_LHEPdfSumw": [
        1.0,
        0.9989098314057703,
        1.000420604127203,
        1.0001513799085713,
        0.9997773294250996,
        0.9997703626189743,
        1.0001851600966076,
        0.9998188005616492,
        1.0005809098144849,
        1.0001773783915067,
        1.0006054586417987,
        0.9999942404122147,
        1.0003071994820227,
        0.9995620270718406,
        1.0010212593275076,
        0.9991269171322273,
        1.000433379554362,
        1.0004860561313655,
        0.9997516563055354,
        0.9999308418964233,
        0.9978099650521293,
        0.9992921998921588,
        0.9997480042688295,
        1.0007070528469788,
        0.9989631765752658,
        0.9997738646882739,
        1.0007152455892676,
        0.9973881389716555,
        0.9994926088589043,
        0.9989494159779465,
        1.0002016330481494,
        0.9984036646087181,
        0.9995734713024911,
        1.0006732749670002,
        0.9991861141063567,
        1.0001139393816953,
        1.000733032273685,
        0.9997943998920547,
        0.9990562122519561,
        1.0001411360294128,
        0.9999762271259471,
        0.9992247197608518,
        1.0002719837697132,
        1.0004340096044617,
        1.0007956626005323,
        0.9996442940334586,
        0.9996623494288401,
        1.0003437018078227,
        0.9999473166161241,
        1.0000148559551945,
        1.0000106083852227,
        1.0000599319224839,
        1.0000093871620381,
        1.0000276458452981,
        0.9998866200452047,
        0.9994881650518211,
        0.9996071441605332,
        1.0000008441622343,
        1.0001890938701303,
        0.9995491988234229,
        1.0001027666126612,
        0.9998227441824409,
        0.9998989329182096,
        0.9999242260932337,
        0.9994411416851144,
        1.000117232188627,
        0.9992611938593027,
        0.9997533090105895,
        1.000043399045142,
        0.9997997831150529,
        1.000005836779401,
        0.9996570704295905,
        0.9999058959469846,
        1.0001090298479176,
        0.9998564470965102,
        1.0002927579973004,
        0.9999305588402484,
        0.9994391234690415,
        1.000210785944789,
        1.0002010087381927,
        1.000000794984052,
        1.000329257086701,
        0.9998862213013644,
        1.0002101393367546,
        0.9997981454322971,
        1.0000887532565945,
        1.000080709174806,
        0.9999404189419111,
        0.9997272246804333,
        0.9998322022712379,
        0.9999499288251198,
        0.999885187909027,
        1.000032716079393,
        1.0000123540165986,
        1.0004633759268518,
        1.0001424461069237,
        1.0000853044342197,
        0.9999986270908652,
        0.9998878592043202,
        0.9999520303795204,
        1.0000000123627484,
        1.0192256645981463,
        0.9829758085964688
    ],
    "WGToLNuG_01J_5f_TuneCP5_13TeV-amcatnloFXFX-pythia8_PSSumw": [
        0.996655285358429,
        0.9996745586395264,
        1.00368332862854,
        1.00039803981781
    ],
    "DYJetsToLL_M-10to50_TuneCP5_13TeV-amcatnloFXFX-pythia8": 0.00018791401036418918,
    "DYJetsToLL_M-10to50_TuneCP5_13TeV-amcatnloFXFX-pythia8_LHEScaleSumw": [
        1.183275843203344,
        0.9685660515613003,
        0.9139126440188733,
        1.2509285930354916,
        0.9087657932402291,
        1.3066182138107896,
        1.0252051566426732,
        0.9059715767306948
    ],
    "DYJetsToLL_M-10to50_TuneCP5_13TeV-amcatnloFXFX-pythia8_LHEPdfSumw": [
        1.0,
        1.0337435888425963,
        0.979167039507885,
        1.0131422145849678,
        1.0095508644264655,
        1.0055701695765646,
        0.9852580190573426,
        0.9993467381496768,
        1.0118321336776275,
        0.9934092103736152,
        0.9980847597450444,
        0.9982027057034998,
        1.0025358417444068,
        0.9979981418191021,
        1.0030653324435281,
        1.001618590008237,
        0.9996873274997655,
        1.0019938962152186,
        0.999395362184832,
        1.000390806577085,
        0.9997320226923433,
        0.9983286509034417,
        0.9980613456179834,
        1.001034275886524,
        1.001004904952223,
        0.9981000402112024,
        1.0019934918470423,
        0.9984496067422093,
        1.0000096932736038,
        0.9971006068936232,
        0.999814097776375,
        0.998775129714727,
        0.999535143328073,
        1.0010414990380834,
        0.9992372794066573,
        1.0002301392843962,
        0.9995036344029675,
        1.0004582879199324,
        0.9978777410353306,
        0.9988748914628355,
        0.9990530669236373,
        0.9995664700793608,
        1.0012893890183936,
        1.0001637150338054,
        1.0001656731082929,
        0.9996880858565702,
        0.9992015247308494,
        0.9997591076457963,
        1.0007978768451373,
        0.9998522143839188,
        0.9988172395874083,
        1.0000744749264836,
        1.0006775533201178,
        1.0003452300207876,
        0.9992003807635941,
        0.9987832345754305,
        1.0000106723030597,
        1.0006041378946076,
        0.9998849440249705,
        1.0001492898679964,
        1.0008819301723977,
        0.9992360101291207,
        1.000678000621661,
        0.9997989028081036,
        0.9997688299195792,
        1.0004574520222047,
        0.9997507470932334,
        0.9999436818147116,
        1.000236077841572,
        1.0002058376739555,
        1.0002118039295471,
        1.0003626777345975,
        0.999365771455549,
        1.0003646228983274,
        1.000105571630279,
        1.00046905413973,
        1.000138509067801,
        0.999802280326546,
        1.0007414305292774,
        0.9999928715187768,
        0.999975569538562,
        1.0000646241955145,
        1.0004418967489852,
        1.0008876762707022,
        0.9997847736108461,
        0.9998725285831966,
        0.9999614861356417,
        1.0004002203417812,
        0.9996475757996536,
        1.0003462589101415,
        0.9999993028443386,
        1.0001116113226154,
        0.9998377682978167,
        0.9993804789509576,
        1.0001728756691184,
        1.000098580463022,
        0.9998147150089745,
        0.9994136112729411,
        0.9998055496022569,
        0.9999410665792072,
        1.0000000173070203,
        1.025027847043577,
        0.9695004479680822
    ],
    "DYJetsToLL_M-10to50_TuneCP5_13TeV-amcatnloFXFX-pythia8_PSSumw": [
        0.9975159764289856,
        0.9979928135871887,
        1.0005393028259277,
        0.9991992115974426
    ],
    "DYJetsToLL_M-50_TuneCP5_13TeV-amcatnloFXFX-pythia8": 8.36720213025933e-05,
    "DYJetsToLL_M-50_TuneCP5_13TeV-amcatnloFXFX-pythia8_LHEScaleSumw": [
        1.0169208787201764,
        0.986148391934005,
        0.9710546180540127,
        1.041262081586867,
        1.0,
        0.9757463211683515,
        1.0644506123631483,
        1.014339195005548,
        0.9825361651454358
    ],
    "DYJetsToLL_M-50_TuneCP5_13TeV-amcatnloFXFX-pythia8_LHEPdfSumw": [
        1.0,
        0.9990718953041482,
        0.9990269885547446,
        1.0016610304022642,
        1.0012271980526937,
        1.0001570099921566,
        1.0011538758296958,
        1.000676081142798,
        1.0011924683650624,
        1.0006400401998095,
        1.0000148347903852,
        0.9990891142321753,
        1.0014427359329592,
        0.99934114529882,
        1.0013302157083899,
        1.0004381055506164,
        0.9994216216451207,
        1.0003007420145895,
        0.999642347810729,
        1.0002613822168314,
        0.9976002365426132,
        0.9990374174687159,
        0.9995879791864101,
        1.0005772309968435,
        0.9984455233145172,
        0.9990694643925163,
        1.0011677979106757,
        0.9971741918597161,
        0.9997627484589046,
        0.9985381680577093,
        0.9999874284299456,
        0.9977342357529578,
        0.9994124263034206,
        1.0005455052073007,
        0.999223890539954,
        1.000204948244295,
        1.0007167851463847,
        0.9997145567360967,
        0.9984637922315903,
        1.0003196515329709,
        0.99997084561593,
        0.9988153073063883,
        1.0007386068570545,
        1.0006989350714446,
        1.0009215383532237,
        0.9998996354211606,
        1.0001190070950468,
        1.0004963112050296,
        0.999540364451787,
        0.9999845308954582,
        1.0002287587746466,
        1.0000394520278708,
        1.0000098245903664,
        0.9998556702814203,
        0.9999893524841531,
        0.9995018738778461,
        0.9993068957240849,
        1.0001590383240537,
        1.0002028584833862,
        0.9994673848336905,
        1.0000512046376675,
        0.9998764187462458,
        0.9998446328462571,
        1.000048887696234,
        0.9993519738405571,
        1.00015838836487,
        0.9994666503369259,
        0.9995382011159123,
        0.9999799004738169,
        0.9997193717538597,
        1.0000692860383456,
        0.9996212392501188,
        0.999839535491223,
        1.0000100801030691,
        0.9998576102940147,
        1.0002475788592706,
        0.9999993226368411,
        0.9994975350634314,
        1.0001053153704216,
        1.0001771179408794,
        1.0000323137751421,
        1.0001837135488632,
        0.999880033033382,
        1.000253795821191,
        0.9998084251837455,
        1.0000904722874537,
        1.000064913218326,
        0.9999240636603469,
        0.9997265831351799,
        0.9998459315087339,
        0.9999477251634279,
        0.9999319113509154,
        1.000017747497557,
        0.9999788075158965,
        1.0002870347804804,
        1.0000928492594119,
        1.000103084258779,
        1.000031791058662,
        0.9999484267974925,
        0.9999494310406347,
        1.0000000022517415,
        1.0192199956474204,
        0.984729835947553
    ],
    "DYJetsToLL_M-50_TuneCP5_13TeV-amcatnloFXFX-pythia8_PSSumw": [
        0.9967256188392639,
        0.9998092651367188,
        1.003427505493164,
        1.0007811784744263
    ],
    "DYJetsToLL_M-50_TuneCP5_13TeV-madgraphMLM-pythia8": 1.2390525280030134,
    "DYJetsToLL_M-50_TuneCP5_13TeV-madgraphMLM-pythia8_LHEScaleSumw": [
        1.1138078861533638,
        0.9959259115138931,
        0.9095040557028237,
        1.1187967675252304,
        1.0,
        0.9129435659306887,
        1.1229172707961854,
        1.003362769327889,
        0.9157810851579696
    ],
    "DYJetsToLL_M-50_TuneCP5_13TeV-madgraphMLM-pythia8_LHEPdfSumw": [
        1.0,
        0.9989996849446924,
        0.999466797474392,
        1.0010828499760218,
        1.0009311378134451,
        0.9998897812950442,
        1.0010363642132516,
        1.0004182368437096,
        1.0009898484437236,
        1.0004295611315752,
        0.9999561521721506,
        0.999334356477375,
        1.001135325215358,
        0.9995691292639486,
        1.001262360709074,
        1.0002406009928577,
        0.9998456461070573,
        1.00048135150848,
        0.9996239179266977,
        1.0001548076636175,
        0.9979880953872832,
        0.9990784752776805,
        0.999622623424009,
        1.0005368405722317,
        0.9986767725921629,
        0.9992504919986469,
        1.0009260020993709,
        0.9975593759479693,
        0.9997247957952091,
        0.9987092153862545,
        0.999933888111936,
        0.9979899430891068,
        0.9995002433643739,
        1.0004473424174898,
        0.9992875506464438,
        1.0001755195752713,
        1.0006469214240057,
        0.9997412532878935,
        0.9986295846472083,
        1.0003290194368495,
        0.9999776429241244,
        0.9989217229089494,
        1.0006781230325583,
        1.0007044536542862,
        1.0008396233190395,
        0.9999165931277054,
        1.0001386965570058,
        1.0004902166247365,
        0.9995774714536166,
        1.0000541884525775,
        1.0002435715884854,
        1.0000256049188692,
        0.9999609249193426,
        0.9999026391035434,
        0.9999719816884658,
        0.9995245114951186,
        0.99934158120475,
        1.000135966485513,
        1.0001939747192587,
        0.9994634841084811,
        1.000015030274297,
        0.9998736870653386,
        0.9998089419707601,
        1.0000702976981,
        0.9993812289827948,
        1.0001085779084589,
        0.9994748700036186,
        0.999545924208297,
        0.9999499513232653,
        0.999740692240284,
        1.0000381721094622,
        0.9996428359063079,
        0.9998666862837343,
        0.999976918788647,
        0.9998915307229693,
        1.0002333327778603,
        1.0000009972943835,
        0.999497975908989,
        1.0000731056958296,
        1.000190776440529,
        1.0000298820058047,
        1.0001782753575263,
        0.9998667498197086,
        1.0002111037483465,
        0.9998092217880413,
        1.0000974852627758,
        1.000074319770887,
        0.9998948897755747,
        0.9997635232294758,
        0.9998631384922589,
        0.999950264509232,
        0.9999368384161111,
        1.0000052169694342,
        0.9999916668677156,
        1.0002536944473859,
        1.000066642173919,
        1.000111218869286,
        1.000024605222417,
        0.9999483298988235,
        0.9999357459072528,
        1.0,
        1.0172509867375967,
        0.9864158243896696
    ],
    "DYJetsToLL_M-50_TuneCP5_13TeV-madgraphMLM-pythia8_PSSumw": [
        0.9648045897483826,
        0.9993618726730347,
        1.047173261642456,
        1.001190423965454
    ],
    "ZGToLLG_01J_5f_TuneCP5_13TeV-amcatnloFXFX-pythia8": 0.0002785734668141952,
    "ZGToLLG_01J_5f_TuneCP5_13TeV-amcatnloFXFX-pythia8_LHEScaleSumw": [
        1.0002321508014655,
        0.971808640124088,
        0.9576550064837911,
        1.038987540280229,
        1.0,
        0.9768309744590282,
        1.0733045053399728,
        1.0252048009279886,
        0.9944295168039092
    ],
    "ZGToLLG_01J_5f_TuneCP5_13TeV-amcatnloFXFX-pythia8_LHEPdfSumw": [
        1.0,
        0.9989966264927547,
        1.0002964483457502,
        0.9996164116284195,
        1.000629845529389,
        0.999217479048515,
        1.0008492333237629,
        1.0000697707256134,
        1.0005971083196497,
        1.0000163196764014,
        1.0001047399927954,
        0.9994097271695833,
        1.0011194118831248,
        0.9996210668238931,
        1.0011082781684129,
        1.000099807326324,
        0.9995886218602289,
        1.0001873413165683,
        1.0000325666920826,
        1.0005308852315655,
        0.9981963879069436,
        0.999379899362864,
        0.9995585488928139,
        1.0006129363866385,
        0.9988693225328739,
        0.9991563461408913,
        1.001063743511205,
        0.9970023527596055,
        0.9997086745447964,
        0.9986629542149009,
        0.9998751569722312,
        0.9980913674570182,
        0.9994918981453877,
        1.0010095076602845,
        0.9991978822924513,
        1.0000738633033885,
        1.0004330288674474,
        0.9996484212094029,
        0.9985517009844396,
        0.9999330223189907,
        0.9996870787139499,
        0.9989985732560849,
        1.0000561829869825,
        1.0006194489658407,
        1.0007379471670674,
        0.9994075843553992,
        0.9996307358291058,
        1.0004306103705223,
        0.9999325054748743,
        1.0000352046949748,
        1.000056905252363,
        1.000151394469351,
        0.9999513510266943,
        1.0002045318454496,
        0.9999971288686242,
        0.9995389996864751,
        0.999271607966017,
        0.999790191787113,
        1.000362623866344,
        0.9994232337073817,
        1.0001494610336268,
        0.9998850546433803,
        0.9998527710870406,
        0.9998189999979743,
        0.9994753691240452,
        1.0001586731772276,
        0.9991944266066562,
        0.9997102322031599,
        1.0000739787849477,
        0.9997159830643578,
        0.9999467942572038,
        0.9996484253853545,
        0.9999455833992059,
        0.9999436351752911,
        0.9997421158007163,
        1.0002045516501321,
        0.9999429756731685,
        0.9994551050621973,
        1.0001511563381749,
        1.0002274374185223,
        1.0000030091839358,
        1.0002972828385697,
        0.9998669188219833,
        1.0001110163835938,
        0.9997541725066359,
        1.00007842123985,
        1.0001528795370953,
        0.9999639218598635,
        0.999816643868652,
        0.9997830739015545,
        1.000040192714633,
        0.9999110987327405,
        0.999992794139647,
        1.0000118856947855,
        1.000395655744658,
        1.000103848762742,
        1.0000069683164836,
        1.0000357758529794,
        0.9999246225737892,
        0.9999287176944874,
        0.9999999982248216,
        1.0185405823494895,
        0.9838392248738119
    ],
    "ZGToLLG_01J_5f_TuneCP5_13TeV-amcatnloFXFX-pythia8_PSSumw": [
        0.9970118403434753,
        0.9997450709342957,
        1.0045722723007202,
        0.9999674558639526
    ],
    "WW_TuneCP5_13TeV-pythia8": 0.1261190626079295,
    "ZGToLLG_01J_5f_lowMLL_lowGPt_TuneCP5_13TeV-amcatnloFXFX-pythia8": 0.000223282522794104,
    "ZGToLLG_01J_5f_lowMLL_lowGPt_TuneCP5_13TeV-amcatnloFXFX-pythia8_LHEScaleSumw": [
        1.0115284947872434,
        0.9719515166065399,
        0.9515470725558759,
        1.0506723439147008,
        0.9999999987524696,
        0.969952282131098,
        1.0844626935984416,
        1.0241938483825686,
        0.9860016677897403
    ],
    "ZGToLLG_01J_5f_lowMLL_lowGPt_TuneCP5_13TeV-amcatnloFXFX-pythia8_LHEPdfSumw": [
        1.0,
        0.9989576937624023,
        1.0001396013123858,
        1.0000138716077691,
        1.0007129062625886,
        0.99948743963671,
        1.0009938438359958,
        1.0001588472580616,
        1.0008099492440576,
        1.0000791493791075,
        1.0000600643501019,
        0.999232246270398,
        1.0012383766765873,
        0.9996825827017009,
        1.0012561861786966,
        1.0002172481164902,
        0.9996461262251882,
        1.000246003168923,
        0.9998363572787081,
        1.000526785235382,
        0.9982073895842645,
        0.9992006377379131,
        0.9996338502205583,
        1.0006384045686274,
        0.9988139427227289,
        0.9990889649843869,
        1.0012007976443515,
        0.9969895278667107,
        0.999768504420433,
        0.9986670353242121,
        0.9998983207481554,
        0.9981503580760276,
        0.9994470020607045,
        1.0010700924442233,
        0.9992532897697116,
        1.0000783552628054,
        1.0003493568172244,
        0.9996541327694677,
        0.9985177329108655,
        0.9998884862514954,
        0.999684139937508,
        0.9989457501661173,
        1.000032541651924,
        1.0006240132214845,
        1.00073035905396,
        0.9994118390806327,
        0.9995956947477492,
        1.0004031845422445,
        0.9999195501850096,
        0.9999946888505322,
        1.0000012124879594,
        1.000149388110349,
        0.9999785078809812,
        1.0001470215229704,
        0.999983240475071,
        0.9995371337264646,
        0.9993261369842967,
        0.9998287811050596,
        1.000360320195121,
        0.9994920194238701,
        1.0001784655496209,
        0.9998719433985415,
        0.9998993755556108,
        0.9997997336182727,
        0.9994803669410879,
        1.000159961140198,
        0.9992307154793122,
        0.9997320683618947,
        1.0000840022752102,
        0.9997354384461627,
        0.999961779390524,
        0.999651360619762,
        0.9999059508817725,
        1.0000048377916622,
        0.9997359969137073,
        1.0002301958860196,
        0.9999571105312417,
        0.9994651569977369,
        1.000170227838691,
        1.0002223078523922,
        0.9999763126242505,
        1.0003141798209068,
        0.9998969673421676,
        1.0001295048398273,
        0.9997679677143847,
        1.0000679827135035,
        1.0001261961691112,
        0.9999871007934685,
        0.9997839678047736,
        0.9997890538285464,
        1.0000159430737658,
        0.9999030081786215,
        0.9999808517980814,
        1.0000088710181185,
        1.000411368262529,
        1.000118222190924,
        1.0000157711306206,
        1.0000133504398754,
        0.9999228619309373,
        0.9999431730605287,
        0.9999999947278206,
        1.018450700645987,
        0.9840076941501245
    ],
    "ZGToLLG_01J_5f_lowMLL_lowGPt_TuneCP5_13TeV-amcatnloFXFX-pythia8_PSSumw": [
        0.9983890056610107,
        0.9998568296432495,
        1.0033999681472778,
        1.0002672672271729
    ],
    "WZ_TuneCP5_13TeV-pythia8": 0.10446404272151898,
    "ZZ_TuneCP5_13TeV-pythia8": 0.24131331885317117,
    "ST_tWAto2L2Nu_5f_TuneCP5_13TeV-madgraph-pythia8": 0.003230865086564978,
    "ST_tWAto2L2Nu_5f_TuneCP5_13TeV-madgraph-pythia8_LHEScaleSumw": [
        0.9691608109438825,
        0.904984563255789,
        0.8671344665755162,
        1.0708334610232626,
        1.0,
        0.9582313828456389,
        1.1720467082692514,
        1.0945864623982193,
        1.0489172316853144
    ],
    "ST_tWAto2L2Nu_5f_TuneCP5_13TeV-madgraph-pythia8_LHEPdfSumw": [
        1.0,
        1.0003748255914708,
        1.0023887640093068,
        0.9997975569311427,
        0.9973398915955773,
        1.0009041257671265,
        0.9972248497090102,
        0.9985495972124356,
        0.9973832644948791,
        1.000822588385009,
        1.000626560066272,
        1.0013477674851239,
        0.9980953254996996,
        0.9990396599318487,
        0.9976503333016467,
        0.9981589378534936,
        0.9993307866019533,
        0.9992797210556369,
        1.0009238625202062,
        1.0006135654556594,
        1.001048747201671,
        1.0007335351841653,
        1.0010671396513877,
        0.9989821412892692,
        1.0024999354176591,
        1.0001507871183102,
        1.0013208198084513,
        1.0015187527980804,
        0.9999953696498609,
        1.0042595995968033,
        1.00024203465281,
        1.0042782811945405,
        0.9998808801826351,
        1.0016129169168084,
        1.002728871199637,
        0.9994161602286077,
        0.9975793915533269,
        1.0011064466519568,
        1.000272568307595,
        1.0002149224292431,
        1.0010103015507503,
        1.000794623768613,
        0.9988346012682422,
        1.0005973863592625,
        0.9993700905890928,
        1.0000926327641657,
        1.0009390767493023,
        0.9998384587000095,
        1.0001980401455297,
        1.0010817751580057,
        1.000565324948248,
        1.0003148618414124,
        0.9988334786974759,
        1.0001033206936178,
        1.0002808134553598,
        1.0007568661330177,
        1.0004989784996936,
        0.9994643101293054,
        0.9994935525863159,
        0.9997870485979548,
        1.000189960162363,
        1.0002274843794152,
        0.9990874213062151,
        0.999307495497255,
        1.0000323129414088,
        0.999031678700288,
        1.0002555162927182,
        1.000441073590246,
        0.9993024761272135,
        1.0000787558673938,
        0.9993890005462683,
        1.0003605785250318,
        1.0005893921412858,
        0.9998984903878092,
        1.0004664765838867,
        1.0001624578046298,
        0.999988312430086,
        0.9993388619505428,
        0.9998125915150452,
        1.0002351740800473,
        0.999851784208719,
        1.000304825594335,
        0.9998386988133204,
        0.9990439232602278,
        1.0000657651494793,
        0.9998658296334785,
        1.0001821862146867,
        0.9998237145789818,
        1.0002337738002007,
        1.0002843700536692,
        0.9997495559394958,
        0.9998596404891813,
        0.9995224837240376,
        1.0003970247536609,
        0.9999570814591502,
        0.9996412772996992,
        1.000172732206082,
        0.9997357854987385,
        0.999926590005549,
        0.9997627219042088,
        1.0,
        1.029154542723253,
        0.9709522241268025
    ],
    "ST_tWAto2L2Nu_5f_TuneCP5_13TeV-madgraph-pythia8_PSSumw": [
        0.9998960494995117,
        1.0008049011230469,
        1.000172734260559,
        1.0013452768325806
    ]
}